0;0
63000;0.000
63977;2.000
63981;4.000
63990;6.000
64063;4.000
64067;2.000
64076;0.000
64099;2.000
64103;4.000
64112;6.000
64329;4.000
64333;2.000
64342;0.000
64369;2.000
64373;4.000
64382;6.000
64581;4.000
64585;2.000
64594;0.000
64624;2.000
64628;4.000
64637;6.000
64821;4.000
64825;2.000
64834;0.000
64867;2.000
64871;4.000
64880;6.000
65049;4.000
65053;2.000
65062;0.000
65097;2.000
65101;4.000
65110;6.000
65266;4.000
65270;2.000
65279;0.000
65314;2.000
65318;4.000
65327;6.000
65472;4.000
65476;2.000
65485;0.000
65521;2.000
65525;4.000
65534;6.000
65667;4.000
65671;2.000
65680;0.000
65717;2.000
65721;4.000
65730;6.000
65853;4.000
65857;2.000
65866;0.000
65903;2.000
65907;4.000
65916;6.000
66029;4.000
66033;2.000
66042;0.000
66079;2.000
66083;4.000
66092;6.000
66196;4.000
66200;2.000
66209;0.000
66246;2.000
66250;4.000
66259;6.000
66355;4.000
66359;2.000
66368;0.000
66404;2.000
66408;4.000
66417;6.000
66506;4.000
66510;2.000
66519;0.000
66554;2.000
66558;4.000
66567;6.000
66649;4.000
66653;2.000
66662;0.000
66697;2.000
66701;4.000
66710;6.000
66785;4.000
66789;2.000
66798;0.000
66832;2.000
66836;4.000
66845;6.000
66914;4.000
66918;2.000
66927;0.000
66960;2.000
66964;4.000
66973;6.000
67037;4.000
67041;2.000
67050;0.000
67081;2.000
67085;4.000
67094;6.000
67153;4.000
67157;2.000
67166;0.000
67196;2.000
67200;4.000
67209;6.000
67263;4.000
67267;2.000
67276;0.000
67305;2.000
67309;4.000
67318;6.000
67368;4.000
67372;2.000
67381;0.000
67409;2.000
67413;4.000
67422;6.000
67468;4.000
67472;2.000
67481;0.000
67507;2.000
67511;4.000
67520;6.000
