0;0
63000;0.000
63622;2.000
63634;4.000
63638;6.000
63708;4.000
63720;2.000
63724;0.000
63744;2.000
63756;4.000
63760;6.000
63974;4.000
63986;2.000
63990;0.000
64014;2.000
64026;4.000
64030;6.000
64226;4.000
64238;2.000
64242;0.000
64269;2.000
64281;4.000
64285;6.000
64466;4.000
64478;2.000
64482;0.000
64512;2.000
64524;4.000
64528;6.000
64694;4.000
64706;2.000
64710;0.000
64742;2.000
64754;4.000
64758;6.000
64911;4.000
64923;2.000
64927;0.000
64959;2.000
64971;4.000
64975;6.000
65117;4.000
65129;2.000
65133;0.000
65166;2.000
65178;4.000
65182;6.000
65312;4.000
65324;2.000
65328;0.000
65362;2.000
65374;4.000
65378;6.000
65498;4.000
65510;2.000
65514;0.000
65548;2.000
65560;4.000
65564;6.000
65674;4.000
65686;2.000
65690;0.000
65724;2.000
65736;4.000
65740;6.000
65841;4.000
65853;2.000
65857;0.000
65891;2.000
65903;4.000
65907;6.000
66000;4.000
66012;2.000
66016;0.000
66049;2.000
66061;4.000
66065;6.000
66151;4.000
66163;2.000
66167;0.000
66199;2.000
66211;4.000
66215;6.000
66294;4.000
66306;2.000
66310;0.000
66342;2.000
66354;4.000
66358;6.000
66430;4.000
66442;2.000
66446;0.000
66477;2.000
66489;4.000
66493;6.000
66559;4.000
66571;2.000
66575;0.000
66605;2.000
66617;4.000
66621;6.000
66682;4.000
66694;2.000
66698;0.000
66726;2.000
66738;4.000
66742;6.000
66798;4.000
66810;2.000
66814;0.000
66841;2.000
66853;4.000
66857;6.000
66908;4.000
66920;2.000
66924;0.000
66950;2.000
66962;4.000
66966;6.000
67013;4.000
67025;2.000
67029;0.000
67054;2.000
67066;4.000
67070;6.000
67113;4.000
67125;2.000
67129;0.000
67152;2.000
67164;4.000
67168;6.000
67207;4.000
67219;2.000
67223;0.000
67245;2.000
67257;4.000
67261;6.000
67296;4.000
67308;2.000
67312;0.000
67333;2.000
67345;4.000
67349;6.000
67381;4.000
67393;2.000
67397;0.000
67416;2.000
67428;4.000
67432;6.000
67462;4.000
67474;2.000
67478;0.000
67496;2.000
67508;4.000
67512;6.000
67538;4.000
