0;0
63000;0.000
63158;2.000
63160;4.000
63177;6.000
63244;4.000
63246;2.000
63263;0.000
63280;2.000
63282;4.000
63299;6.000
63510;4.000
63512;2.000
63529;0.000
63550;2.000
63552;4.000
63569;6.000
63762;4.000
63764;2.000
63781;0.000
63805;2.000
63807;4.000
63824;6.000
64002;4.000
64004;2.000
64021;0.000
64048;2.000
64050;4.000
64067;6.000
64230;4.000
64232;2.000
64249;0.000
64278;2.000
64280;4.000
64297;6.000
64447;4.000
64449;2.000
64466;0.000
64495;2.000
64497;4.000
64514;6.000
64653;4.000
64655;2.000
64672;0.000
64702;2.000
64704;4.000
64721;6.000
64848;4.000
64850;2.000
64867;0.000
64898;2.000
64900;4.000
64917;6.000
65034;4.000
65036;2.000
65053;0.000
65084;2.000
65086;4.000
65103;6.000
65210;4.000
65212;2.000
65229;0.000
65260;2.000
65262;4.000
65279;6.000
65377;4.000
65379;2.000
65396;0.000
65427;2.000
65429;4.000
65446;6.000
65536;4.000
65538;2.000
65555;0.000
65585;2.000
65587;4.000
65604;6.000
65687;4.000
65689;2.000
65706;0.000
65735;2.000
65737;4.000
65754;6.000
65830;4.000
65832;2.000
65849;0.000
65878;2.000
65880;4.000
65897;6.000
65966;4.000
65968;2.000
65985;0.000
66013;2.000
66015;4.000
66032;6.000
66095;4.000
66097;2.000
66114;0.000
66141;2.000
66143;4.000
66160;6.000
66218;4.000
66220;2.000
66237;0.000
66262;2.000
66264;4.000
66281;6.000
66334;4.000
66336;2.000
66353;0.000
66377;2.000
66379;4.000
66396;6.000
66444;4.000
66446;2.000
66463;0.000
66486;2.000
66488;4.000
66505;6.000
66549;4.000
66551;2.000
66568;0.000
66590;2.000
66592;4.000
66609;6.000
66649;4.000
66651;2.000
66668;0.000
66688;2.000
66690;4.000
66707;6.000
66743;4.000
66745;2.000
66762;0.000
66781;2.000
66783;4.000
66800;6.000
66832;4.000
66834;2.000
66851;0.000
66869;2.000
66871;4.000
66888;6.000
66917;4.000
66919;2.000
66936;0.000
66952;2.000
66954;4.000
66971;6.000
66998;4.000
67000;2.000
67017;0.000
67032;2.000
67034;4.000
67051;6.000
67074;4.000
67076;2.000
67093;0.000
67107;2.000
67109;4.000
67126;6.000
67146;4.000
67148;2.000
67165;0.000
67178;2.000
67180;4.000
67197;6.000
67215;4.000
67217;2.000
67234;0.000
67245;2.000
67247;4.000
67264;6.000
67281;4.000
67283;2.000
67300;0.000
67310;2.000
67312;4.000
67329;6.000
67342;4.000
67344;2.000
67361;0.000
67370;2.000
67372;4.000
67389;6.000
67401;4.000
67403;2.000
67420;0.000
67428;2.000
67430;4.000
67447;6.000
67457;4.000
67459;2.000
67476;0.000
67482;2.000
67484;4.000
67501;6.000
67510;4.000
67512;2.000
67529;0.000
67534;2.000
67536;4.000
