0;0
63000;0.000
63640;2.000
63655;4.000
63659;6.000
63726;4.000
63741;2.000
63745;0.000
63762;2.000
63777;4.000
63781;6.000
63992;4.000
64007;2.000
64011;0.000
64032;2.000
64047;4.000
64051;6.000
64244;4.000
64259;2.000
64263;0.000
64287;2.000
64302;4.000
64306;6.000
64484;4.000
64499;2.000
64503;0.000
64530;2.000
64545;4.000
64549;6.000
64712;4.000
64727;2.000
64731;0.000
64760;2.000
64775;4.000
64779;6.000
64929;4.000
64944;2.000
64948;0.000
64977;2.000
64992;4.000
64996;6.000
65135;4.000
65150;2.000
65154;0.000
65184;2.000
65199;4.000
65203;6.000
65330;4.000
65345;2.000
65349;0.000
65380;2.000
65395;4.000
65399;6.000
65516;4.000
65531;2.000
65535;0.000
65566;2.000
65581;4.000
65585;6.000
65692;4.000
65707;2.000
65711;0.000
65742;2.000
65757;4.000
65761;6.000
65859;4.000
65874;2.000
65878;0.000
65909;2.000
65924;4.000
65928;6.000
66018;4.000
66033;2.000
66037;0.000
66067;2.000
66082;4.000
66086;6.000
66169;4.000
66184;2.000
66188;0.000
66217;2.000
66232;4.000
66236;6.000
66312;4.000
66327;2.000
66331;0.000
66360;2.000
66375;4.000
66379;6.000
66448;4.000
66463;2.000
66467;0.000
66495;2.000
66510;4.000
66514;6.000
66577;4.000
66592;2.000
66596;0.000
66623;2.000
66638;4.000
66642;6.000
66700;4.000
66715;2.000
66719;0.000
66744;2.000
66759;4.000
66763;6.000
66816;4.000
66831;2.000
66835;0.000
66859;2.000
66874;4.000
66878;6.000
66926;4.000
66941;2.000
66945;0.000
66968;2.000
66983;4.000
66987;6.000
67031;4.000
67046;2.000
67050;0.000
67072;2.000
67087;4.000
67091;6.000
67131;4.000
67146;2.000
67150;0.000
67170;2.000
67185;4.000
67189;6.000
67225;4.000
67240;2.000
67244;0.000
67263;2.000
67278;4.000
67282;6.000
67314;4.000
67329;2.000
67333;0.000
67351;2.000
67366;4.000
67370;6.000
67399;4.000
67414;2.000
67418;0.000
67434;2.000
67449;4.000
67453;6.000
67480;4.000
67495;2.000
67499;0.000
67514;2.000
67529;4.000
67533;6.000
