0;0
63000;0.000
63510;2.000
63527;4.000
63535;6.000
63596;4.000
63613;2.000
63621;0.000
63632;2.000
63649;4.000
63657;6.000
63862;4.000
63879;2.000
63887;0.000
63902;2.000
63919;4.000
63927;6.000
64114;4.000
64131;2.000
64139;0.000
64157;2.000
64174;4.000
64182;6.000
64354;4.000
64371;2.000
64379;0.000
64400;2.000
64417;4.000
64425;6.000
64582;4.000
64599;2.000
64607;0.000
64630;2.000
64647;4.000
64655;6.000
64799;4.000
64816;2.000
64824;0.000
64847;2.000
64864;4.000
64872;6.000
65005;4.000
65022;2.000
65030;0.000
65054;2.000
65071;4.000
65079;6.000
65200;4.000
65217;2.000
65225;0.000
65250;2.000
65267;4.000
65275;6.000
65386;4.000
65403;2.000
65411;0.000
65436;2.000
65453;4.000
65461;6.000
65562;4.000
65579;2.000
65587;0.000
65612;2.000
65629;4.000
65637;6.000
65729;4.000
65746;2.000
65754;0.000
65779;2.000
65796;4.000
65804;6.000
65888;4.000
65905;2.000
65913;0.000
65937;2.000
65954;4.000
65962;6.000
66039;4.000
66056;2.000
66064;0.000
66087;2.000
66104;4.000
66112;6.000
66182;4.000
66199;2.000
66207;0.000
66230;2.000
66247;4.000
66255;6.000
66318;4.000
66335;2.000
66343;0.000
66365;2.000
66382;4.000
66390;6.000
66447;4.000
66464;2.000
66472;0.000
66493;2.000
66510;4.000
66518;6.000
66570;4.000
66587;2.000
66595;0.000
66614;2.000
66631;4.000
66639;6.000
66686;4.000
66703;2.000
66711;0.000
66729;2.000
66746;4.000
66754;6.000
66796;4.000
66813;2.000
66821;0.000
66838;2.000
66855;4.000
66863;6.000
66901;4.000
66918;2.000
66926;0.000
66942;2.000
66959;4.000
66967;6.000
67001;4.000
67018;2.000
67026;0.000
67040;2.000
67057;4.000
67065;6.000
67095;4.000
67112;2.000
67120;0.000
67133;2.000
67150;4.000
67158;6.000
67184;4.000
67201;2.000
67209;0.000
67221;2.000
67238;4.000
67246;6.000
67269;4.000
67286;2.000
67294;0.000
67304;2.000
67321;4.000
67329;6.000
67350;4.000
67367;2.000
67375;0.000
67384;2.000
67401;4.000
67409;6.000
67426;4.000
67443;2.000
67451;0.000
67459;2.000
67476;4.000
67484;6.000
67498;4.000
67515;2.000
67523;0.000
67530;2.000
