0;0
63000;0.000
64116;2.000
64122;4.000
64133;6.000
64202;4.000
64208;2.000
64219;0.000
64238;2.000
64244;4.000
64255;6.000
64468;4.000
64474;2.000
64485;0.000
64508;2.000
64514;4.000
64525;6.000
64720;4.000
64726;2.000
64737;0.000
64763;2.000
64769;4.000
64780;6.000
64960;4.000
64966;2.000
64977;0.000
65006;2.000
65012;4.000
65023;6.000
65188;4.000
65194;2.000
65205;0.000
65236;2.000
65242;4.000
65253;6.000
65405;4.000
65411;2.000
65422;0.000
65453;2.000
65459;4.000
65470;6.000
65611;4.000
65617;2.000
65628;0.000
65660;2.000
65666;4.000
65677;6.000
65806;4.000
65812;2.000
65823;0.000
65856;2.000
65862;4.000
65873;6.000
65992;4.000
65998;2.000
66009;0.000
66042;2.000
66048;4.000
66059;6.000
66168;4.000
66174;2.000
66185;0.000
66218;2.000
66224;4.000
66235;6.000
66335;4.000
66341;2.000
66352;0.000
66385;2.000
66391;4.000
66402;6.000
66494;4.000
66500;2.000
66511;0.000
66543;2.000
66549;4.000
66560;6.000
66645;4.000
66651;2.000
66662;0.000
66693;2.000
66699;4.000
66710;6.000
66788;4.000
66794;2.000
66805;0.000
66836;2.000
66842;4.000
66853;6.000
66924;4.000
66930;2.000
66941;0.000
66971;2.000
66977;4.000
66988;6.000
67053;4.000
67059;2.000
67070;0.000
67099;2.000
67105;4.000
67116;6.000
67176;4.000
67182;2.000
67193;0.000
67220;2.000
67226;4.000
67237;6.000
67292;4.000
67298;2.000
67309;0.000
67335;2.000
67341;4.000
67352;6.000
67402;4.000
67408;2.000
67419;0.000
67444;2.000
67450;4.000
67461;6.000
67507;4.000
67513;2.000
67524;0.000
