0;0
63000;0.000
63517;2.000
63537;6.000
63603;4.000
63623;0.000
63639;2.000
63659;6.000
63869;4.000
63889;0.000
63909;2.000
63929;6.000
64121;4.000
64141;0.000
64164;2.000
64184;6.000
64361;4.000
64381;0.000
64407;2.000
64427;6.000
64589;4.000
64609;0.000
64637;2.000
64657;6.000
64806;4.000
64826;0.000
64854;2.000
64874;6.000
65012;4.000
65032;0.000
65061;2.000
65081;6.000
65207;4.000
65227;0.000
65257;2.000
65277;6.000
65393;4.000
65413;0.000
65443;2.000
65463;6.000
65569;4.000
65589;0.000
65619;2.000
65639;6.000
65736;4.000
65756;0.000
65786;2.000
65806;6.000
65895;4.000
65915;0.000
65944;2.000
65964;6.000
66046;4.000
66066;0.000
66094;2.000
66114;6.000
66189;4.000
66209;0.000
66237;2.000
66257;6.000
66325;4.000
66345;0.000
66372;2.000
66392;6.000
66454;4.000
66474;0.000
66500;2.000
66520;6.000
66577;4.000
66597;0.000
66621;2.000
66641;6.000
66693;4.000
66713;0.000
66736;2.000
66756;6.000
66803;4.000
66823;0.000
66845;2.000
66865;6.000
66908;4.000
66928;0.000
66949;2.000
66969;6.000
67008;4.000
67028;0.000
67047;2.000
67067;6.000
67102;4.000
67122;0.000
67140;2.000
67160;6.000
67191;4.000
67211;0.000
67228;2.000
67248;6.000
67276;4.000
67296;0.000
67311;2.000
67331;6.000
67357;4.000
67377;0.000
67391;2.000
67411;6.000
67433;4.000
67453;0.000
67466;2.000
67486;6.000
67505;4.000
67525;0.000
67537;2.000
