0;0
63000;0.000
63834;2.000
63851;4.000
63856;6.000
63920;4.000
63937;2.000
63942;0.000
63956;2.000
63973;4.000
63978;6.000
64186;4.000
64203;2.000
64208;0.000
64226;2.000
64243;4.000
64248;6.000
64438;4.000
64455;2.000
64460;0.000
64481;2.000
64498;4.000
64503;6.000
64678;4.000
64695;2.000
64700;0.000
64724;2.000
64741;4.000
64746;6.000
64906;4.000
64923;2.000
64928;0.000
64954;2.000
64971;4.000
64976;6.000
65123;4.000
65140;2.000
65145;0.000
65171;2.000
65188;4.000
65193;6.000
65329;4.000
65346;2.000
65351;0.000
65378;2.000
65395;4.000
65400;6.000
65524;4.000
65541;2.000
65546;0.000
65574;2.000
65591;4.000
65596;6.000
65710;4.000
65727;2.000
65732;0.000
65760;2.000
65777;4.000
65782;6.000
65886;4.000
65903;2.000
65908;0.000
65936;2.000
65953;4.000
65958;6.000
66053;4.000
66070;2.000
66075;0.000
66103;2.000
66120;4.000
66125;6.000
66212;4.000
66229;2.000
66234;0.000
66261;2.000
66278;4.000
66283;6.000
66363;4.000
66380;2.000
66385;0.000
66411;2.000
66428;4.000
66433;6.000
66506;4.000
66523;2.000
66528;0.000
66554;2.000
66571;4.000
66576;6.000
66642;4.000
66659;2.000
66664;0.000
66689;2.000
66706;4.000
66711;6.000
66771;4.000
66788;2.000
66793;0.000
66817;2.000
66834;4.000
66839;6.000
66894;4.000
66911;2.000
66916;0.000
66938;2.000
66955;4.000
66960;6.000
67010;4.000
67027;2.000
67032;0.000
67053;2.000
67070;4.000
67075;6.000
67120;4.000
67137;2.000
67142;0.000
67162;2.000
67179;4.000
67184;6.000
67225;4.000
67242;2.000
67247;0.000
67266;2.000
67283;4.000
67288;6.000
67325;4.000
67342;2.000
67347;0.000
67364;2.000
67381;4.000
67386;6.000
67419;4.000
67436;2.000
67441;0.000
67457;2.000
67474;4.000
67479;6.000
67508;4.000
67525;2.000
67530;0.000
