0;0
63000;0.000
63321;2.000
63329;4.000
63338;6.000
63407;4.000
63415;2.000
63424;0.000
63443;2.000
63451;4.000
63460;6.000
63673;4.000
63681;2.000
63690;0.000
63713;2.000
63721;4.000
63730;6.000
63925;4.000
63933;2.000
63942;0.000
63968;2.000
63976;4.000
63985;6.000
64165;4.000
64173;2.000
64182;0.000
64211;2.000
64219;4.000
64228;6.000
64393;4.000
64401;2.000
64410;0.000
64441;2.000
64449;4.000
64458;6.000
64610;4.000
64618;2.000
64627;0.000
64658;2.000
64666;4.000
64675;6.000
64816;4.000
64824;2.000
64833;0.000
64865;2.000
64873;4.000
64882;6.000
65011;4.000
65019;2.000
65028;0.000
65061;2.000
65069;4.000
65078;6.000
65197;4.000
65205;2.000
65214;0.000
65247;2.000
65255;4.000
65264;6.000
65373;4.000
65381;2.000
65390;0.000
65423;2.000
65431;4.000
65440;6.000
65540;4.000
65548;2.000
65557;0.000
65590;2.000
65598;4.000
65607;6.000
65699;4.000
65707;2.000
65716;0.000
65748;2.000
65756;4.000
65765;6.000
65850;4.000
65858;2.000
65867;0.000
65898;2.000
65906;4.000
65915;6.000
65993;4.000
66001;2.000
66010;0.000
66041;2.000
66049;4.000
66058;6.000
66129;4.000
66137;2.000
66146;0.000
66176;2.000
66184;4.000
66193;6.000
66258;4.000
66266;2.000
66275;0.000
66304;2.000
66312;4.000
66321;6.000
66381;4.000
66389;2.000
66398;0.000
66425;2.000
66433;4.000
66442;6.000
66497;4.000
66505;2.000
66514;0.000
66540;2.000
66548;4.000
66557;6.000
66607;4.000
66615;2.000
66624;0.000
66649;2.000
66657;4.000
66666;6.000
66712;4.000
66720;2.000
66729;0.000
66753;2.000
66761;4.000
66770;6.000
66812;4.000
66820;2.000
66829;0.000
66851;2.000
66859;4.000
66868;6.000
66906;4.000
66914;2.000
66923;0.000
66944;2.000
66952;4.000
66961;6.000
66995;4.000
67003;2.000
67012;0.000
67032;2.000
67040;4.000
67049;6.000
67080;4.000
67088;2.000
67097;0.000
67115;2.000
67123;4.000
67132;6.000
67161;4.000
67169;2.000
67178;0.000
67195;2.000
67203;4.000
67212;6.000
67237;4.000
67245;2.000
67254;0.000
67270;2.000
67278;4.000
67287;6.000
67309;4.000
67317;2.000
67326;0.000
67341;2.000
67349;4.000
67358;6.000
67378;4.000
67386;2.000
67395;0.000
67408;2.000
67416;4.000
67425;6.000
67444;4.000
67452;2.000
67461;0.000
67473;2.000
67481;4.000
67490;6.000
67505;4.000
67513;2.000
67522;0.000
67533;2.000
