0;0
63000;0.000
63779;2.000
63795;6.000
63865;4.000
63881;0.000
63901;2.000
63917;6.000
64131;4.000
64147;0.000
64171;2.000
64187;6.000
64383;4.000
64399;0.000
64426;2.000
64442;6.000
64623;4.000
64639;0.000
64669;2.000
64685;6.000
64851;4.000
64867;0.000
64899;2.000
64915;6.000
65068;4.000
65084;0.000
65116;2.000
65132;6.000
65274;4.000
65290;0.000
65323;2.000
65339;6.000
65469;4.000
65485;0.000
65519;2.000
65535;6.000
65655;4.000
65671;0.000
65705;2.000
65721;6.000
65831;4.000
65847;0.000
65881;2.000
65897;6.000
65998;4.000
66014;0.000
66048;2.000
66064;6.000
66157;4.000
66173;0.000
66206;2.000
66222;6.000
66308;4.000
66324;0.000
66356;2.000
66372;6.000
66451;4.000
66467;0.000
66499;2.000
66515;6.000
66587;4.000
66603;0.000
66634;2.000
66650;6.000
66716;4.000
66732;0.000
66762;2.000
66778;6.000
66839;4.000
66855;0.000
66883;2.000
66899;6.000
66955;4.000
66971;0.000
66998;2.000
67014;6.000
67065;4.000
67081;0.000
67107;2.000
67123;6.000
67170;4.000
67186;0.000
67211;2.000
67227;6.000
67270;4.000
67286;0.000
67309;2.000
67325;6.000
67364;4.000
67380;0.000
67402;2.000
67418;6.000
67453;4.000
67469;0.000
67490;2.000
67506;6.000
67538;4.000
