0;0
63000;0.000
63734;2.000
63735;4.000
63748;6.000
63820;4.000
63821;2.000
63834;0.000
63856;2.000
63857;4.000
63870;6.000
64086;4.000
64087;2.000
64100;0.000
64126;2.000
64127;4.000
64140;6.000
64338;4.000
64339;2.000
64352;0.000
64381;2.000
64382;4.000
64395;6.000
64578;4.000
64579;2.000
64592;0.000
64624;2.000
64625;4.000
64638;6.000
64806;4.000
64807;2.000
64820;0.000
64854;2.000
64855;4.000
64868;6.000
65023;4.000
65024;2.000
65037;0.000
65071;2.000
65072;4.000
65085;6.000
65229;4.000
65230;2.000
65243;0.000
65278;2.000
65279;4.000
65292;6.000
65424;4.000
65425;2.000
65438;0.000
65474;2.000
65475;4.000
65488;6.000
65610;4.000
65611;2.000
65624;0.000
65660;2.000
65661;4.000
65674;6.000
65786;4.000
65787;2.000
65800;0.000
65836;2.000
65837;4.000
65850;6.000
65953;4.000
65954;2.000
65967;0.000
66003;2.000
66004;4.000
66017;6.000
66112;4.000
66113;2.000
66126;0.000
66161;2.000
66162;4.000
66175;6.000
66263;4.000
66264;2.000
66277;0.000
66311;2.000
66312;4.000
66325;6.000
66406;4.000
66407;2.000
66420;0.000
66454;2.000
66455;4.000
66468;6.000
66542;4.000
66543;2.000
66556;0.000
66589;2.000
66590;4.000
66603;6.000
66671;4.000
66672;2.000
66685;0.000
66717;2.000
66718;4.000
66731;6.000
66794;4.000
66795;2.000
66808;0.000
66838;2.000
66839;4.000
66852;6.000
66910;4.000
66911;2.000
66924;0.000
66953;2.000
66954;4.000
66967;6.000
67020;4.000
67021;2.000
67034;0.000
67062;2.000
67063;4.000
67076;6.000
67125;4.000
67126;2.000
67139;0.000
67166;2.000
67167;4.000
67180;6.000
67225;4.000
67226;2.000
67239;0.000
67264;2.000
67265;4.000
67278;6.000
67319;4.000
67320;2.000
67333;0.000
67357;2.000
67358;4.000
67371;6.000
67408;4.000
67409;2.000
67422;0.000
67445;2.000
67446;4.000
67459;6.000
67493;4.000
67494;2.000
67507;0.000
67528;2.000
67529;4.000
