0;0
63000;0.000
63962;2.000
63963;4.000
63974;6.000
64048;4.000
64049;2.000
64060;0.000
64084;2.000
64085;4.000
64096;6.000
64314;4.000
64315;2.000
64326;0.000
64354;2.000
64355;4.000
64366;6.000
64566;4.000
64567;2.000
64578;0.000
64609;2.000
64610;4.000
64621;6.000
64806;4.000
64807;2.000
64818;0.000
64852;2.000
64853;4.000
64864;6.000
65034;4.000
65035;2.000
65046;0.000
65082;2.000
65083;4.000
65094;6.000
65251;4.000
65252;2.000
65263;0.000
65299;2.000
65300;4.000
65311;6.000
65457;4.000
65458;2.000
65469;0.000
65506;2.000
65507;4.000
65518;6.000
65652;4.000
65653;2.000
65664;0.000
65702;2.000
65703;4.000
65714;6.000
65838;4.000
65839;2.000
65850;0.000
65888;2.000
65889;4.000
65900;6.000
66014;4.000
66015;2.000
66026;0.000
66064;2.000
66065;4.000
66076;6.000
66181;4.000
66182;2.000
66193;0.000
66231;2.000
66232;4.000
66243;6.000
66340;4.000
66341;2.000
66352;0.000
66389;2.000
66390;4.000
66401;6.000
66491;4.000
66492;2.000
66503;0.000
66539;2.000
66540;4.000
66551;6.000
66634;4.000
66635;2.000
66646;0.000
66682;2.000
66683;4.000
66694;6.000
66770;4.000
66771;2.000
66782;0.000
66817;2.000
66818;4.000
66829;6.000
66899;4.000
66900;2.000
66911;0.000
66945;2.000
66946;4.000
66957;6.000
67022;4.000
67023;2.000
67034;0.000
67066;2.000
67067;4.000
67078;6.000
67138;4.000
67139;2.000
67150;0.000
67181;2.000
67182;4.000
67193;6.000
67248;4.000
67249;2.000
67260;0.000
67290;2.000
67291;4.000
67302;6.000
67353;4.000
67354;2.000
67365;0.000
67394;2.000
67395;4.000
67406;6.000
67453;4.000
67454;2.000
67465;0.000
67492;2.000
67493;4.000
67504;6.000
