0;0
63000;0.000
63336;2.000
63341;4.000
63345;6.000
63422;4.000
63427;2.000
63431;0.000
63458;2.000
63463;4.000
63467;6.000
63688;4.000
63693;2.000
63697;0.000
63728;2.000
63733;4.000
63737;6.000
63940;4.000
63945;2.000
63949;0.000
63983;2.000
63988;4.000
63992;6.000
64180;4.000
64185;2.000
64189;0.000
64226;2.000
64231;4.000
64235;6.000
64408;4.000
64413;2.000
64417;0.000
64456;2.000
64461;4.000
64465;6.000
64625;4.000
64630;2.000
64634;0.000
64673;2.000
64678;4.000
64682;6.000
64831;4.000
64836;2.000
64840;0.000
64880;2.000
64885;4.000
64889;6.000
65026;4.000
65031;2.000
65035;0.000
65076;2.000
65081;4.000
65085;6.000
65212;4.000
65217;2.000
65221;0.000
65262;2.000
65267;4.000
65271;6.000
65388;4.000
65393;2.000
65397;0.000
65438;2.000
65443;4.000
65447;6.000
65555;4.000
65560;2.000
65564;0.000
65605;2.000
65610;4.000
65614;6.000
65714;4.000
65719;2.000
65723;0.000
65763;2.000
65768;4.000
65772;6.000
65865;4.000
65870;2.000
65874;0.000
65913;2.000
65918;4.000
65922;6.000
66008;4.000
66013;2.000
66017;0.000
66056;2.000
66061;4.000
66065;6.000
66144;4.000
66149;2.000
66153;0.000
66191;2.000
66196;4.000
66200;6.000
66273;4.000
66278;2.000
66282;0.000
66319;2.000
66324;4.000
66328;6.000
66396;4.000
66401;2.000
66405;0.000
66440;2.000
66445;4.000
66449;6.000
66512;4.000
66517;2.000
66521;0.000
66555;2.000
66560;4.000
66564;6.000
66622;4.000
66627;2.000
66631;0.000
66664;2.000
66669;4.000
66673;6.000
66727;4.000
66732;2.000
66736;0.000
66768;2.000
66773;4.000
66777;6.000
66827;4.000
66832;2.000
66836;0.000
66866;2.000
66871;4.000
66875;6.000
66921;4.000
66926;2.000
66930;0.000
66959;2.000
66964;4.000
66968;6.000
67010;4.000
67015;2.000
67019;0.000
67047;2.000
67052;4.000
67056;6.000
67095;4.000
67100;2.000
67104;0.000
67130;2.000
67135;4.000
67139;6.000
67176;4.000
67181;2.000
67185;0.000
67210;2.000
67215;4.000
67219;6.000
67252;4.000
67257;2.000
67261;0.000
67285;2.000
67290;4.000
67294;6.000
67324;4.000
67329;2.000
67333;0.000
67356;2.000
67361;4.000
67365;6.000
67393;4.000
67398;2.000
67402;0.000
67423;2.000
67428;4.000
67432;6.000
67459;4.000
67464;2.000
67468;0.000
67488;2.000
67493;4.000
67497;6.000
67520;4.000
67525;2.000
67529;0.000
