source,destination,Time (s)
0,2,0.0944073
0,3,0.091372
0,4,0.0896662
0,8,0.089685
0,13,0.0927081
0,19,0.0967421
0,20,0.094578
0,21,0.0908022
0,24,0.088745
0,28,0.086863
0,29,0.095608
0,30,0.0946901
0,33,0.089577
0,45,0.093759
0,47,0.0929592
0,48,0.0954901
0,50,0.090848
0,51,0.0878372
0,53,0.0837861
0,54,0.093718
1,5,0.104582
1,6,0.0946301
1,9,0.0896052
1,10,0.0888151
1,12,0.086684
1,14,0.0878871
1,22,0.0857832
1,25,0.084779
1,34,0.093405
1,35,0.0897012
1,36,0.0935551
1,37,0.0916891
1,39,0.0926702
1,40,0.0889731
1,43,0.098665
1,44,0.0955511
1,49,0.0936841
1,52,0.0896852
2,0,0.081047
2,3,0.0815361
2,4,0.0810471
2,8,0.0812531
2,13,0.081203
2,19,0.0810502
2,20,0.0810521
2,21,0.0812651
2,24,0.0810511
2,28,0.0810452
2,29,0.0810471
2,30,0.081052
2,33,0.0810461
2,45,0.0810472
2,47,0.081045
2,48,0.081474
2,50,0.0812731
2,51,0.0810451
2,53,0.0810452
2,54,0.0810471
3,0,0.0810541
3,2,0.081173
3,4,0.0810531
3,8,0.0810521
3,13,0.0810481
3,19,0.081049
3,20,0.0810532
3,21,0.0810461
3,24,0.0810432
3,28,0.0810422
3,29,0.0812061
3,30,0.0812301
3,33,0.0810521
3,45,0.0811702
3,47,0.0810611
3,48,0.081048
3,50,0.0812701
3,51,0.0810511
3,53,0.081044
3,54,0.0813092
4,0,0.0810432
4,2,0.08105
4,3,0.081047
4,8,0.0810502
4,13,0.0810462
4,19,0.0810531
4,20,0.081202
4,21,0.0810442
4,24,0.081048
4,28,0.081047
4,29,0.081044
4,30,0.0810482
4,33,0.081052
4,45,0.081049
4,47,0.0810502
4,48,0.0810521
4,50,0.081045
4,51,0.0810492
4,53,0.0810481
4,54,0.081044
5,1,0.0958871
5,6,0.081635
5,9,0.0814491
5,10,0.085684
5,12,0.0833681
5,14,0.084549
5,22,0.0863661
5,25,0.0876551
5,34,0.0896211
5,35,0.082696
5,36,0.084664
5,37,0.0874222
5,39,0.0824351
5,40,0.083439
5,43,0.0824161
5,44,0.09089
5,49,0.082453
5,52,0.0883961
6,1,0.081254
6,5,0.081046
6,9,0.081045
6,10,0.081051
6,12,0.0810481
6,14,0.08105
6,22,0.081048
6,25,0.0810511
6,34,0.0815321
6,35,0.081276
6,36,0.0810462
6,37,0.0810481
6,39,0.08105
6,40,0.081047
6,43,0.081283
6,44,0.081046
6,49,0.0810582
6,52,0.081044
7,11,0.102227
7,15,0.084795
7,16,0.0886021
7,17,0.0967171
7,18,0.0936672
7,23,0.092587
7,26,0.0986651
7,27,0.089463
7,31,0.090623
7,32,0.089837
7,38,0.0886811
7,41,0.099714
7,42,0.0885991
7,46,0.0996051
8,0,0.084958
8,2,0.0904181
8,3,0.0883631
8,4,0.087441
8,13,0.083422
8,19,0.0844081
8,20,0.0834511
8,21,0.08657
8,24,0.0905421
8,28,0.0907031
8,29,0.088593
8,30,0.086457
8,33,0.0883861
8,45,0.0864121
8,47,0.084524
8,48,0.0834392
8,50,0.0883791
8,51,0.087412
8,53,0.0814511
8,54,0.0864071
9,1,0.09496
9,5,0.084465
9,6,0.0810582
9,10,0.0824702
9,12,0.0823521
9,14,0.090391
9,22,0.087446
9,25,0.0853521
9,34,0.086417
9,35,0.08447
9,36,0.0814101
9,37,0.0894801
9,39,0.083344
9,40,0.0896032
9,43,0.084468
9,44,0.0844182
9,49,0.0905751
9,52,0.085435
10,1,0.081051
10,5,0.081266
10,6,0.081218
10,9,0.081256
10,12,0.0810521
10,14,0.081045
10,22,0.081052
10,25,0.0810461
10,34,0.0812121
10,35,0.081046
10,36,0.0810592
10,37,0.0810521
10,39,0.081045
10,40,0.081303
10,43,0.081044
10,44,0.08105
10,49,0.0810442
10,52,0.081048
11,7,0.0922612
11,15,0.0834411
11,16,0.0904491
11,17,0.089464
11,18,0.089416
11,23,0.0876012
11,26,0.08765
11,27,0.0828392
11,31,0.089401
11,32,0.0883571
11,38,0.0854071
11,41,0.0884331
11,42,0.0884121
11,46,0.0904451
12,1,0.0811732
12,5,0.0810462
12,6,0.0810481
12,9,0.081047
12,10,0.0810422
12,14,0.0810502
12,22,0.0810482
12,25,0.081052
12,34,0.081047
12,35,0.0811682
12,36,0.0810531
12,37,0.0810501
12,39,0.081052
12,40,0.0810521
12,43,0.081285
12,44,0.0810462
12,49,0.0810471
12,52,0.0810532
13,0,0.0968781
13,2,0.089599
13,3,0.0884422
13,4,0.0834221
13,8,0.0843841
13,19,0.081456
13,20,0.0895152
13,21,0.0904171
13,24,0.0825842
13,28,0.089443
13,29,0.0904732
13,30,0.0835541
13,33,0.0876912
13,45,0.08562
13,47,0.0893431
13,48,0.08438
13,50,0.0824012
13,51,0.0814491
13,53,0.087463
13,54,0.087676
14,1,0.0812012
14,5,0.0810472
14,6,0.0810491
14,9,0.0810462
14,10,0.0810481
14,12,0.081284
14,22,0.0810492
14,25,0.081044
14,34,0.081048
14,35,0.0812772
14,36,0.0810451
14,37,0.0810511
14,39,0.0810422
14,40,0.0810621
14,43,0.081403
14,44,0.0810521
14,49,0.0810481
14,52,0.0810542
15,7,0.0929821
15,11,0.0836931
15,16,0.0855701
15,17,0.084432
15,18,0.086436
15,23,0.0883922
15,26,0.086443
15,27,0.0836662
15,31,0.08139
15,32,0.0883831
15,38,0.082435
15,41,0.0844631
15,42,0.0863321
15,46,0.0874561
16,7,0.0810512
16,11,0.081493
16,15,0.081051
16,17,0.0810481
16,18,0.081044
16,23,0.081049
16,26,0.0810521
16,27,0.081048
16,31,0.08129
16,32,0.081044
16,38,0.0810491
16,41,0.0810462
16,42,0.0811741
16,46,0.0810422
17,7,0.08105
17,11,0.081049
17,15,0.081048
17,16,0.0812592
17,18,0.0811861
17,23,0.081046
17,26,0.0810491
17,27,0.0812261
17,31,0.0810451
17,32,0.08105
17,38,0.0810502
17,41,0.081045
17,42,0.0810492
17,46,0.0810482
18,7,0.0810482
18,11,0.081049
18,15,0.081048
18,16,0.0810432
18,17,0.0811891
18,23,0.081046
18,26,0.0810491
18,27,0.081045
18,31,0.081044
18,32,0.08105
18,38,0.0810461
18,41,0.081189
18,42,0.0810451
18,46,0.0810572
19,0,0.084976
19,2,0.0844331
19,3,0.0866891
19,4,0.089448
19,8,0.089474
19,13,0.081415
19,20,0.0823621
19,21,0.088424
19,24,0.0814611
19,28,0.0905951
19,29,0.082617
19,30,0.086619
19,33,0.0824281
19,45,0.0844501
19,47,0.082355
19,48,0.0815402
19,50,0.0884511
19,51,0.086413
19,53,0.0886331
19,54,0.0874331
20,0,0.0810482
20,2,0.081172
20,3,0.081052
20,4,0.0812542
20,8,0.0810462
20,13,0.0810422
20,19,0.081048
20,21,0.0810492
20,24,0.081044
20,28,0.081052
20,29,0.081049
20,30,0.0810442
20,33,0.081048
20,45,0.081045
20,47,0.0810462
20,48,0.0810481
20,50,0.08105
20,51,0.0811982
20,53,0.0810531
20,54,0.081049
21,0,0.0810531
21,2,0.081046
21,3,0.0810592
21,4,0.0812141
21,8,0.0810511
21,13,0.0810471
21,19,0.081048
21,20,0.0810432
21,24,0.0810422
21,28,0.081052
21,29,0.0810521
21,30,0.0810491
21,33,0.0810552
21,45,0.081045
21,47,0.0810511
21,48,0.0812
21,50,0.0810482
21,51,0.0812481
21,53,0.081295
21,54,0.0810562
22,1,0.0918331
22,5,0.0866031
22,6,0.0835671
22,9,0.0823852
22,10,0.0904511
22,12,0.082389
22,14,0.0873811
22,25,0.084669
22,34,0.0836632
22,35,0.0874091
22,36,0.0904661
22,37,0.084432
22,39,0.0834121
22,40,0.0814561
22,43,0.0814172
22,44,0.0883941
22,49,0.0844661
22,52,0.0834241
23,7,0.0939211
23,11,0.0815991
23,15,0.0844331
23,16,0.0875171
23,17,0.08844
23,18,0.0846192
23,26,0.089452
23,27,0.0894382
23,31,0.0884742
23,32,0.0864601
23,38,0.083635
23,41,0.0874541
23,42,0.0904031
23,46,0.0895381
24,0,0.090967
24,2,0.0865901
24,3,0.083427
24,4,0.0894
24,8,0.084611
24,13,0.089395
24,19,0.0844231
24,20,0.082466
24,21,0.087647
24,28,0.0844361
24,29,0.086358
24,30,0.087462
24,33,0.081335
24,45,0.0845461
24,47,0.08642
24,48,0.0844311
24,50,0.088366
24,51,0.088435
24,53,0.0894311
24,54,0.082434
25,1,0.0851141
25,5,0.0834121
25,6,0.0824191
25,9,0.0906422
25,10,0.0854061
25,12,0.081403
25,14,0.0894641
25,22,0.0875541
25,34,0.090464
25,35,0.0846501
25,36,0.0863751
25,37,0.081709
25,39,0.0845591
25,40,0.0893981
25,43,0.0874242
25,44,0.0813511
25,49,0.0856401
25,52,0.0836171
26,7,0.0912242
26,11,0.0813531
26,15,0.0904642
26,16,0.0907181
26,17,0.081462
26,18,0.084465
26,23,0.087341
26,27,0.085396
26,31,0.084432
26,32,0.0863982
26,38,0.0824451
26,41,0.0843551
26,42,0.0864491
26,46,0.0814261
27,7,0.0810442
27,11,0.0810432
27,15,0.081044
27,16,0.0810572
27,17,0.0810501
27,18,0.081046
27,23,0.081051
27,26,0.0812881
27,31,0.081049
27,32,0.081046
27,38,0.0810511
27,41,0.0810482
27,42,0.0810501
27,46,0.0810491
28,0,0.0898991
28,2,0.084393
28,3,0.090384
28,4,0.0834271
28,8,0.0834621
28,13,0.0836471
28,19,0.086393
28,20,0.087461
28,21,0.0884511
28,24,0.085408
28,29,0.0855822
28,30,0.0863941
28,33,0.0863552
28,45,0.082385
28,47,0.0904641
28,48,0.0834591
28,50,0.0874282
28,51,0.0886451
28,53,0.083472
28,54,0.089418
29,0,0.081046
29,2,0.0810472
29,3,0.0812741
29,4,0.0810412
29,8,0.0810451
29,13,0.081049
29,19,0.0813102
29,20,0.0812221
29,21,0.0810481
29,24,0.0810501
29,28,0.0810491
29,30,0.081051
29,33,0.0812161
29,45,0.0812851
29,47,0.081044
29,48,0.081284
29,50,0.0810471
29,51,0.081052
29,53,0.0812872
29,54,0.0812531
30,0,0.081049
30,2,0.0810461
30,3,0.081051
30,4,0.081048
30,8,0.081263
30,13,0.081052
30,19,0.0810571
30,20,0.0811891
30,21,0.081239
30,24,0.0810531
30,28,0.0810521
30,29,0.081264
30,33,0.081047
30,45,0.0810451
30,47,0.081047
30,48,0.0810422
30,50,0.081202
30,51,0.081046
30,53,0.0810521
30,54,0.0810491
31,7,0.0949351
31,11,0.0814161
31,15,0.0896591
31,16,0.0904211
31,17,0.090399
31,18,0.0883782
31,23,0.0854361
31,26,0.087451
31,27,0.0864251
31,32,0.0904261
31,38,0.085432
31,41,0.0865781
31,42,0.0894
31,46,0.0886662
32,7,0.0810491
32,11,0.0810571
32,15,0.0810471
32,16,0.081052
32,17,0.081049
32,18,0.0810532
32,23,0.0810451
32,26,0.081251
32,27,0.0812151
32,31,0.0810472
32,38,0.08105
32,41,0.0810531
32,42,0.081049
32,46,0.081048
33,0,0.093183
33,2,0.0813991
33,3,0.0836011
33,4,0.084596
33,8,0.083443
33,13,0.090414
33,19,0.0866211
33,20,0.0894261
33,21,0.089359
33,24,0.0864461
33,28,0.0834121
33,29,0.082463
33,30,0.087446
33,45,0.0903891
33,47,0.082354
33,48,0.0863632
33,50,0.0826811
33,51,0.087519
33,53,0.0824491
33,54,0.0824641
34,1,0.0910431
34,5,0.0893951
34,6,0.085341
34,9,0.0873781
34,10,0.085358
34,12,0.0894231
34,14,0.08137
34,22,0.0865801
34,25,0.0844671
34,35,0.081416
34,36,0.081368
34,37,0.0826052
34,39,0.0866541
34,40,0.086677
34,43,0.0875801
34,44,0.088629
34,49,0.084413
34,52,0.0814
35,1,0.081277
35,5,0.0810611
35,6,0.081183
35,9,0.0810511
35,10,0.081047
35,12,0.0810531
35,14,0.081226
35,22,0.0810451
35,25,0.0812091
35,34,0.0812221
35,36,0.081269
35,37,0.0810482
35,39,0.0810471
35,40,0.081052
35,43,0.0810461
35,44,0.081051
35,49,0.081047
35,52,0.0810501
36,1,0.081048
36,5,0.0810571
36,6,0.081044
36,9,0.0810471
36,10,0.081052
36,12,0.0812242
36,14,0.081258
36,22,0.0810501
36,25,0.0812231
36,34,0.0812631
36,35,0.0810531
36,37,0.0810442
36,39,0.0810521
36,40,0.081048
36,43,0.0810511
36,44,0.081047
36,49,0.081052
36,52,0.0810461
37,1,0.081048
37,5,0.081047
37,6,0.0810422
37,9,0.081046
37,10,0.0810592
37,12,0.0812741
37,14,0.0810492
37,22,0.081292
37,25,0.0810521
37,34,0.081271
37,35,0.081052
37,36,0.0810472
37,39,0.081051
37,40,0.0810552
37,43,0.08105
37,44,0.0812612
37,49,0.0810502
37,52,0.081045
38,7,0.0892012
38,11,0.0903772
38,15,0.0866412
38,16,0.0864541
38,17,0.0844711
38,18,0.08354
38,23,0.081412
38,26,0.08136
38,27,0.089385
38,31,0.085424
38,32,0.0864182
38,41,0.0816702
38,42,0.0903931
38,46,0.0873861
39,1,0.08105
39,5,0.081049
39,6,0.081046
39,9,0.0810491
39,10,0.081045
39,12,0.0810511
39,14,0.081044
39,22,0.081051
39,25,0.0810451
39,34,0.0810491
39,35,0.081045
39,36,0.081051
39,37,0.0812442
39,40,0.08105
39,43,0.0810531
39,44,0.081049
39,49,0.081207
39,52,0.081308
40,1,0.0810531
40,5,0.0812951
40,6,0.0810491
40,9,0.0810511
40,10,0.0810481
40,12,0.08105
40,14,0.0810471
40,22,0.0810451
40,25,0.081044
40,34,0.0810462
40,35,0.0810481
40,36,0.0810451
40,37,0.08105
40,39,0.0812901
40,43,0.0810592
40,44,0.0810521
40,49,0.0812911
40,52,0.0811851
41,7,0.0911971
41,11,0.0844371
41,15,0.0824381
41,16,0.0904631
41,17,0.084366
41,18,0.090438
41,23,0.0885021
41,26,0.086431
41,27,0.0865972
41,31,0.0854982
41,32,0.0885871
41,38,0.084457
41,42,0.085464
41,46,0.082421
42,7,0.0810491
42,11,0.0812191
42,15,0.0810561
42,16,0.0812601
42,17,0.081049
42,18,0.081046
42,23,0.0810492
42,26,0.081044
42,27,0.0813002
42,31,0.0810562
42,32,0.0810491
42,38,0.08105
42,41,0.0810531
42,46,0.0810491
43,1,0.097973
43,5,0.084436
43,6,0.0834232
43,9,0.082383
43,10,0.086457
43,12,0.0904681
43,14,0.089435
43,22,0.089631
43,25,0.0853771
43,34,0.081456
43,35,0.083577
43,36,0.0903312
43,37,0.0873721
43,39,0.084602
43,40,0.0833732
43,44,0.081367
43,49,0.0836742
43,52,0.086639
44,1,0.0810422
44,5,0.081052
44,6,0.0810472
44,9,0.081051
44,10,0.0810552
44,12,0.081044
44,14,0.0810542
44,22,0.081045
44,25,0.081308
44,34,0.081258
44,35,0.0810462
44,36,0.0810481
44,37,0.0810451
44,39,0.081047
44,40,0.0811862
44,43,0.081046
44,49,0.0810511
44,52,0.08105
45,0,0.0920991
45,2,0.0874372
45,3,0.0864581
45,4,0.0864371
45,8,0.0905131
45,13,0.0874491
45,19,0.086865
45,20,0.0843721
45,21,0.0834691
45,24,0.0874491
45,28,0.0904042
45,29,0.0906761
45,30,0.0884141
45,33,0.0814411
45,47,0.0886501
45,48,0.090455
45,50,0.0824151
45,51,0.0813951
45,53,0.089371
45,54,0.0874271
46,7,0.085879
46,11,0.089442
46,15,0.08846
46,16,0.08753
46,17,0.0823641
46,18,0.0815241
46,23,0.086433
46,26,0.0854551
46,27,0.0884761
46,31,0.0833631
46,32,0.087697
46,38,0.0815911
46,41,0.084461
46,42,0.0843932
47,0,0.0811982
47,2,0.0810531
47,3,0.081049
47,4,0.0810442
47,8,0.081045
47,13,0.0810572
47,19,0.0811991
47,20,0.081051
47,21,0.081048
47,24,0.08105
47,28,0.081049
47,29,0.081046
47,30,0.0810502
47,33,0.081045
47,45,0.081051
47,48,0.0812431
47,50,0.081047
47,51,0.0810512
47,53,0.0811761
47,54,0.081046
48,0,0.0810532
48,2,0.0812231
48,3,0.081048
48,4,0.081045
48,8,0.081224
48,13,0.0810472
48,19,0.0810451
48,20,0.08105
48,21,0.081047
48,24,0.08131
48,28,0.0813
48,29,0.081279
48,30,0.0811752
48,33,0.081044
48,45,0.0810552
48,47,0.0810512
48,50,0.081163
48,51,0.0810502
48,53,0.0810491
48,54,0.081045
49,1,0.0889362
49,5,0.0853782
49,6,0.0826081
49,9,0.0824612
49,10,0.0867111
49,12,0.089368
49,14,0.0835871
49,22,0.0873962
49,25,0.084538
49,34,0.082418
49,35,0.0866571
49,36,0.0876261
49,37,0.085714
49,39,0.0816202
49,40,0.0853751
49,43,0.0833652
49,44,0.0844111
49,52,0.0885622
50,0,0.0810532
50,2,0.0810521
50,3,0.081048
50,4,0.081045
50,8,0.081188
50,13,0.0810472
50,19,0.0810541
50,20,0.08105
50,21,0.081227
50,24,0.081247
50,28,0.081183
50,29,0.081207
50,30,0.0812112
50,33,0.081044
50,45,0.0810552
50,47,0.0810512
50,48,0.0810531
50,51,0.0810502
50,53,0.0810491
50,54,0.081045
51,0,0.081046
51,2,0.0810521
51,3,0.081048
51,4,0.081288
51,8,0.081044
51,13,0.081193
51,19,0.0812341
51,20,0.081266
51,21,0.081047
51,24,0.0810501
51,28,0.0810491
51,29,0.081045
51,30,0.081051
51,33,0.081188
51,45,0.0810511
51,47,0.081044
51,48,0.0810572
51,50,0.081046
51,53,0.0811841
51,54,0.0810461
52,1,0.0834721
52,5,0.0894561
52,6,0.0905871
52,9,0.0863681
52,10,0.0893801
52,12,0.083424
52,14,0.0864541
52,22,0.0844541
52,25,0.08763
52,34,0.0825742
52,35,0.0834581
52,36,0.0903581
52,37,0.089427
52,39,0.0884161
52,40,0.0884131
52,43,0.0863942
52,44,0.0833901
52,49,0.0894341
53,0,0.081052
53,2,0.0810442
53,3,0.0810461
53,4,0.081051
53,8,0.08123
53,13,0.081046
53,19,0.0810462
53,20,0.0812371
53,21,0.081242
53,24,0.0810471
53,28,0.0810461
53,29,0.0810611
53,30,0.081255
53,33,0.0812851
53,45,0.0812821
53,47,0.08105
53,48,0.081218
53,50,0.0810531
53,51,0.081049
53,54,0.0812051
54,0,0.08117
54,2,0.0812522
54,3,0.0810471
54,4,0.0810531
54,8,0.0812951
54,13,0.081245
54,19,0.0810472
54,20,0.0810491
54,21,0.0811631
54,24,0.0812731
54,28,0.0810422
54,29,0.0812691
54,30,0.081049
54,33,0.0810521
54,45,0.0811792
54,47,0.081213
54,48,0.081048
54,50,0.0811711
54,51,0.0810511
54,53,0.0810422
