source,destination,Time (s)
0,2,0.0880048
0,3,0.0880048
0,4,0.0880048
0,8,0.0880048
0,13,0.0880048
0,19,0.0880048
0,20,0.0880048
0,21,0.0880048
0,24,0.0880048
0,28,0.0880048
0,29,0.0880048
0,30,0.0880048
0,33,0.0880048
0,45,0.0880048
0,47,0.0880048
0,48,0.0880048
0,50,0.0880048
0,51,0.0880048
0,53,0.0880048
0,54,0.0880048
1,5,0.0880048
1,6,0.0880048
1,9,0.0880048
1,10,0.0880048
1,12,0.0880048
1,14,0.0880048
1,22,0.0880048
1,25,0.0880048
1,34,0.0880048
1,35,0.0880048
1,36,0.0880048
1,37,0.0880048
1,39,0.0880048
1,40,0.0880048
1,43,0.0880048
1,44,0.0880048
1,49,0.0880048
1,52,0.0880048
2,0,0.0880048
2,3,0.0880048
2,4,0.0880048
2,8,0.0880048
2,13,0.0880048
2,19,0.0880048
2,20,0.0880048
2,21,0.0880048
2,24,0.0880048
2,28,0.0880048
2,29,0.0880048
2,30,0.0880048
2,33,0.0880048
2,45,0.0880048
2,47,0.0880048
2,48,0.0880048
2,50,0.0880048
2,51,0.0880048
2,53,0.0880048
2,54,0.0880048
3,0,0.0880048
3,2,0.0880048
3,4,0.0880048
3,8,0.0880048
3,13,0.0880048
3,19,0.0880048
3,20,0.0880048
3,21,0.0880048
3,24,0.0880048
3,28,0.0880048
3,29,0.0880048
3,30,0.0880048
3,33,0.0880048
3,45,0.0880048
3,47,0.0880048
3,48,0.0880048
3,50,0.0880048
3,51,0.0880048
3,53,0.0880048
3,54,0.0880048
4,0,0.0880048
4,2,0.0880048
4,3,0.0880048
4,8,0.0880048
4,13,0.0880048
4,19,0.0880048
4,20,0.0880048
4,21,0.0880048
4,24,0.0880048
4,28,0.0880048
4,29,0.0880048
4,30,0.0880048
4,33,0.0880048
4,45,0.0880048
4,47,0.0880048
4,48,0.0880048
4,50,0.0880048
4,51,0.0880048
4,53,0.0880048
4,54,0.0880048
5,1,0.0880048
5,6,0.0880048
5,9,0.0880048
5,10,0.0880048
5,12,0.0880048
5,14,0.0880048
5,22,0.0880048
5,25,0.0880048
5,34,0.0880048
5,35,0.0880048
5,36,0.0880048
5,37,0.0880048
5,39,0.0880048
5,40,0.0880048
5,43,0.0880048
5,44,0.0880048
5,49,0.0880048
5,52,0.0880048
6,1,0.0880048
6,5,0.0880048
6,9,0.0880048
6,10,0.0880048
6,12,0.0880048
6,14,0.0880048
6,22,0.0880048
6,25,0.0880048
6,34,0.0880048
6,35,0.0880048
6,36,0.0880048
6,37,0.0880048
6,39,0.0880048
6,40,0.0880048
6,43,0.0880048
6,44,0.0880048
6,49,0.0880048
6,52,0.0880048
7,11,0.0880048
7,15,0.0880048
7,16,0.0880048
7,17,0.0880048
7,18,0.0880048
7,23,0.0880048
7,26,0.0880048
7,27,0.0880048
7,31,0.0880048
7,32,0.0880048
7,38,0.0880048
7,41,0.0880048
7,42,0.0880048
7,46,0.0880048
8,0,0.0880048
8,2,0.0880048
8,3,0.0880048
8,4,0.0880048
8,13,0.0880048
8,19,0.0880048
8,20,0.0880048
8,21,0.0880048
8,24,0.0880048
8,28,0.0880048
8,29,0.0880048
8,30,0.0880048
8,33,0.0880048
8,45,0.0880048
8,47,0.0880048
8,48,0.0880048
8,50,0.0880048
8,51,0.0880048
8,53,0.0880048
8,54,0.0880048
9,1,0.0880048
9,5,0.0880048
9,6,0.0880048
9,10,0.0880048
9,12,0.0880048
9,14,0.0880048
9,22,0.0880048
9,25,0.0880048
9,34,0.0880048
9,35,0.0880048
9,36,0.0880048
9,37,0.0880048
9,39,0.0880048
9,40,0.0880048
9,43,0.0880048
9,44,0.0880048
9,49,0.0880048
9,52,0.0880048
10,1,0.0880048
10,5,0.0880048
10,6,0.0880048
10,9,0.0880048
10,12,0.0880048
10,14,0.0880048
10,22,0.0880048
10,25,0.0880048
10,34,0.0880048
10,35,0.0880048
10,36,0.0880048
10,37,0.0880048
10,39,0.0880048
10,40,0.0880048
10,43,0.0880048
10,44,0.0880048
10,49,0.0880048
10,52,0.0880048
11,7,0.0880048
11,15,0.0880048
11,16,0.0880048
11,17,0.0880048
11,18,0.0880048
11,23,0.0880048
11,26,0.0880048
11,27,0.0880048
11,31,0.0880048
11,32,0.0880048
11,38,0.0880048
11,41,0.0880048
11,42,0.0880048
11,46,0.0880048
12,1,0.0880048
12,5,0.0880048
12,6,0.0880048
12,9,0.0880048
12,10,0.0880048
12,14,0.0880048
12,22,0.0880048
12,25,0.0880048
12,34,0.0880048
12,35,0.0880048
12,36,0.0880048
12,37,0.0880048
12,39,0.0880048
12,40,0.0880048
12,43,0.0880048
12,44,0.0880048
12,49,0.0880048
12,52,0.0880048
13,0,0.0880048
13,2,0.0880048
13,3,0.0880048
13,4,0.0880048
13,8,0.0880048
13,19,0.0880048
13,20,0.0880048
13,21,0.0880048
13,24,0.0880048
13,28,0.0880048
13,29,0.0880048
13,30,0.0880048
13,33,0.0880048
13,45,0.0880048
13,47,0.0880048
13,48,0.0880048
13,50,0.0880048
13,51,0.0880048
13,53,0.0880048
13,54,0.0880048
14,1,0.0880048
14,5,0.0880048
14,6,0.0880048
14,9,0.0880048
14,10,0.0880048
14,12,0.0880048
14,22,0.0880048
14,25,0.0880048
14,34,0.0880048
14,35,0.0880048
14,36,0.0880048
14,37,0.0880048
14,39,0.0880048
14,40,0.0880048
14,43,0.0880048
14,44,0.0880048
14,49,0.0880048
14,52,0.0880048
15,7,0.0880048
15,11,0.0880048
15,16,0.0880048
15,17,0.0880048
15,18,0.0880048
15,23,0.0880048
15,26,0.0880048
15,27,0.0880048
15,31,0.0880048
15,32,0.0880048
15,38,0.0880048
15,41,0.0880048
15,42,0.0880048
15,46,0.0880048
16,7,0.0880048
16,11,0.0880048
16,15,0.0880048
16,17,0.0880048
16,18,0.0880048
16,23,0.0880048
16,26,0.0880048
16,27,0.0880048
16,31,0.0880048
16,32,0.0880048
16,38,0.0880048
16,41,0.0880048
16,42,0.0880048
16,46,0.0880048
17,7,0.0880048
17,11,0.0880048
17,15,0.0880048
17,16,0.0880048
17,18,0.0880048
17,23,0.0880048
17,26,0.0880048
17,27,0.0880048
17,31,0.0880048
17,32,0.0880048
17,38,0.0880048
17,41,0.0880048
17,42,0.0880048
17,46,0.0880048
18,7,0.0880048
18,11,0.0880048
18,15,0.0880048
18,16,0.0880048
18,17,0.0880048
18,23,0.0880048
18,26,0.0880048
18,27,0.0880048
18,31,0.0880048
18,32,0.0880048
18,38,0.0880048
18,41,0.0880048
18,42,0.0880048
18,46,0.0880048
19,0,0.0880048
19,2,0.0880048
19,3,0.0880048
19,4,0.0880048
19,8,0.0880048
19,13,0.0880048
19,20,0.0880048
19,21,0.0880048
19,24,0.0880048
19,28,0.0880048
19,29,0.0880048
19,30,0.0880048
19,33,0.0880048
19,45,0.0880048
19,47,0.0880048
19,48,0.0880048
19,50,0.0880048
19,51,0.0880048
19,53,0.0880048
19,54,0.0880048
20,0,0.0880048
20,2,0.0880048
20,3,0.0880048
20,4,0.0880048
20,8,0.0880048
20,13,0.0880048
20,19,0.0880048
20,21,0.0880048
20,24,0.0880048
20,28,0.0880048
20,29,0.0880048
20,30,0.0880048
20,33,0.0880048
20,45,0.0880048
20,47,0.0880048
20,48,0.0880048
20,50,0.0880048
20,51,0.0880048
20,53,0.0880048
20,54,0.0880048
21,0,0.0880048
21,2,0.0880048
21,3,0.0880048
21,4,0.0880048
21,8,0.0880048
21,13,0.0880048
21,19,0.0880048
21,20,0.0880048
21,24,0.0880048
21,28,0.0880048
21,29,0.0880048
21,30,0.0880048
21,33,0.0880048
21,45,0.0880048
21,47,0.0880048
21,48,0.0880048
21,50,0.0880048
21,51,0.0880048
21,53,0.0880048
21,54,0.0880048
22,1,0.0880048
22,5,0.0880048
22,6,0.0880048
22,9,0.0880048
22,10,0.0880048
22,12,0.0880048
22,14,0.0880048
22,25,0.0880048
22,34,0.0880048
22,35,0.0880048
22,36,0.0880048
22,37,0.0880048
22,39,0.0880048
22,40,0.0880048
22,43,0.0880048
22,44,0.0880048
22,49,0.0880048
22,52,0.0880048
23,7,0.0880048
23,11,0.0880048
23,15,0.0880048
23,16,0.0880048
23,17,0.0880048
23,18,0.0880048
23,26,0.0880048
23,27,0.0880048
23,31,0.0880048
23,32,0.0880048
23,38,0.0880048
23,41,0.0880048
23,42,0.0880048
23,46,0.0880048
24,0,0.0880048
24,2,0.0880048
24,3,0.0880048
24,4,0.0880048
24,8,0.0880048
24,13,0.0880048
24,19,0.0880048
24,20,0.0880048
24,21,0.0880048
24,28,0.0880048
24,29,0.0880048
24,30,0.0880048
24,33,0.0880048
24,45,0.0880048
24,47,0.0880048
24,48,0.0880048
24,50,0.0880048
24,51,0.0880048
24,53,0.0880048
24,54,0.0880048
25,1,0.0880048
25,5,0.0880048
25,6,0.0880048
25,9,0.0880048
25,10,0.0880048
25,12,0.0880048
25,14,0.0880048
25,22,0.0880048
25,34,0.0880048
25,35,0.0880048
25,36,0.0880048
25,37,0.0880048
25,39,0.0880048
25,40,0.0880048
25,43,0.0880048
25,44,0.0880048
25,49,0.0880048
25,52,0.0880048
26,7,0.0880048
26,11,0.0880048
26,15,0.0880048
26,16,0.0880048
26,17,0.0880048
26,18,0.0880048
26,23,0.0880048
26,27,0.0880048
26,31,0.0880048
26,32,0.0880048
26,38,0.0880048
26,41,0.0880048
26,42,0.0880048
26,46,0.0880048
27,7,0.0880048
27,11,0.0880048
27,15,0.0880048
27,16,0.0880048
27,17,0.0880048
27,18,0.0880048
27,23,0.0880048
27,26,0.0880048
27,31,0.0880048
27,32,0.0880048
27,38,0.0880048
27,41,0.0880048
27,42,0.0880048
27,46,0.0880048
28,0,0.0880048
28,2,0.0880048
28,3,0.0880048
28,4,0.0880048
28,8,0.0880048
28,13,0.0880048
28,19,0.0880048
28,20,0.0880048
28,21,0.0880048
28,24,0.0880048
28,29,0.0880048
28,30,0.0880048
28,33,0.0880048
28,45,0.0880048
28,47,0.0880048
28,48,0.0880048
28,50,0.0880048
28,51,0.0880048
28,53,0.0880048
28,54,0.0880048
29,0,0.0880048
29,2,0.0880048
29,3,0.0880048
29,4,0.0880048
29,8,0.0880048
29,13,0.0880048
29,19,0.0880048
29,20,0.0880048
29,21,0.0880048
29,24,0.0880048
29,28,0.0880048
29,30,0.0880048
29,33,0.0880048
29,45,0.0880048
29,47,0.0880048
29,48,0.0880048
29,50,0.0880048
29,51,0.0880048
29,53,0.0880048
29,54,0.0880048
30,0,0.0880048
30,2,0.0880048
30,3,0.0880048
30,4,0.0880048
30,8,0.0880048
30,13,0.0880048
30,19,0.0880048
30,20,0.0880048
30,21,0.0880048
30,24,0.0880048
30,28,0.0880048
30,29,0.0880048
30,33,0.0880048
30,45,0.0880048
30,47,0.0880048
30,48,0.0880048
30,50,0.0880048
30,51,0.0880048
30,53,0.0880048
30,54,0.0880048
31,7,0.0880048
31,11,0.0880048
31,15,0.0880048
31,16,0.0880048
31,17,0.0880048
31,18,0.0880048
31,23,0.0880048
31,26,0.0880048
31,27,0.0880048
31,32,0.0880048
31,38,0.0880048
31,41,0.0880048
31,42,0.0880048
31,46,0.0880048
32,7,0.0880048
32,11,0.0880048
32,15,0.0880048
32,16,0.0880048
32,17,0.0880048
32,18,0.0880048
32,23,0.0880048
32,26,0.0880048
32,27,0.0880048
32,31,0.0880048
32,38,0.0880048
32,41,0.0880048
32,42,0.0880048
32,46,0.0880048
33,0,0.0880048
33,2,0.0880048
33,3,0.0880048
33,4,0.0880048
33,8,0.0880048
33,13,0.0880048
33,19,0.0880048
33,20,0.0880048
33,21,0.0880048
33,24,0.0880048
33,28,0.0880048
33,29,0.0880048
33,30,0.0880048
33,45,0.0880048
33,47,0.0880048
33,48,0.0880048
33,50,0.0880048
33,51,0.0880048
33,53,0.0880048
33,54,0.0880048
34,1,0.0880048
34,5,0.0880048
34,6,0.0880048
34,9,0.0880048
34,10,0.0880048
34,12,0.0880048
34,14,0.0880048
34,22,0.0880048
34,25,0.0880048
34,35,0.0880048
34,36,0.0880048
34,37,0.0880048
34,39,0.0880048
34,40,0.0880048
34,43,0.0880048
34,44,0.0880048
34,49,0.0880048
34,52,0.0880048
35,1,0.0880048
35,5,0.0880048
35,6,0.0880048
35,9,0.0880048
35,10,0.0880048
35,12,0.0880048
35,14,0.0880048
35,22,0.0880048
35,25,0.0880048
35,34,0.0880048
35,36,0.0880048
35,37,0.0880048
35,39,0.0880048
35,40,0.0880048
35,43,0.0880048
35,44,0.0880048
35,49,0.0880048
35,52,0.0880048
36,1,0.0880048
36,5,0.0880048
36,6,0.0880048
36,9,0.0880048
36,10,0.0880048
36,12,0.0880048
36,14,0.0880048
36,22,0.0880048
36,25,0.0880048
36,34,0.0880048
36,35,0.0880048
36,37,0.0880048
36,39,0.0880048
36,40,0.0880048
36,43,0.0880048
36,44,0.0880048
36,49,0.0880048
36,52,0.0880048
37,1,0.0880048
37,5,0.0880048
37,6,0.0880048
37,9,0.0880048
37,10,0.0880048
37,12,0.0880048
37,14,0.0880048
37,22,0.0880048
37,25,0.0880048
37,34,0.0880048
37,35,0.0880048
37,36,0.0880048
37,39,0.0880048
37,40,0.0880048
37,43,0.0880048
37,44,0.0880048
37,49,0.0880048
37,52,0.0880048
38,7,0.0880048
38,11,0.0880048
38,15,0.0880048
38,16,0.0880048
38,17,0.0880048
38,18,0.0880048
38,23,0.0880048
38,26,0.0880048
38,27,0.0880048
38,31,0.0880048
38,32,0.0880048
38,41,0.0880048
38,42,0.0880048
38,46,0.0880048
39,1,0.0880048
39,5,0.0880048
39,6,0.0880048
39,9,0.0880048
39,10,0.0880048
39,12,0.0880048
39,14,0.0880048
39,22,0.0880048
39,25,0.0880048
39,34,0.0880048
39,35,0.0880048
39,36,0.0880048
39,37,0.0880048
39,40,0.0880048
39,43,0.0880048
39,44,0.0880048
39,49,0.0880048
39,52,0.0880048
40,1,0.0880048
40,5,0.0880048
40,6,0.0880048
40,9,0.0880048
40,10,0.0880048
40,12,0.0880048
40,14,0.0880048
40,22,0.0880048
40,25,0.0880048
40,34,0.0880048
40,35,0.0880048
40,36,0.0880048
40,37,0.0880048
40,39,0.0880048
40,43,0.0880048
40,44,0.0880048
40,49,0.0880048
40,52,0.0880048
41,7,0.0880048
41,11,0.0880048
41,15,0.0880048
41,16,0.0880048
41,17,0.0880048
41,18,0.0880048
41,23,0.0880048
41,26,0.0880048
41,27,0.0880048
41,31,0.0880048
41,32,0.0880048
41,38,0.0880048
41,42,0.0880048
41,46,0.0880048
42,7,0.0880048
42,11,0.0880048
42,15,0.0880048
42,16,0.0880048
42,17,0.0880048
42,18,0.0880048
42,23,0.0880048
42,26,0.0880048
42,27,0.0880048
42,31,0.0880048
42,32,0.0880048
42,38,0.0880048
42,41,0.0880048
42,46,0.0880048
43,1,0.0880048
43,5,0.0880048
43,6,0.0880048
43,9,0.0880048
43,10,0.0880048
43,12,0.0880048
43,14,0.0880048
43,22,0.0880048
43,25,0.0880048
43,34,0.0880048
43,35,0.0880048
43,36,0.0880048
43,37,0.0880048
43,39,0.0880048
43,40,0.0880048
43,44,0.0880048
43,49,0.0880048
43,52,0.0880048
44,1,0.0880048
44,5,0.0880048
44,6,0.0880048
44,9,0.0880048
44,10,0.0880048
44,12,0.0880048
44,14,0.0880048
44,22,0.0880048
44,25,0.0880048
44,34,0.0880048
44,35,0.0880048
44,36,0.0880048
44,37,0.0880048
44,39,0.0880048
44,40,0.0880048
44,43,0.0880048
44,49,0.0880048
44,52,0.0880048
45,0,0.0880048
45,2,0.0880048
45,3,0.0880048
45,4,0.0880048
45,8,0.0880048
45,13,0.0880048
45,19,0.0880048
45,20,0.0880048
45,21,0.0880048
45,24,0.0880048
45,28,0.0880048
45,29,0.0880048
45,30,0.0880048
45,33,0.0880048
45,47,0.0880048
45,48,0.0880048
45,50,0.0880048
45,51,0.0880048
45,53,0.0880048
45,54,0.0880048
46,7,0.0880048
46,11,0.0880048
46,15,0.0880048
46,16,0.0880048
46,17,0.0880048
46,18,0.0880048
46,23,0.0880048
46,26,0.0880048
46,27,0.0880048
46,31,0.0880048
46,32,0.0880048
46,38,0.0880048
46,41,0.0880048
46,42,0.0880048
47,0,0.0880048
47,2,0.0880048
47,3,0.0880048
47,4,0.0880048
47,8,0.0880048
47,13,0.0880048
47,19,0.0880048
47,20,0.0880048
47,21,0.0880048
47,24,0.0880048
47,28,0.0880048
47,29,0.0880048
47,30,0.0880048
47,33,0.0880048
47,45,0.0880048
47,48,0.0880048
47,50,0.0880048
47,51,0.0880048
47,53,0.0880048
47,54,0.0880048
48,0,0.0880048
48,2,0.0880048
48,3,0.0880048
48,4,0.0880048
48,8,0.0880048
48,13,0.0880048
48,19,0.0880048
48,20,0.0880048
48,21,0.0880048
48,24,0.0880048
48,28,0.0880048
48,29,0.0880048
48,30,0.0880048
48,33,0.0880048
48,45,0.0880048
48,47,0.0880048
48,50,0.0880048
48,51,0.0880048
48,53,0.0880048
48,54,0.0880048
49,1,0.0880048
49,5,0.0880048
49,6,0.0880048
49,9,0.0880048
49,10,0.0880048
49,12,0.0880048
49,14,0.0880048
49,22,0.0880048
49,25,0.0880048
49,34,0.0880048
49,35,0.0880048
49,36,0.0880048
49,37,0.0880048
49,39,0.0880048
49,40,0.0880048
49,43,0.0880048
49,44,0.0880048
49,52,0.0880048
50,0,0.0880048
50,2,0.0880048
50,3,0.0880048
50,4,0.0880048
50,8,0.0880048
50,13,0.0880048
50,19,0.0880048
50,20,0.0880048
50,21,0.0880048
50,24,0.0880048
50,28,0.0880048
50,29,0.0880048
50,30,0.0880048
50,33,0.0880048
50,45,0.0880048
50,47,0.0880048
50,48,0.0880048
50,51,0.0880048
50,53,0.0880048
50,54,0.0880048
51,0,0.0880048
51,2,0.0880048
51,3,0.0880048
51,4,0.0880048
51,8,0.0880048
51,13,0.0880048
51,19,0.0880048
51,20,0.0880048
51,21,0.0880048
51,24,0.0880048
51,28,0.0880048
51,29,0.0880048
51,30,0.0880048
51,33,0.0880048
51,45,0.0880048
51,47,0.0880048
51,48,0.0880048
51,50,0.0880048
51,53,0.0880048
51,54,0.0880048
52,1,0.0880048
52,5,0.0880048
52,6,0.0880048
52,9,0.0880048
52,10,0.0880048
52,12,0.0880048
52,14,0.0880048
52,22,0.0880048
52,25,0.0880048
52,34,0.0880048
52,35,0.0880048
52,36,0.0880048
52,37,0.0880048
52,39,0.0880048
52,40,0.0880048
52,43,0.0880048
52,44,0.0880048
52,49,0.0880048
53,0,0.0880048
53,2,0.0880048
53,3,0.0880048
53,4,0.0880048
53,8,0.0880048
53,13,0.0880048
53,19,0.0880048
53,20,0.0880048
53,21,0.0880048
53,24,0.0880048
53,28,0.0880048
53,29,0.0880048
53,30,0.0880048
53,33,0.0880048
53,45,0.0880048
53,47,0.0880048
53,48,0.0880048
53,50,0.0880048
53,51,0.0880048
53,54,0.0880048
54,0,0.0880048
54,2,0.0880048
54,3,0.0880048
54,4,0.0880048
54,8,0.0880048
54,13,0.0880048
54,19,0.0880048
54,20,0.0880048
54,21,0.0880048
54,24,0.0880048
54,28,0.0880048
54,29,0.0880048
54,30,0.0880048
54,33,0.0880048
54,45,0.0880048
54,47,0.0880048
54,48,0.0880048
54,50,0.0880048
54,51,0.0880048
54,53,0.0880048
