source,destination,Time (s)
0,2,0.374692
0,3,0.359225
0,4,0.354115
0,8,0.345901
0,13,0.35611
0,19,0.350573
0,20,0.360709
0,21,0.357051
0,24,0.356349
0,28,0.358491
0,29,0.362132
0,30,0.351714
0,33,0.352879
0,45,0.358167
0,47,0.354755
0,48,0.351091
0,50,0.358678
0,51,0.347981
0,53,0.364521
0,54,0.368671
1,5,0.391183
1,6,0.349112
1,9,0.357906
1,10,0.359429
1,12,0.354577
1,14,0.35126
1,22,0.35513
1,25,0.353326
1,34,0.355189
1,35,0.350712
1,36,0.356627
1,37,0.352767
1,39,0.357515
1,40,0.350974
1,43,0.36425
1,44,0.356728
1,49,0.361629
1,52,0.354608
2,0,0.344468
2,3,0.341673
2,4,0.342687
2,8,0.340744
2,13,0.34569
2,19,0.343202
2,20,0.354324
2,21,0.345238
2,24,0.341926
2,28,0.345688
2,29,0.34282
2,30,0.346363
2,33,0.343609
2,45,0.338325
2,47,0.341806
2,48,0.347578
2,50,0.342842
2,51,0.348676
2,53,0.339326
2,54,0.342981
3,0,0.340842
3,2,0.354373
3,4,0.346775
3,8,0.346163
3,13,0.3427
3,19,0.340909
3,20,0.342115
3,21,0.344771
3,24,0.344358
3,28,0.340163
3,29,0.344351
3,30,0.343509
3,33,0.341319
3,45,0.342205
3,47,0.34402
3,48,0.339744
3,50,0.340553
3,51,0.342498
3,53,0.341495
3,54,0.341311
4,0,0.342784
4,2,0.347383
4,3,0.346425
4,8,0.344866
4,13,0.347302
4,19,0.346466
4,20,0.344378
4,21,0.344394
4,24,0.344563
4,28,0.347491
4,29,0.341315
4,30,0.341995
4,33,0.351462
4,45,0.33712
4,47,0.353952
4,48,0.34247
4,50,0.34493
4,51,0.341195
4,53,0.343254
4,54,0.346494
5,1,0.360322
5,6,0.347805
5,9,0.351894
5,10,0.347873
5,12,0.34668
5,14,0.341067
5,22,0.339777
5,25,0.352673
5,34,0.345428
5,35,0.350469
5,36,0.350479
5,37,0.355376
5,39,0.34778
5,40,0.353786
5,43,0.347816
5,44,0.35025
5,49,0.346532
5,52,0.342718
6,1,0.344294
6,5,0.343449
6,9,0.354613
6,10,0.340112
6,12,0.343878
6,14,0.344949
6,22,0.34323
6,25,0.347968
6,34,0.341956
6,35,0.338577
6,36,0.34501
6,37,0.341791
6,39,0.341768
6,40,0.346192
6,43,0.339071
6,44,0.344235
6,49,0.341035
6,52,0.33981
7,11,0.368501
7,15,0.358408
7,16,0.358056
7,17,0.355682
7,18,0.359048
7,23,0.353978
7,26,0.364384
7,27,0.3628
7,31,0.35068
7,32,0.356251
7,38,0.352292
7,41,0.349894
7,42,0.348561
7,46,0.365736
8,0,0.354277
8,2,0.350036
8,3,0.345389
8,4,0.346624
8,13,0.348456
8,19,0.353997
8,20,0.343663
8,21,0.353623
8,24,0.348259
8,28,0.349744
8,29,0.352466
8,30,0.347887
8,33,0.357509
8,45,0.34927
8,47,0.351788
8,48,0.350356
8,50,0.343719
8,51,0.352475
8,53,0.34776
8,54,0.35542
9,1,0.36183
9,5,0.345308
9,6,0.343336
9,10,0.342043
9,12,0.34364
9,14,0.351751
9,22,0.348601
9,25,0.350763
9,34,0.34724
9,35,0.356075
9,36,0.347536
9,37,0.348865
9,39,0.351124
9,40,0.344395
9,43,0.349588
9,44,0.346041
9,49,0.34123
9,52,0.343522
10,1,0.341722
10,5,0.341888
10,6,0.340281
10,9,0.34479
10,12,0.343129
10,14,0.34267
10,22,0.339314
10,25,0.339699
10,34,0.34558
10,35,0.339294
10,36,0.338892
10,37,0.348983
10,39,0.343366
10,40,0.350628
10,43,0.350033
10,44,0.345619
10,49,0.351438
10,52,0.340955
11,7,0.354241
11,15,0.34371
11,16,0.3504
11,17,0.345539
11,18,0.351315
11,23,0.3539
11,26,0.346665
11,27,0.34947
11,31,0.34335
11,32,0.355896
11,38,0.342595
11,41,0.346165
11,42,0.345927
11,46,0.344518
12,1,0.343716
12,5,0.349035
12,6,0.343942
12,9,0.339603
12,10,0.340431
12,14,0.348415
12,22,0.350025
12,25,0.343201
12,34,0.340034
12,35,0.339567
12,36,0.350267
12,37,0.344025
12,39,0.342838
12,40,0.342235
12,43,0.340496
12,44,0.341696
12,49,0.346297
12,52,0.349784
13,0,0.348336
13,2,0.353415
13,3,0.350978
13,4,0.344729
13,8,0.347229
13,19,0.355813
13,20,0.34663
13,21,0.345871
13,24,0.351534
13,28,0.340108
13,29,0.353249
13,30,0.348606
13,33,0.353696
13,45,0.353578
13,47,0.350062
13,48,0.347678
13,50,0.348947
13,51,0.353881
13,53,0.350447
13,54,0.343509
14,1,0.343413
14,5,0.345714
14,6,0.343852
14,9,0.339367
14,10,0.340692
14,12,0.341567
14,22,0.341028
14,25,0.343407
14,34,0.342434
14,35,0.34165
14,36,0.344219
14,37,0.347304
14,39,0.337847
14,40,0.348168
14,43,0.34538
14,44,0.337173
14,49,0.340862
14,52,0.339553
15,7,0.346084
15,11,0.349661
15,16,0.355728
15,17,0.349324
15,18,0.348656
15,23,0.346136
15,26,0.347122
15,27,0.351867
15,31,0.347532
15,32,0.355197
15,38,0.343421
15,41,0.350074
15,42,0.357556
15,46,0.350937
16,7,0.348023
16,11,0.341394
16,15,0.344795
16,17,0.344167
16,18,0.34422
16,23,0.343824
16,26,0.349802
16,27,0.341788
16,31,0.34189
16,32,0.340121
16,38,0.346866
16,41,0.340225
16,42,0.352025
16,46,0.347008
17,7,0.341997
17,11,0.348247
17,15,0.353457
17,16,0.343407
17,18,0.352972
17,23,0.344213
17,26,0.345545
17,27,0.350884
17,31,0.347283
17,32,0.35123
17,38,0.342566
17,41,0.345657
17,42,0.351693
17,46,0.347004
18,7,0.350496
18,11,0.346067
18,15,0.347334
18,16,0.345117
18,17,0.35124
18,23,0.341739
18,26,0.34521
18,27,0.345271
18,31,0.349903
18,32,0.342935
18,38,0.350216
18,41,0.347321
18,42,0.346163
18,46,0.339377
19,0,0.352525
19,2,0.352188
19,3,0.348481
19,4,0.363759
19,8,0.340282
19,13,0.350499
19,20,0.343864
19,21,0.344192
19,24,0.359962
19,28,0.348392
19,29,0.3497
19,30,0.345815
19,33,0.339741
19,45,0.349992
19,47,0.350911
19,48,0.349867
19,50,0.342173
19,51,0.349922
19,53,0.356803
19,54,0.350726
20,0,0.344196
20,2,0.345058
20,3,0.343838
20,4,0.343606
20,8,0.350354
20,13,0.339047
20,19,0.356416
20,21,0.344535
20,24,0.339046
20,28,0.341621
20,29,0.343186
20,30,0.34406
20,33,0.349117
20,45,0.34262
20,47,0.342961
20,48,0.3514
20,50,0.344798
20,51,0.340868
20,53,0.34354
20,54,0.346478
21,0,0.343696
21,2,0.347391
21,3,0.342466
21,4,0.343177
21,8,0.346432
21,13,0.338694
21,19,0.3496
21,20,0.34633
21,24,0.344094
21,28,0.340137
21,29,0.347597
21,30,0.346695
21,33,0.34035
21,45,0.344619
21,47,0.346257
21,48,0.340016
21,50,0.344689
21,51,0.340432
21,53,0.345179
21,54,0.342633
22,1,0.347297
22,5,0.34647
22,6,0.348742
22,9,0.35095
22,10,0.34888
22,12,0.349535
22,14,0.343682
22,25,0.347492
22,34,0.350525
22,35,0.342593
22,36,0.348828
22,37,0.355215
22,39,0.350603
22,40,0.365594
22,43,0.350065
22,44,0.350982
22,49,0.352788
22,52,0.346643
23,7,0.353681
23,11,0.349731
23,15,0.342933
23,16,0.358132
23,17,0.356851
23,18,0.350958
23,26,0.343833
23,27,0.352085
23,31,0.351712
23,32,0.352267
23,38,0.352359
23,41,0.349642
23,42,0.347393
23,46,0.342354
24,0,0.36126
24,2,0.348583
24,3,0.348721
24,4,0.345223
24,8,0.345803
24,13,0.346492
24,19,0.346708
24,20,0.351942
24,21,0.353672
24,28,0.358212
24,29,0.349617
24,30,0.343593
24,33,0.344813
24,45,0.345411
24,47,0.348484
24,48,0.34928
24,50,0.3531
24,51,0.358232
24,53,0.350792
24,54,0.355129
25,1,0.35712
25,5,0.345717
25,6,0.351483
25,9,0.344571
25,10,0.351104
25,12,0.343409
25,14,0.351421
25,22,0.345603
25,34,0.345346
25,35,0.351956
25,36,0.3573
25,37,0.352094
25,39,0.349082
25,40,0.34335
25,43,0.3524
25,44,0.349123
25,49,0.342673
25,52,0.34748
26,7,0.347661
26,11,0.350449
26,15,0.353344
26,16,0.344356
26,17,0.352691
26,18,0.348725
26,23,0.340097
26,27,0.356189
26,31,0.345897
26,32,0.351755
26,38,0.342592
26,41,0.351715
26,42,0.345196
26,46,0.341767
27,7,0.352599
27,11,0.345945
27,15,0.345054
27,16,0.349352
27,17,0.338623
27,18,0.338109
27,23,0.351915
27,26,0.343326
27,31,0.349158
27,32,0.344416
27,38,0.344902
27,41,0.346017
27,42,0.34889
27,46,0.342593
28,0,0.361455
28,2,0.348393
28,3,0.35841
28,4,0.343385
28,8,0.350138
28,13,0.348087
28,19,0.351395
28,20,0.353008
28,21,0.352613
28,24,0.350611
28,29,0.345598
28,30,0.347752
28,33,0.348197
28,45,0.350824
28,47,0.341819
28,48,0.34046
28,50,0.352185
28,51,0.351749
28,53,0.344618
28,54,0.349136
29,0,0.347524
29,2,0.344583
29,3,0.345432
29,4,0.342068
29,8,0.344821
29,13,0.346446
29,19,0.343059
29,20,0.346256
29,21,0.355803
29,24,0.341986
29,28,0.346167
29,30,0.347503
29,33,0.352499
29,45,0.343197
29,47,0.343114
29,48,0.34106
29,50,0.34619
29,51,0.339587
29,53,0.347148
29,54,0.34457
30,0,0.343202
30,2,0.342308
30,3,0.351222
30,4,0.337984
30,8,0.341794
30,13,0.343045
30,19,0.344887
30,20,0.344286
30,21,0.345227
30,24,0.34204
30,28,0.344977
30,29,0.34165
30,33,0.340661
30,45,0.33919
30,47,0.346665
30,48,0.340699
30,50,0.349743
30,51,0.339031
30,53,0.349952
30,54,0.349593
31,7,0.349522
31,11,0.343919
31,15,0.350991
31,16,0.349144
31,17,0.349148
31,18,0.353193
31,23,0.352342
31,26,0.347643
31,27,0.344766
31,32,0.343019
31,38,0.35692
31,41,0.346109
31,42,0.352969
31,46,0.347528
32,7,0.349918
32,11,0.347165
32,15,0.347718
32,16,0.347614
32,17,0.342106
32,18,0.343026
32,23,0.34225
32,26,0.339975
32,27,0.341803
32,31,0.342663
32,38,0.339673
32,41,0.344034
32,42,0.346758
32,46,0.344103
33,0,0.35595
33,2,0.353492
33,3,0.347933
33,4,0.350102
33,8,0.360807
33,13,0.34574
33,19,0.345232
33,20,0.351152
33,21,0.34439
33,24,0.343508
33,28,0.351168
33,29,0.360793
33,30,0.340928
33,45,0.346361
33,47,0.359802
33,48,0.346173
33,50,0.354293
33,51,0.344175
33,53,0.338367
33,54,0.354118
34,1,0.354809
34,5,0.348207
34,6,0.358177
34,9,0.348748
34,10,0.348055
34,12,0.345874
34,14,0.349991
34,22,0.345371
34,25,0.343709
34,35,0.346903
34,36,0.354792
34,37,0.355556
34,39,0.342217
34,40,0.355332
34,43,0.346713
34,44,0.346368
34,49,0.348543
34,52,0.342356
35,1,0.345464
35,5,0.351389
35,6,0.339068
35,9,0.347453
35,10,0.351344
35,12,0.34712
35,14,0.344
35,22,0.345001
35,25,0.34195
35,34,0.355024
35,36,0.346068
35,37,0.341784
35,39,0.343047
35,40,0.344925
35,43,0.342751
35,44,0.341357
35,49,0.355115
35,52,0.345114
36,1,0.343934
36,5,0.339921
36,6,0.345666
36,9,0.345496
36,10,0.339409
36,12,0.342416
36,14,0.354991
36,22,0.345855
36,25,0.344518
36,34,0.350112
36,35,0.339078
36,37,0.340986
36,39,0.342231
36,40,0.34758
36,43,0.346197
36,44,0.341651
36,49,0.348591
36,52,0.345853
37,1,0.346103
37,5,0.341692
37,6,0.344816
37,9,0.343777
37,10,0.339812
37,12,0.355916
37,14,0.340916
37,22,0.342885
37,25,0.343654
37,34,0.344524
37,35,0.34159
37,36,0.343872
37,39,0.3479
37,40,0.340798
37,43,0.341019
37,44,0.33909
37,49,0.342779
37,52,0.342018
38,7,0.354407
38,11,0.353361
38,15,0.363341
38,16,0.346384
38,17,0.340525
38,18,0.345671
38,23,0.348647
38,26,0.344179
38,27,0.345962
38,31,0.350537
38,32,0.351647
38,41,0.351077
38,42,0.351811
38,46,0.34321
39,1,0.343786
39,5,0.345171
39,6,0.33943
39,9,0.346108
39,10,0.349513
39,12,0.342693
39,14,0.35097
39,22,0.34607
39,25,0.341819
39,34,0.348181
39,35,0.342276
39,36,0.341113
39,37,0.349918
39,40,0.344262
39,43,0.34563
39,44,0.340133
39,49,0.342754
39,52,0.345979
40,1,0.344128
40,5,0.342784
40,6,0.340419
40,9,0.347024
40,10,0.347483
40,12,0.342401
40,14,0.346514
40,22,0.345563
40,25,0.344743
40,34,0.348661
40,35,0.342056
40,36,0.349965
40,37,0.345783
40,39,0.341291
40,43,0.346542
40,44,0.351922
40,49,0.341637
40,52,0.345513
41,7,0.359973
41,11,0.343738
41,15,0.344503
41,16,0.349425
41,17,0.352078
41,18,0.350147
41,23,0.349243
41,26,0.355008
41,27,0.35404
41,31,0.35419
41,32,0.347657
41,38,0.342275
41,42,0.347748
41,46,0.346229
42,7,0.337394
42,11,0.34742
42,15,0.344493
42,16,0.341642
42,17,0.347429
42,18,0.351071
42,23,0.339965
42,26,0.345609
42,27,0.349391
42,31,0.349794
42,32,0.355777
42,38,0.344336
42,41,0.343144
42,46,0.341977
43,1,0.353646
43,5,0.343496
43,6,0.341702
43,9,0.353415
43,10,0.350836
43,12,0.352116
43,14,0.351379
43,22,0.341919
43,25,0.352631
43,34,0.351843
43,35,0.345396
43,36,0.353305
43,37,0.347699
43,39,0.34642
43,40,0.35045
43,44,0.352737
43,49,0.363161
43,52,0.354075
44,1,0.340081
44,5,0.341599
44,6,0.346628
44,9,0.341932
44,10,0.346722
44,12,0.348907
44,14,0.341578
44,22,0.337887
44,25,0.345404
44,34,0.345828
44,35,0.340822
44,36,0.345083
44,37,0.350926
44,39,0.351471
44,40,0.338745
44,43,0.344777
44,49,0.342909
44,52,0.345949
45,0,0.361015
45,2,0.348684
45,3,0.356579
45,4,0.355705
45,8,0.34597
45,13,0.342795
45,19,0.34388
45,20,0.347176
45,21,0.350462
45,24,0.356035
45,28,0.349712
45,29,0.356917
45,30,0.349862
45,33,0.347934
45,47,0.343613
45,48,0.345397
45,50,0.343038
45,51,0.351504
45,53,0.349349
45,54,0.348511
46,7,0.349153
46,11,0.346657
46,15,0.340077
46,16,0.34294
46,17,0.347977
46,18,0.341574
46,23,0.347832
46,26,0.342844
46,27,0.346712
46,31,0.352622
46,32,0.3549
46,38,0.345133
46,41,0.356608
46,42,0.351124
47,0,0.340108
47,2,0.340556
47,3,0.353193
47,4,0.341569
47,8,0.340892
47,13,0.352149
47,19,0.343621
47,20,0.342289
47,21,0.352252
47,24,0.349954
47,28,0.339543
47,29,0.3421
47,30,0.343496
47,33,0.349525
47,45,0.342173
47,48,0.33992
47,50,0.344951
47,51,0.344143
47,53,0.348343
47,54,0.343309
48,0,0.346025
48,2,0.351338
48,3,0.339534
48,4,0.342182
48,8,0.345244
48,13,0.349208
48,19,0.340467
48,20,0.344282
48,21,0.342638
48,24,0.342243
48,28,0.343344
48,29,0.347323
48,30,0.344327
48,33,0.344336
48,45,0.351931
48,47,0.348187
48,50,0.341505
48,51,0.34126
48,53,0.342421
48,54,0.341052
49,1,0.361898
49,5,0.350868
49,6,0.34683
49,9,0.345737
49,10,0.349009
49,12,0.350246
49,14,0.355105
49,22,0.355745
49,25,0.347273
49,34,0.356084
49,35,0.347174
49,36,0.35161
49,37,0.354036
49,39,0.35103
49,40,0.352061
49,43,0.34898
49,44,0.345931
49,52,0.350566
50,0,0.340172
50,2,0.342041
50,3,0.352495
50,4,0.342703
50,8,0.339835
50,13,0.340918
50,19,0.349053
50,20,0.341872
50,21,0.340857
50,24,0.346115
50,28,0.339119
50,29,0.352947
50,30,0.340277
50,33,0.343171
50,45,0.339602
50,47,0.352721
50,48,0.344793
50,51,0.343952
50,53,0.340423
50,54,0.344023
51,0,0.346226
51,2,0.346805
51,3,0.342152
51,4,0.337546
51,8,0.34289
51,13,0.342764
51,19,0.34383
51,20,0.341513
51,21,0.343511
51,24,0.343426
51,28,0.344476
51,29,0.356092
51,30,0.341233
51,33,0.349936
51,45,0.343816
51,47,0.342181
51,48,0.348138
51,50,0.338506
51,53,0.343154
51,54,0.351648
52,1,0.343701
52,5,0.347119
52,6,0.338846
52,9,0.345791
52,10,0.353432
52,12,0.347613
52,14,0.34901
52,22,0.346281
52,25,0.351941
52,34,0.346646
52,35,0.351079
52,36,0.363982
52,37,0.357496
52,39,0.352618
52,40,0.346312
52,43,0.352145
52,44,0.340723
52,49,0.350906
53,0,0.345297
53,2,0.347485
53,3,0.35284
53,4,0.345348
53,8,0.344184
53,13,0.33947
53,19,0.344995
53,20,0.337503
53,21,0.34199
53,24,0.346353
53,28,0.343537
53,29,0.345717
53,30,0.345722
53,33,0.347521
53,45,0.351549
53,47,0.34414
53,48,0.344604
53,50,0.337663
53,51,0.339712
53,54,0.338035
54,0,0.345576
54,2,0.345138
54,3,0.345434
54,4,0.348908
54,8,0.344158
54,13,0.34407
54,19,0.339908
54,20,0.344068
54,21,0.342555
54,24,0.344013
54,28,0.345235
54,29,0.343286
54,30,0.339637
54,33,0.346008
54,45,0.342617
54,47,0.351465
54,48,0.34457
54,50,0.345316
54,51,0.342232
54,53,0.340789
