<?xml version="1.0" encoding="utf-8" standalone="no"?>
<!DOCTYPE svg PUBLIC "-//W3C//DTD SVG 1.1//EN"
  "http://www.w3.org/Graphics/SVG/1.1/DTD/svg11.dtd">
<svg xmlns:xlink="http://www.w3.org/1999/xlink" width="2217.495pt" height="695.066719pt" viewBox="0 0 2217.495 695.066719" xmlns="http://www.w3.org/2000/svg" version="1.1">
 <metadata>
  <rdf:RDF xmlns:dc="http://purl.org/dc/elements/1.1/" xmlns:cc="http://creativecommons.org/ns#" xmlns:rdf="http://www.w3.org/1999/02/22-rdf-syntax-ns#">
   <cc:Work>
    <dc:type rdf:resource="http://purl.org/dc/dcmitype/StillImage"/>
    <dc:date>2022-11-29T12:08:51.502193</dc:date>
    <dc:format>image/svg+xml</dc:format>
    <dc:creator>
     <cc:Agent>
      <dc:title>Matplotlib v3.5.1, https://matplotlib.org/</dc:title>
     </cc:Agent>
    </dc:creator>
   </cc:Work>
  </rdf:RDF>
 </metadata>
 <defs>
  <style type="text/css">*{stroke-linejoin: round; stroke-linecap: butt}</style>
 </defs>
 <g id="figure_1">
  <g id="patch_1">
   <path d="M 0 695.066719 
L 2217.495 695.066719 
L 2217.495 0 
L 0 0 
z
" style="fill: #ffffff"/>
  </g>
  <g id="axes_1">
   <g id="patch_2">
    <path d="M 72.615 317.667187 
L 380.254917 317.667187 
L 380.254917 26.877187 
L 72.615 26.877187 
z
" style="fill: #eaeaf2"/>
   </g>
   <g id="matplotlib.axis_1">
    <g id="xtick_1"/>
    <g id="xtick_2"/>
    <g id="xtick_3"/>
   </g>
   <g id="matplotlib.axis_2">
    <g id="ytick_1">
     <g id="line2d_1">
      <path d="M 72.615 317.667187 
L 380.254917 317.667187 
" clip-path="url(#p13708f9074)" style="fill: none; stroke: #ffffff; stroke-width: 1.5; stroke-linecap: round"/>
     </g>
     <g id="text_1">
      <!-- 0 -->
      <g style="fill: #262626" transform="translate(49.616875 323.935898)scale(0.165 -0.165)">
       <defs>
        <path id="DejaVuSans-30" d="M 2034 4250 
Q 1547 4250 1301 3770 
Q 1056 3291 1056 2328 
Q 1056 1369 1301 889 
Q 1547 409 2034 409 
Q 2525 409 2770 889 
Q 3016 1369 3016 2328 
Q 3016 3291 2770 3770 
Q 2525 4250 2034 4250 
z
M 2034 4750 
Q 2819 4750 3233 4129 
Q 3647 3509 3647 2328 
Q 3647 1150 3233 529 
Q 2819 -91 2034 -91 
Q 1250 -91 836 529 
Q 422 1150 422 2328 
Q 422 3509 836 4129 
Q 1250 4750 2034 4750 
z
" transform="scale(0.015625)"/>
       </defs>
       <use xlink:href="#DejaVuSans-30"/>
      </g>
     </g>
    </g>
    <g id="ytick_2">
     <g id="line2d_2">
      <path d="M 72.615 247.271171 
L 380.254917 247.271171 
" clip-path="url(#p13708f9074)" style="fill: none; stroke: #ffffff; stroke-width: 1.5; stroke-linecap: round"/>
     </g>
     <g id="text_2">
      <!-- 50 -->
      <g style="fill: #262626" transform="translate(39.11875 253.539882)scale(0.165 -0.165)">
       <defs>
        <path id="DejaVuSans-35" d="M 691 4666 
L 3169 4666 
L 3169 4134 
L 1269 4134 
L 1269 2991 
Q 1406 3038 1543 3061 
Q 1681 3084 1819 3084 
Q 2600 3084 3056 2656 
Q 3513 2228 3513 1497 
Q 3513 744 3044 326 
Q 2575 -91 1722 -91 
Q 1428 -91 1123 -41 
Q 819 9 494 109 
L 494 744 
Q 775 591 1075 516 
Q 1375 441 1709 441 
Q 2250 441 2565 725 
Q 2881 1009 2881 1497 
Q 2881 1984 2565 2268 
Q 2250 2553 1709 2553 
Q 1456 2553 1204 2497 
Q 953 2441 691 2322 
L 691 4666 
z
" transform="scale(0.015625)"/>
       </defs>
       <use xlink:href="#DejaVuSans-35"/>
       <use xlink:href="#DejaVuSans-30" x="63.623047"/>
      </g>
     </g>
    </g>
    <g id="ytick_3">
     <g id="line2d_3">
      <path d="M 72.615 176.875154 
L 380.254917 176.875154 
" clip-path="url(#p13708f9074)" style="fill: none; stroke: #ffffff; stroke-width: 1.5; stroke-linecap: round"/>
     </g>
     <g id="text_3">
      <!-- 100 -->
      <g style="fill: #262626" transform="translate(28.620625 183.143865)scale(0.165 -0.165)">
       <defs>
        <path id="DejaVuSans-31" d="M 794 531 
L 1825 531 
L 1825 4091 
L 703 3866 
L 703 4441 
L 1819 4666 
L 2450 4666 
L 2450 531 
L 3481 531 
L 3481 0 
L 794 0 
L 794 531 
z
" transform="scale(0.015625)"/>
       </defs>
       <use xlink:href="#DejaVuSans-31"/>
       <use xlink:href="#DejaVuSans-30" x="63.623047"/>
       <use xlink:href="#DejaVuSans-30" x="127.246094"/>
      </g>
     </g>
    </g>
    <g id="ytick_4">
     <g id="line2d_4">
      <path d="M 72.615 106.479138 
L 380.254917 106.479138 
" clip-path="url(#p13708f9074)" style="fill: none; stroke: #ffffff; stroke-width: 1.5; stroke-linecap: round"/>
     </g>
     <g id="text_4">
      <!-- 150 -->
      <g style="fill: #262626" transform="translate(28.620625 112.747849)scale(0.165 -0.165)">
       <use xlink:href="#DejaVuSans-31"/>
       <use xlink:href="#DejaVuSans-35" x="63.623047"/>
       <use xlink:href="#DejaVuSans-30" x="127.246094"/>
      </g>
     </g>
    </g>
    <g id="ytick_5">
     <g id="line2d_5">
      <path d="M 72.615 36.083121 
L 380.254917 36.083121 
" clip-path="url(#p13708f9074)" style="fill: none; stroke: #ffffff; stroke-width: 1.5; stroke-linecap: round"/>
     </g>
     <g id="text_5">
      <!-- 200 -->
      <g style="fill: #262626" transform="translate(28.620625 42.351832)scale(0.165 -0.165)">
       <defs>
        <path id="DejaVuSans-32" d="M 1228 531 
L 3431 531 
L 3431 0 
L 469 0 
L 469 531 
Q 828 903 1448 1529 
Q 2069 2156 2228 2338 
Q 2531 2678 2651 2914 
Q 2772 3150 2772 3378 
Q 2772 3750 2511 3984 
Q 2250 4219 1831 4219 
Q 1534 4219 1204 4116 
Q 875 4013 500 3803 
L 500 4441 
Q 881 4594 1212 4672 
Q 1544 4750 1819 4750 
Q 2544 4750 2975 4387 
Q 3406 4025 3406 3419 
Q 3406 3131 3298 2873 
Q 3191 2616 2906 2266 
Q 2828 2175 2409 1742 
Q 1991 1309 1228 531 
z
" transform="scale(0.015625)"/>
       </defs>
       <use xlink:href="#DejaVuSans-32"/>
       <use xlink:href="#DejaVuSans-30" x="63.623047"/>
       <use xlink:href="#DejaVuSans-30" x="127.246094"/>
      </g>
     </g>
    </g>
    <g id="text_6">
     <!-- Total overcurrent (nb meas.) -->
     <g style="fill: #262626" transform="translate(20.877188 300.010312)rotate(-90)scale(0.18 -0.18)">
      <defs>
       <path id="DejaVuSans-54" d="M -19 4666 
L 3928 4666 
L 3928 4134 
L 2272 4134 
L 2272 0 
L 1638 0 
L 1638 4134 
L -19 4134 
L -19 4666 
z
" transform="scale(0.015625)"/>
       <path id="DejaVuSans-6f" d="M 1959 3097 
Q 1497 3097 1228 2736 
Q 959 2375 959 1747 
Q 959 1119 1226 758 
Q 1494 397 1959 397 
Q 2419 397 2687 759 
Q 2956 1122 2956 1747 
Q 2956 2369 2687 2733 
Q 2419 3097 1959 3097 
z
M 1959 3584 
Q 2709 3584 3137 3096 
Q 3566 2609 3566 1747 
Q 3566 888 3137 398 
Q 2709 -91 1959 -91 
Q 1206 -91 779 398 
Q 353 888 353 1747 
Q 353 2609 779 3096 
Q 1206 3584 1959 3584 
z
" transform="scale(0.015625)"/>
       <path id="DejaVuSans-74" d="M 1172 4494 
L 1172 3500 
L 2356 3500 
L 2356 3053 
L 1172 3053 
L 1172 1153 
Q 1172 725 1289 603 
Q 1406 481 1766 481 
L 2356 481 
L 2356 0 
L 1766 0 
Q 1100 0 847 248 
Q 594 497 594 1153 
L 594 3053 
L 172 3053 
L 172 3500 
L 594 3500 
L 594 4494 
L 1172 4494 
z
" transform="scale(0.015625)"/>
       <path id="DejaVuSans-61" d="M 2194 1759 
Q 1497 1759 1228 1600 
Q 959 1441 959 1056 
Q 959 750 1161 570 
Q 1363 391 1709 391 
Q 2188 391 2477 730 
Q 2766 1069 2766 1631 
L 2766 1759 
L 2194 1759 
z
M 3341 1997 
L 3341 0 
L 2766 0 
L 2766 531 
Q 2569 213 2275 61 
Q 1981 -91 1556 -91 
Q 1019 -91 701 211 
Q 384 513 384 1019 
Q 384 1609 779 1909 
Q 1175 2209 1959 2209 
L 2766 2209 
L 2766 2266 
Q 2766 2663 2505 2880 
Q 2244 3097 1772 3097 
Q 1472 3097 1187 3025 
Q 903 2953 641 2809 
L 641 3341 
Q 956 3463 1253 3523 
Q 1550 3584 1831 3584 
Q 2591 3584 2966 3190 
Q 3341 2797 3341 1997 
z
" transform="scale(0.015625)"/>
       <path id="DejaVuSans-6c" d="M 603 4863 
L 1178 4863 
L 1178 0 
L 603 0 
L 603 4863 
z
" transform="scale(0.015625)"/>
       <path id="DejaVuSans-20" transform="scale(0.015625)"/>
       <path id="DejaVuSans-76" d="M 191 3500 
L 800 3500 
L 1894 563 
L 2988 3500 
L 3597 3500 
L 2284 0 
L 1503 0 
L 191 3500 
z
" transform="scale(0.015625)"/>
       <path id="DejaVuSans-65" d="M 3597 1894 
L 3597 1613 
L 953 1613 
Q 991 1019 1311 708 
Q 1631 397 2203 397 
Q 2534 397 2845 478 
Q 3156 559 3463 722 
L 3463 178 
Q 3153 47 2828 -22 
Q 2503 -91 2169 -91 
Q 1331 -91 842 396 
Q 353 884 353 1716 
Q 353 2575 817 3079 
Q 1281 3584 2069 3584 
Q 2775 3584 3186 3129 
Q 3597 2675 3597 1894 
z
M 3022 2063 
Q 3016 2534 2758 2815 
Q 2500 3097 2075 3097 
Q 1594 3097 1305 2825 
Q 1016 2553 972 2059 
L 3022 2063 
z
" transform="scale(0.015625)"/>
       <path id="DejaVuSans-72" d="M 2631 2963 
Q 2534 3019 2420 3045 
Q 2306 3072 2169 3072 
Q 1681 3072 1420 2755 
Q 1159 2438 1159 1844 
L 1159 0 
L 581 0 
L 581 3500 
L 1159 3500 
L 1159 2956 
Q 1341 3275 1631 3429 
Q 1922 3584 2338 3584 
Q 2397 3584 2469 3576 
Q 2541 3569 2628 3553 
L 2631 2963 
z
" transform="scale(0.015625)"/>
       <path id="DejaVuSans-63" d="M 3122 3366 
L 3122 2828 
Q 2878 2963 2633 3030 
Q 2388 3097 2138 3097 
Q 1578 3097 1268 2742 
Q 959 2388 959 1747 
Q 959 1106 1268 751 
Q 1578 397 2138 397 
Q 2388 397 2633 464 
Q 2878 531 3122 666 
L 3122 134 
Q 2881 22 2623 -34 
Q 2366 -91 2075 -91 
Q 1284 -91 818 406 
Q 353 903 353 1747 
Q 353 2603 823 3093 
Q 1294 3584 2113 3584 
Q 2378 3584 2631 3529 
Q 2884 3475 3122 3366 
z
" transform="scale(0.015625)"/>
       <path id="DejaVuSans-75" d="M 544 1381 
L 544 3500 
L 1119 3500 
L 1119 1403 
Q 1119 906 1312 657 
Q 1506 409 1894 409 
Q 2359 409 2629 706 
Q 2900 1003 2900 1516 
L 2900 3500 
L 3475 3500 
L 3475 0 
L 2900 0 
L 2900 538 
Q 2691 219 2414 64 
Q 2138 -91 1772 -91 
Q 1169 -91 856 284 
Q 544 659 544 1381 
z
M 1991 3584 
L 1991 3584 
z
" transform="scale(0.015625)"/>
       <path id="DejaVuSans-6e" d="M 3513 2113 
L 3513 0 
L 2938 0 
L 2938 2094 
Q 2938 2591 2744 2837 
Q 2550 3084 2163 3084 
Q 1697 3084 1428 2787 
Q 1159 2491 1159 1978 
L 1159 0 
L 581 0 
L 581 3500 
L 1159 3500 
L 1159 2956 
Q 1366 3272 1645 3428 
Q 1925 3584 2291 3584 
Q 2894 3584 3203 3211 
Q 3513 2838 3513 2113 
z
" transform="scale(0.015625)"/>
       <path id="DejaVuSans-28" d="M 1984 4856 
Q 1566 4138 1362 3434 
Q 1159 2731 1159 2009 
Q 1159 1288 1364 580 
Q 1569 -128 1984 -844 
L 1484 -844 
Q 1016 -109 783 600 
Q 550 1309 550 2009 
Q 550 2706 781 3412 
Q 1013 4119 1484 4856 
L 1984 4856 
z
" transform="scale(0.015625)"/>
       <path id="DejaVuSans-62" d="M 3116 1747 
Q 3116 2381 2855 2742 
Q 2594 3103 2138 3103 
Q 1681 3103 1420 2742 
Q 1159 2381 1159 1747 
Q 1159 1113 1420 752 
Q 1681 391 2138 391 
Q 2594 391 2855 752 
Q 3116 1113 3116 1747 
z
M 1159 2969 
Q 1341 3281 1617 3432 
Q 1894 3584 2278 3584 
Q 2916 3584 3314 3078 
Q 3713 2572 3713 1747 
Q 3713 922 3314 415 
Q 2916 -91 2278 -91 
Q 1894 -91 1617 61 
Q 1341 213 1159 525 
L 1159 0 
L 581 0 
L 581 4863 
L 1159 4863 
L 1159 2969 
z
" transform="scale(0.015625)"/>
       <path id="DejaVuSans-6d" d="M 3328 2828 
Q 3544 3216 3844 3400 
Q 4144 3584 4550 3584 
Q 5097 3584 5394 3201 
Q 5691 2819 5691 2113 
L 5691 0 
L 5113 0 
L 5113 2094 
Q 5113 2597 4934 2840 
Q 4756 3084 4391 3084 
Q 3944 3084 3684 2787 
Q 3425 2491 3425 1978 
L 3425 0 
L 2847 0 
L 2847 2094 
Q 2847 2600 2669 2842 
Q 2491 3084 2119 3084 
Q 1678 3084 1418 2786 
Q 1159 2488 1159 1978 
L 1159 0 
L 581 0 
L 581 3500 
L 1159 3500 
L 1159 2956 
Q 1356 3278 1631 3431 
Q 1906 3584 2284 3584 
Q 2666 3584 2933 3390 
Q 3200 3197 3328 2828 
z
" transform="scale(0.015625)"/>
       <path id="DejaVuSans-73" d="M 2834 3397 
L 2834 2853 
Q 2591 2978 2328 3040 
Q 2066 3103 1784 3103 
Q 1356 3103 1142 2972 
Q 928 2841 928 2578 
Q 928 2378 1081 2264 
Q 1234 2150 1697 2047 
L 1894 2003 
Q 2506 1872 2764 1633 
Q 3022 1394 3022 966 
Q 3022 478 2636 193 
Q 2250 -91 1575 -91 
Q 1294 -91 989 -36 
Q 684 19 347 128 
L 347 722 
Q 666 556 975 473 
Q 1284 391 1588 391 
Q 1994 391 2212 530 
Q 2431 669 2431 922 
Q 2431 1156 2273 1281 
Q 2116 1406 1581 1522 
L 1381 1569 
Q 847 1681 609 1914 
Q 372 2147 372 2553 
Q 372 3047 722 3315 
Q 1072 3584 1716 3584 
Q 2034 3584 2315 3537 
Q 2597 3491 2834 3397 
z
" transform="scale(0.015625)"/>
       <path id="DejaVuSans-2e" d="M 684 794 
L 1344 794 
L 1344 0 
L 684 0 
L 684 794 
z
" transform="scale(0.015625)"/>
       <path id="DejaVuSans-29" d="M 513 4856 
L 1013 4856 
Q 1481 4119 1714 3412 
Q 1947 2706 1947 2009 
Q 1947 1309 1714 600 
Q 1481 -109 1013 -844 
L 513 -844 
Q 928 -128 1133 580 
Q 1338 1288 1338 2009 
Q 1338 2731 1133 3434 
Q 928 4138 513 4856 
z
" transform="scale(0.015625)"/>
      </defs>
      <use xlink:href="#DejaVuSans-54"/>
      <use xlink:href="#DejaVuSans-6f" x="44.083984"/>
      <use xlink:href="#DejaVuSans-74" x="105.265625"/>
      <use xlink:href="#DejaVuSans-61" x="144.474609"/>
      <use xlink:href="#DejaVuSans-6c" x="205.753906"/>
      <use xlink:href="#DejaVuSans-20" x="233.537109"/>
      <use xlink:href="#DejaVuSans-6f" x="265.324219"/>
      <use xlink:href="#DejaVuSans-76" x="326.505859"/>
      <use xlink:href="#DejaVuSans-65" x="385.685547"/>
      <use xlink:href="#DejaVuSans-72" x="447.208984"/>
      <use xlink:href="#DejaVuSans-63" x="486.072266"/>
      <use xlink:href="#DejaVuSans-75" x="541.052734"/>
      <use xlink:href="#DejaVuSans-72" x="604.431641"/>
      <use xlink:href="#DejaVuSans-72" x="643.794922"/>
      <use xlink:href="#DejaVuSans-65" x="682.658203"/>
      <use xlink:href="#DejaVuSans-6e" x="744.181641"/>
      <use xlink:href="#DejaVuSans-74" x="807.560547"/>
      <use xlink:href="#DejaVuSans-20" x="846.769531"/>
      <use xlink:href="#DejaVuSans-28" x="878.556641"/>
      <use xlink:href="#DejaVuSans-6e" x="917.570312"/>
      <use xlink:href="#DejaVuSans-62" x="980.949219"/>
      <use xlink:href="#DejaVuSans-20" x="1044.425781"/>
      <use xlink:href="#DejaVuSans-6d" x="1076.212891"/>
      <use xlink:href="#DejaVuSans-65" x="1173.625"/>
      <use xlink:href="#DejaVuSans-61" x="1235.148438"/>
      <use xlink:href="#DejaVuSans-73" x="1296.427734"/>
      <use xlink:href="#DejaVuSans-2e" x="1348.527344"/>
      <use xlink:href="#DejaVuSans-29" x="1380.314453"/>
     </g>
    </g>
   </g>
   <g id="patch_3">
    <path d="M 82.869664 317.667187 
L 164.906975 317.667187 
L 164.906975 182.901053 
L 82.869664 182.901053 
z
" clip-path="url(#p13708f9074)" style="fill: #5875a4; stroke: #ffffff; stroke-width: 1.5; stroke-linejoin: miter"/>
   </g>
   <g id="patch_4">
    <path d="M 185.416303 317.667187 
L 267.453614 317.667187 
L 267.453614 125.626854 
L 185.416303 125.626854 
z
" clip-path="url(#p13708f9074)" style="fill: #5875a4; stroke: #ffffff; stroke-width: 1.5; stroke-linejoin: miter"/>
   </g>
   <g id="patch_5">
    <path d="M 287.962942 317.667187 
L 370.000253 317.667187 
L 370.000253 137.031009 
L 287.962942 137.031009 
z
" clip-path="url(#p13708f9074)" style="fill: #5875a4; stroke: #ffffff; stroke-width: 1.5; stroke-linejoin: miter"/>
   </g>
   <g id="line2d_6">
    <path d="M 123.88832 202.950543 
L 123.88832 159.240248 
" clip-path="url(#p13708f9074)" style="fill: none; stroke: #424242; stroke-width: 4.05; stroke-linecap: round"/>
   </g>
   <g id="line2d_7">
    <path d="M 226.434959 189.772408 
L 226.434959 40.72433 
" clip-path="url(#p13708f9074)" style="fill: none; stroke: #424242; stroke-width: 4.05; stroke-linecap: round"/>
   </g>
   <g id="line2d_8">
    <path d="M 328.981598 163.393613 
L 328.981598 105.756874 
" clip-path="url(#p13708f9074)" style="fill: none; stroke: #424242; stroke-width: 4.05; stroke-linecap: round"/>
   </g>
   <g id="patch_6">
    <path d="M 72.615 317.667187 
L 72.615 26.877187 
" style="fill: none; stroke: #ffffff; stroke-width: 1.875; stroke-linejoin: miter; stroke-linecap: square"/>
   </g>
   <g id="patch_7">
    <path d="M 72.615 317.667187 
L 380.254917 317.667187 
" style="fill: none; stroke: #ffffff; stroke-width: 1.875; stroke-linejoin: miter; stroke-linecap: square"/>
   </g>
   <g id="text_7">
    <!-- Sheddable Houses = 15 -->
    <g style="fill: #262626" transform="translate(118.316834 20.877187)scale(0.18 -0.18)">
     <defs>
      <path id="DejaVuSans-53" d="M 3425 4513 
L 3425 3897 
Q 3066 4069 2747 4153 
Q 2428 4238 2131 4238 
Q 1616 4238 1336 4038 
Q 1056 3838 1056 3469 
Q 1056 3159 1242 3001 
Q 1428 2844 1947 2747 
L 2328 2669 
Q 3034 2534 3370 2195 
Q 3706 1856 3706 1288 
Q 3706 609 3251 259 
Q 2797 -91 1919 -91 
Q 1588 -91 1214 -16 
Q 841 59 441 206 
L 441 856 
Q 825 641 1194 531 
Q 1563 422 1919 422 
Q 2459 422 2753 634 
Q 3047 847 3047 1241 
Q 3047 1584 2836 1778 
Q 2625 1972 2144 2069 
L 1759 2144 
Q 1053 2284 737 2584 
Q 422 2884 422 3419 
Q 422 4038 858 4394 
Q 1294 4750 2059 4750 
Q 2388 4750 2728 4690 
Q 3069 4631 3425 4513 
z
" transform="scale(0.015625)"/>
      <path id="DejaVuSans-68" d="M 3513 2113 
L 3513 0 
L 2938 0 
L 2938 2094 
Q 2938 2591 2744 2837 
Q 2550 3084 2163 3084 
Q 1697 3084 1428 2787 
Q 1159 2491 1159 1978 
L 1159 0 
L 581 0 
L 581 4863 
L 1159 4863 
L 1159 2956 
Q 1366 3272 1645 3428 
Q 1925 3584 2291 3584 
Q 2894 3584 3203 3211 
Q 3513 2838 3513 2113 
z
" transform="scale(0.015625)"/>
      <path id="DejaVuSans-64" d="M 2906 2969 
L 2906 4863 
L 3481 4863 
L 3481 0 
L 2906 0 
L 2906 525 
Q 2725 213 2448 61 
Q 2172 -91 1784 -91 
Q 1150 -91 751 415 
Q 353 922 353 1747 
Q 353 2572 751 3078 
Q 1150 3584 1784 3584 
Q 2172 3584 2448 3432 
Q 2725 3281 2906 2969 
z
M 947 1747 
Q 947 1113 1208 752 
Q 1469 391 1925 391 
Q 2381 391 2643 752 
Q 2906 1113 2906 1747 
Q 2906 2381 2643 2742 
Q 2381 3103 1925 3103 
Q 1469 3103 1208 2742 
Q 947 2381 947 1747 
z
" transform="scale(0.015625)"/>
      <path id="DejaVuSans-48" d="M 628 4666 
L 1259 4666 
L 1259 2753 
L 3553 2753 
L 3553 4666 
L 4184 4666 
L 4184 0 
L 3553 0 
L 3553 2222 
L 1259 2222 
L 1259 0 
L 628 0 
L 628 4666 
z
" transform="scale(0.015625)"/>
      <path id="DejaVuSans-3d" d="M 678 2906 
L 4684 2906 
L 4684 2381 
L 678 2381 
L 678 2906 
z
M 678 1631 
L 4684 1631 
L 4684 1100 
L 678 1100 
L 678 1631 
z
" transform="scale(0.015625)"/>
     </defs>
     <use xlink:href="#DejaVuSans-53"/>
     <use xlink:href="#DejaVuSans-68" x="63.476562"/>
     <use xlink:href="#DejaVuSans-65" x="126.855469"/>
     <use xlink:href="#DejaVuSans-64" x="188.378906"/>
     <use xlink:href="#DejaVuSans-64" x="251.855469"/>
     <use xlink:href="#DejaVuSans-61" x="315.332031"/>
     <use xlink:href="#DejaVuSans-62" x="376.611328"/>
     <use xlink:href="#DejaVuSans-6c" x="440.087891"/>
     <use xlink:href="#DejaVuSans-65" x="467.871094"/>
     <use xlink:href="#DejaVuSans-20" x="529.394531"/>
     <use xlink:href="#DejaVuSans-48" x="561.181641"/>
     <use xlink:href="#DejaVuSans-6f" x="636.376953"/>
     <use xlink:href="#DejaVuSans-75" x="697.558594"/>
     <use xlink:href="#DejaVuSans-73" x="760.9375"/>
     <use xlink:href="#DejaVuSans-65" x="813.037109"/>
     <use xlink:href="#DejaVuSans-73" x="874.560547"/>
     <use xlink:href="#DejaVuSans-20" x="926.660156"/>
     <use xlink:href="#DejaVuSans-3d" x="958.447266"/>
     <use xlink:href="#DejaVuSans-20" x="1042.236328"/>
     <use xlink:href="#DejaVuSans-31" x="1074.023438"/>
     <use xlink:href="#DejaVuSans-35" x="1137.646484"/>
    </g>
   </g>
  </g>
  <g id="axes_2">
   <g id="patch_8">
    <path d="M 399.694917 317.667187 
L 707.334834 317.667187 
L 707.334834 26.877187 
L 399.694917 26.877187 
z
" style="fill: #eaeaf2"/>
   </g>
   <g id="matplotlib.axis_3">
    <g id="xtick_4"/>
    <g id="xtick_5"/>
    <g id="xtick_6"/>
   </g>
   <g id="matplotlib.axis_4">
    <g id="ytick_6">
     <g id="line2d_9">
      <path d="M 399.694917 317.667187 
L 707.334834 317.667187 
" clip-path="url(#p17c0694bd5)" style="fill: none; stroke: #ffffff; stroke-width: 1.5; stroke-linecap: round"/>
     </g>
    </g>
    <g id="ytick_7">
     <g id="line2d_10">
      <path d="M 399.694917 247.271171 
L 707.334834 247.271171 
" clip-path="url(#p17c0694bd5)" style="fill: none; stroke: #ffffff; stroke-width: 1.5; stroke-linecap: round"/>
     </g>
    </g>
    <g id="ytick_8">
     <g id="line2d_11">
      <path d="M 399.694917 176.875154 
L 707.334834 176.875154 
" clip-path="url(#p17c0694bd5)" style="fill: none; stroke: #ffffff; stroke-width: 1.5; stroke-linecap: round"/>
     </g>
    </g>
    <g id="ytick_9">
     <g id="line2d_12">
      <path d="M 399.694917 106.479138 
L 707.334834 106.479138 
" clip-path="url(#p17c0694bd5)" style="fill: none; stroke: #ffffff; stroke-width: 1.5; stroke-linecap: round"/>
     </g>
    </g>
    <g id="ytick_10">
     <g id="line2d_13">
      <path d="M 399.694917 36.083121 
L 707.334834 36.083121 
" clip-path="url(#p17c0694bd5)" style="fill: none; stroke: #ffffff; stroke-width: 1.5; stroke-linecap: round"/>
     </g>
    </g>
   </g>
   <g id="patch_9">
    <path d="M 409.949581 317.667187 
L 491.986892 317.667187 
L 491.986892 220.943061 
L 409.949581 220.943061 
z
" clip-path="url(#p17c0694bd5)" style="fill: #5875a4; stroke: #ffffff; stroke-width: 1.5; stroke-linejoin: miter"/>
   </g>
   <g id="patch_10">
    <path d="M 512.49622 317.667187 
L 594.533531 317.667187 
L 594.533531 213.452924 
L 512.49622 213.452924 
z
" clip-path="url(#p17c0694bd5)" style="fill: #5875a4; stroke: #ffffff; stroke-width: 1.5; stroke-linejoin: miter"/>
   </g>
   <g id="patch_11">
    <path d="M 615.042859 317.667187 
L 697.08017 317.667187 
L 697.08017 187.124814 
L 615.042859 187.124814 
z
" clip-path="url(#p17c0694bd5)" style="fill: #5875a4; stroke: #ffffff; stroke-width: 1.5; stroke-linejoin: miter"/>
   </g>
   <g id="line2d_14">
    <path d="M 450.968237 226.518425 
L 450.968237 214.49197 
" clip-path="url(#p17c0694bd5)" style="fill: none; stroke: #424242; stroke-width: 4.05; stroke-linecap: round"/>
   </g>
   <g id="line2d_15">
    <path d="M 553.514876 224.49102 
L 553.514876 198.747901 
" clip-path="url(#p17c0694bd5)" style="fill: none; stroke: #424242; stroke-width: 4.05; stroke-linecap: round"/>
   </g>
   <g id="line2d_16">
    <path d="M 656.061515 195.85744 
L 656.061515 177.715683 
" clip-path="url(#p17c0694bd5)" style="fill: none; stroke: #424242; stroke-width: 4.05; stroke-linecap: round"/>
   </g>
   <g id="patch_12">
    <path d="M 399.694917 317.667187 
L 399.694917 26.877187 
" style="fill: none; stroke: #ffffff; stroke-width: 1.875; stroke-linejoin: miter; stroke-linecap: square"/>
   </g>
   <g id="patch_13">
    <path d="M 399.694917 317.667187 
L 707.334834 317.667187 
" style="fill: none; stroke: #ffffff; stroke-width: 1.875; stroke-linejoin: miter; stroke-linecap: square"/>
   </g>
   <g id="text_8">
    <!-- Sheddable Houses = 20 -->
    <g style="fill: #262626" transform="translate(445.396751 20.877187)scale(0.18 -0.18)">
     <use xlink:href="#DejaVuSans-53"/>
     <use xlink:href="#DejaVuSans-68" x="63.476562"/>
     <use xlink:href="#DejaVuSans-65" x="126.855469"/>
     <use xlink:href="#DejaVuSans-64" x="188.378906"/>
     <use xlink:href="#DejaVuSans-64" x="251.855469"/>
     <use xlink:href="#DejaVuSans-61" x="315.332031"/>
     <use xlink:href="#DejaVuSans-62" x="376.611328"/>
     <use xlink:href="#DejaVuSans-6c" x="440.087891"/>
     <use xlink:href="#DejaVuSans-65" x="467.871094"/>
     <use xlink:href="#DejaVuSans-20" x="529.394531"/>
     <use xlink:href="#DejaVuSans-48" x="561.181641"/>
     <use xlink:href="#DejaVuSans-6f" x="636.376953"/>
     <use xlink:href="#DejaVuSans-75" x="697.558594"/>
     <use xlink:href="#DejaVuSans-73" x="760.9375"/>
     <use xlink:href="#DejaVuSans-65" x="813.037109"/>
     <use xlink:href="#DejaVuSans-73" x="874.560547"/>
     <use xlink:href="#DejaVuSans-20" x="926.660156"/>
     <use xlink:href="#DejaVuSans-3d" x="958.447266"/>
     <use xlink:href="#DejaVuSans-20" x="1042.236328"/>
     <use xlink:href="#DejaVuSans-32" x="1074.023438"/>
     <use xlink:href="#DejaVuSans-30" x="1137.646484"/>
    </g>
   </g>
  </g>
  <g id="axes_3">
   <g id="patch_14">
    <path d="M 726.774834 317.667187 
L 1034.414751 317.667187 
L 1034.414751 26.877187 
L 726.774834 26.877187 
z
" style="fill: #eaeaf2"/>
   </g>
   <g id="matplotlib.axis_5">
    <g id="xtick_7"/>
    <g id="xtick_8"/>
    <g id="xtick_9"/>
   </g>
   <g id="matplotlib.axis_6">
    <g id="ytick_11">
     <g id="line2d_17">
      <path d="M 726.774834 317.667187 
L 1034.414751 317.667187 
" clip-path="url(#p715983caf5)" style="fill: none; stroke: #ffffff; stroke-width: 1.5; stroke-linecap: round"/>
     </g>
    </g>
    <g id="ytick_12">
     <g id="line2d_18">
      <path d="M 726.774834 247.271171 
L 1034.414751 247.271171 
" clip-path="url(#p715983caf5)" style="fill: none; stroke: #ffffff; stroke-width: 1.5; stroke-linecap: round"/>
     </g>
    </g>
    <g id="ytick_13">
     <g id="line2d_19">
      <path d="M 726.774834 176.875154 
L 1034.414751 176.875154 
" clip-path="url(#p715983caf5)" style="fill: none; stroke: #ffffff; stroke-width: 1.5; stroke-linecap: round"/>
     </g>
    </g>
    <g id="ytick_14">
     <g id="line2d_20">
      <path d="M 726.774834 106.479138 
L 1034.414751 106.479138 
" clip-path="url(#p715983caf5)" style="fill: none; stroke: #ffffff; stroke-width: 1.5; stroke-linecap: round"/>
     </g>
    </g>
    <g id="ytick_15">
     <g id="line2d_21">
      <path d="M 726.774834 36.083121 
L 1034.414751 36.083121 
" clip-path="url(#p715983caf5)" style="fill: none; stroke: #ffffff; stroke-width: 1.5; stroke-linecap: round"/>
     </g>
    </g>
   </g>
   <g id="patch_15">
    <path d="M 737.029498 317.667187 
L 819.066809 317.667187 
L 819.066809 224.631812 
L 737.029498 224.631812 
z
" clip-path="url(#p715983caf5)" style="fill: #5875a4; stroke: #ffffff; stroke-width: 1.5; stroke-linejoin: miter"/>
   </g>
   <g id="patch_16">
    <path d="M 839.576137 317.667187 
L 921.613448 317.667187 
L 921.613448 219.056447 
L 839.576137 219.056447 
z
" clip-path="url(#p715983caf5)" style="fill: #5875a4; stroke: #ffffff; stroke-width: 1.5; stroke-linejoin: miter"/>
   </g>
   <g id="patch_17">
    <path d="M 942.122776 317.667187 
L 1024.160087 317.667187 
L 1024.160087 184.280815 
L 942.122776 184.280815 
z
" clip-path="url(#p715983caf5)" style="fill: #5875a4; stroke: #ffffff; stroke-width: 1.5; stroke-linejoin: miter"/>
   </g>
   <g id="line2d_22">
    <path d="M 778.048154 228.630306 
L 778.048154 220.88604 
" clip-path="url(#p715983caf5)" style="fill: none; stroke: #424242; stroke-width: 4.05; stroke-linecap: round"/>
   </g>
   <g id="line2d_23">
    <path d="M 880.594793 224.575495 
L 880.594793 212.888348 
" clip-path="url(#p715983caf5)" style="fill: none; stroke: #424242; stroke-width: 4.05; stroke-linecap: round"/>
   </g>
   <g id="line2d_24">
    <path d="M 983.141432 193.0951 
L 983.141432 174.425373 
" clip-path="url(#p715983caf5)" style="fill: none; stroke: #424242; stroke-width: 4.05; stroke-linecap: round"/>
   </g>
   <g id="patch_18">
    <path d="M 726.774834 317.667187 
L 726.774834 26.877187 
" style="fill: none; stroke: #ffffff; stroke-width: 1.875; stroke-linejoin: miter; stroke-linecap: square"/>
   </g>
   <g id="patch_19">
    <path d="M 726.774834 317.667187 
L 1034.414751 317.667187 
" style="fill: none; stroke: #ffffff; stroke-width: 1.875; stroke-linejoin: miter; stroke-linecap: square"/>
   </g>
   <g id="text_9">
    <!-- Sheddable Houses = 25 -->
    <g style="fill: #262626" transform="translate(772.476668 20.877187)scale(0.18 -0.18)">
     <use xlink:href="#DejaVuSans-53"/>
     <use xlink:href="#DejaVuSans-68" x="63.476562"/>
     <use xlink:href="#DejaVuSans-65" x="126.855469"/>
     <use xlink:href="#DejaVuSans-64" x="188.378906"/>
     <use xlink:href="#DejaVuSans-64" x="251.855469"/>
     <use xlink:href="#DejaVuSans-61" x="315.332031"/>
     <use xlink:href="#DejaVuSans-62" x="376.611328"/>
     <use xlink:href="#DejaVuSans-6c" x="440.087891"/>
     <use xlink:href="#DejaVuSans-65" x="467.871094"/>
     <use xlink:href="#DejaVuSans-20" x="529.394531"/>
     <use xlink:href="#DejaVuSans-48" x="561.181641"/>
     <use xlink:href="#DejaVuSans-6f" x="636.376953"/>
     <use xlink:href="#DejaVuSans-75" x="697.558594"/>
     <use xlink:href="#DejaVuSans-73" x="760.9375"/>
     <use xlink:href="#DejaVuSans-65" x="813.037109"/>
     <use xlink:href="#DejaVuSans-73" x="874.560547"/>
     <use xlink:href="#DejaVuSans-20" x="926.660156"/>
     <use xlink:href="#DejaVuSans-3d" x="958.447266"/>
     <use xlink:href="#DejaVuSans-20" x="1042.236328"/>
     <use xlink:href="#DejaVuSans-32" x="1074.023438"/>
     <use xlink:href="#DejaVuSans-35" x="1137.646484"/>
    </g>
   </g>
  </g>
  <g id="axes_4">
   <g id="patch_20">
    <path d="M 1053.854751 317.667187 
L 1361.494668 317.667187 
L 1361.494668 26.877187 
L 1053.854751 26.877187 
z
" style="fill: #eaeaf2"/>
   </g>
   <g id="matplotlib.axis_7">
    <g id="xtick_10"/>
    <g id="xtick_11"/>
    <g id="xtick_12"/>
   </g>
   <g id="matplotlib.axis_8">
    <g id="ytick_16">
     <g id="line2d_25">
      <path d="M 1053.854751 317.667187 
L 1361.494668 317.667187 
" clip-path="url(#p5c45274f1d)" style="fill: none; stroke: #ffffff; stroke-width: 1.5; stroke-linecap: round"/>
     </g>
    </g>
    <g id="ytick_17">
     <g id="line2d_26">
      <path d="M 1053.854751 247.271171 
L 1361.494668 247.271171 
" clip-path="url(#p5c45274f1d)" style="fill: none; stroke: #ffffff; stroke-width: 1.5; stroke-linecap: round"/>
     </g>
    </g>
    <g id="ytick_18">
     <g id="line2d_27">
      <path d="M 1053.854751 176.875154 
L 1361.494668 176.875154 
" clip-path="url(#p5c45274f1d)" style="fill: none; stroke: #ffffff; stroke-width: 1.5; stroke-linecap: round"/>
     </g>
    </g>
    <g id="ytick_19">
     <g id="line2d_28">
      <path d="M 1053.854751 106.479138 
L 1361.494668 106.479138 
" clip-path="url(#p5c45274f1d)" style="fill: none; stroke: #ffffff; stroke-width: 1.5; stroke-linecap: round"/>
     </g>
    </g>
    <g id="ytick_20">
     <g id="line2d_29">
      <path d="M 1053.854751 36.083121 
L 1361.494668 36.083121 
" clip-path="url(#p5c45274f1d)" style="fill: none; stroke: #ffffff; stroke-width: 1.5; stroke-linecap: round"/>
     </g>
    </g>
   </g>
   <g id="patch_21">
    <path d="M 1064.109415 317.667187 
L 1146.146726 317.667187 
L 1146.146726 223.364684 
L 1064.109415 223.364684 
z
" clip-path="url(#p5c45274f1d)" style="fill: #5875a4; stroke: #ffffff; stroke-width: 1.5; stroke-linejoin: miter"/>
   </g>
   <g id="patch_22">
    <path d="M 1166.656054 317.667187 
L 1248.693365 317.667187 
L 1248.693365 220.830427 
L 1166.656054 220.830427 
z
" clip-path="url(#p5c45274f1d)" style="fill: #5875a4; stroke: #ffffff; stroke-width: 1.5; stroke-linejoin: miter"/>
   </g>
   <g id="patch_23">
    <path d="M 1269.202693 317.667187 
L 1351.240004 317.667187 
L 1351.240004 191.43305 
L 1269.202693 191.43305 
z
" clip-path="url(#p5c45274f1d)" style="fill: #5875a4; stroke: #ffffff; stroke-width: 1.5; stroke-linejoin: miter"/>
   </g>
   <g id="line2d_30">
    <path d="M 1105.128071 228.153021 
L 1105.128071 218.605209 
" clip-path="url(#p5c45274f1d)" style="fill: none; stroke: #424242; stroke-width: 4.05; stroke-linecap: round"/>
   </g>
   <g id="line2d_31">
    <path d="M 1207.67471 224.435407 
L 1207.67471 216.831933 
" clip-path="url(#p5c45274f1d)" style="fill: none; stroke: #424242; stroke-width: 4.05; stroke-linecap: round"/>
   </g>
   <g id="line2d_32">
    <path d="M 1310.221349 197.941162 
L 1310.221349 184.504675 
" clip-path="url(#p5c45274f1d)" style="fill: none; stroke: #424242; stroke-width: 4.05; stroke-linecap: round"/>
   </g>
   <g id="patch_24">
    <path d="M 1053.854751 317.667187 
L 1053.854751 26.877187 
" style="fill: none; stroke: #ffffff; stroke-width: 1.875; stroke-linejoin: miter; stroke-linecap: square"/>
   </g>
   <g id="patch_25">
    <path d="M 1053.854751 317.667187 
L 1361.494668 317.667187 
" style="fill: none; stroke: #ffffff; stroke-width: 1.875; stroke-linejoin: miter; stroke-linecap: square"/>
   </g>
   <g id="text_10">
    <!-- Sheddable Houses = 35 -->
    <g style="fill: #262626" transform="translate(1099.556585 20.877187)scale(0.18 -0.18)">
     <defs>
      <path id="DejaVuSans-33" d="M 2597 2516 
Q 3050 2419 3304 2112 
Q 3559 1806 3559 1356 
Q 3559 666 3084 287 
Q 2609 -91 1734 -91 
Q 1441 -91 1130 -33 
Q 819 25 488 141 
L 488 750 
Q 750 597 1062 519 
Q 1375 441 1716 441 
Q 2309 441 2620 675 
Q 2931 909 2931 1356 
Q 2931 1769 2642 2001 
Q 2353 2234 1838 2234 
L 1294 2234 
L 1294 2753 
L 1863 2753 
Q 2328 2753 2575 2939 
Q 2822 3125 2822 3475 
Q 2822 3834 2567 4026 
Q 2313 4219 1838 4219 
Q 1578 4219 1281 4162 
Q 984 4106 628 3988 
L 628 4550 
Q 988 4650 1302 4700 
Q 1616 4750 1894 4750 
Q 2613 4750 3031 4423 
Q 3450 4097 3450 3541 
Q 3450 3153 3228 2886 
Q 3006 2619 2597 2516 
z
" transform="scale(0.015625)"/>
     </defs>
     <use xlink:href="#DejaVuSans-53"/>
     <use xlink:href="#DejaVuSans-68" x="63.476562"/>
     <use xlink:href="#DejaVuSans-65" x="126.855469"/>
     <use xlink:href="#DejaVuSans-64" x="188.378906"/>
     <use xlink:href="#DejaVuSans-64" x="251.855469"/>
     <use xlink:href="#DejaVuSans-61" x="315.332031"/>
     <use xlink:href="#DejaVuSans-62" x="376.611328"/>
     <use xlink:href="#DejaVuSans-6c" x="440.087891"/>
     <use xlink:href="#DejaVuSans-65" x="467.871094"/>
     <use xlink:href="#DejaVuSans-20" x="529.394531"/>
     <use xlink:href="#DejaVuSans-48" x="561.181641"/>
     <use xlink:href="#DejaVuSans-6f" x="636.376953"/>
     <use xlink:href="#DejaVuSans-75" x="697.558594"/>
     <use xlink:href="#DejaVuSans-73" x="760.9375"/>
     <use xlink:href="#DejaVuSans-65" x="813.037109"/>
     <use xlink:href="#DejaVuSans-73" x="874.560547"/>
     <use xlink:href="#DejaVuSans-20" x="926.660156"/>
     <use xlink:href="#DejaVuSans-3d" x="958.447266"/>
     <use xlink:href="#DejaVuSans-20" x="1042.236328"/>
     <use xlink:href="#DejaVuSans-33" x="1074.023438"/>
     <use xlink:href="#DejaVuSans-35" x="1137.646484"/>
    </g>
   </g>
  </g>
  <g id="axes_5">
   <g id="patch_26">
    <path d="M 1380.934668 317.667187 
L 1688.574585 317.667187 
L 1688.574585 26.877187 
L 1380.934668 26.877187 
z
" style="fill: #eaeaf2"/>
   </g>
   <g id="matplotlib.axis_9">
    <g id="xtick_13"/>
    <g id="xtick_14"/>
    <g id="xtick_15"/>
   </g>
   <g id="matplotlib.axis_10">
    <g id="ytick_21">
     <g id="line2d_33">
      <path d="M 1380.934668 317.667187 
L 1688.574585 317.667187 
" clip-path="url(#p85712b5b02)" style="fill: none; stroke: #ffffff; stroke-width: 1.5; stroke-linecap: round"/>
     </g>
    </g>
    <g id="ytick_22">
     <g id="line2d_34">
      <path d="M 1380.934668 247.271171 
L 1688.574585 247.271171 
" clip-path="url(#p85712b5b02)" style="fill: none; stroke: #ffffff; stroke-width: 1.5; stroke-linecap: round"/>
     </g>
    </g>
    <g id="ytick_23">
     <g id="line2d_35">
      <path d="M 1380.934668 176.875154 
L 1688.574585 176.875154 
" clip-path="url(#p85712b5b02)" style="fill: none; stroke: #ffffff; stroke-width: 1.5; stroke-linecap: round"/>
     </g>
    </g>
    <g id="ytick_24">
     <g id="line2d_36">
      <path d="M 1380.934668 106.479138 
L 1688.574585 106.479138 
" clip-path="url(#p85712b5b02)" style="fill: none; stroke: #ffffff; stroke-width: 1.5; stroke-linecap: round"/>
     </g>
    </g>
    <g id="ytick_25">
     <g id="line2d_37">
      <path d="M 1380.934668 36.083121 
L 1688.574585 36.083121 
" clip-path="url(#p85712b5b02)" style="fill: none; stroke: #ffffff; stroke-width: 1.5; stroke-linecap: round"/>
     </g>
    </g>
   </g>
   <g id="patch_27">
    <path d="M 1391.189332 317.667187 
L 1473.226643 317.667187 
L 1473.226643 224.997871 
L 1391.189332 224.997871 
z
" clip-path="url(#p85712b5b02)" style="fill: #5875a4; stroke: #ffffff; stroke-width: 1.5; stroke-linejoin: miter"/>
   </g>
   <g id="patch_28">
    <path d="M 1493.735971 317.667187 
L 1575.773282 317.667187 
L 1575.773282 222.801515 
L 1493.735971 222.801515 
z
" clip-path="url(#p85712b5b02)" style="fill: #5875a4; stroke: #ffffff; stroke-width: 1.5; stroke-linejoin: miter"/>
   </g>
   <g id="patch_29">
    <path d="M 1596.28261 317.667187 
L 1678.319921 317.667187 
L 1678.319921 191.714635 
L 1596.28261 191.714635 
z
" clip-path="url(#p85712b5b02)" style="fill: #5875a4; stroke: #ffffff; stroke-width: 1.5; stroke-linejoin: miter"/>
   </g>
   <g id="line2d_38">
    <path d="M 1432.207988 229.081544 
L 1432.207988 220.600232 
" clip-path="url(#p85712b5b02)" style="fill: none; stroke: #424242; stroke-width: 4.05; stroke-linecap: round"/>
   </g>
   <g id="line2d_39">
    <path d="M 1534.754627 227.28011 
L 1534.754627 218.605209 
" clip-path="url(#p85712b5b02)" style="fill: none; stroke: #424242; stroke-width: 4.05; stroke-linecap: round"/>
   </g>
   <g id="line2d_40">
    <path d="M 1637.301266 199.4589 
L 1637.301266 183.491676 
" clip-path="url(#p85712b5b02)" style="fill: none; stroke: #424242; stroke-width: 4.05; stroke-linecap: round"/>
   </g>
   <g id="patch_30">
    <path d="M 1380.934668 317.667187 
L 1380.934668 26.877187 
" style="fill: none; stroke: #ffffff; stroke-width: 1.875; stroke-linejoin: miter; stroke-linecap: square"/>
   </g>
   <g id="patch_31">
    <path d="M 1380.934668 317.667187 
L 1688.574585 317.667187 
" style="fill: none; stroke: #ffffff; stroke-width: 1.875; stroke-linejoin: miter; stroke-linecap: square"/>
   </g>
   <g id="text_11">
    <!-- Sheddable Houses = 45 -->
    <g style="fill: #262626" transform="translate(1426.636502 20.877187)scale(0.18 -0.18)">
     <defs>
      <path id="DejaVuSans-34" d="M 2419 4116 
L 825 1625 
L 2419 1625 
L 2419 4116 
z
M 2253 4666 
L 3047 4666 
L 3047 1625 
L 3713 1625 
L 3713 1100 
L 3047 1100 
L 3047 0 
L 2419 0 
L 2419 1100 
L 313 1100 
L 313 1709 
L 2253 4666 
z
" transform="scale(0.015625)"/>
     </defs>
     <use xlink:href="#DejaVuSans-53"/>
     <use xlink:href="#DejaVuSans-68" x="63.476562"/>
     <use xlink:href="#DejaVuSans-65" x="126.855469"/>
     <use xlink:href="#DejaVuSans-64" x="188.378906"/>
     <use xlink:href="#DejaVuSans-64" x="251.855469"/>
     <use xlink:href="#DejaVuSans-61" x="315.332031"/>
     <use xlink:href="#DejaVuSans-62" x="376.611328"/>
     <use xlink:href="#DejaVuSans-6c" x="440.087891"/>
     <use xlink:href="#DejaVuSans-65" x="467.871094"/>
     <use xlink:href="#DejaVuSans-20" x="529.394531"/>
     <use xlink:href="#DejaVuSans-48" x="561.181641"/>
     <use xlink:href="#DejaVuSans-6f" x="636.376953"/>
     <use xlink:href="#DejaVuSans-75" x="697.558594"/>
     <use xlink:href="#DejaVuSans-73" x="760.9375"/>
     <use xlink:href="#DejaVuSans-65" x="813.037109"/>
     <use xlink:href="#DejaVuSans-73" x="874.560547"/>
     <use xlink:href="#DejaVuSans-20" x="926.660156"/>
     <use xlink:href="#DejaVuSans-3d" x="958.447266"/>
     <use xlink:href="#DejaVuSans-20" x="1042.236328"/>
     <use xlink:href="#DejaVuSans-34" x="1074.023438"/>
     <use xlink:href="#DejaVuSans-35" x="1137.646484"/>
    </g>
   </g>
  </g>
  <g id="axes_6">
   <g id="patch_32">
    <path d="M 1708.014585 317.667187 
L 2015.654502 317.667187 
L 2015.654502 26.877187 
L 1708.014585 26.877187 
z
" style="fill: #eaeaf2"/>
   </g>
   <g id="matplotlib.axis_11">
    <g id="xtick_16"/>
    <g id="xtick_17"/>
    <g id="xtick_18"/>
   </g>
   <g id="matplotlib.axis_12">
    <g id="ytick_26">
     <g id="line2d_41">
      <path d="M 1708.014585 317.667187 
L 2015.654502 317.667187 
" clip-path="url(#pe07f715947)" style="fill: none; stroke: #ffffff; stroke-width: 1.5; stroke-linecap: round"/>
     </g>
    </g>
    <g id="ytick_27">
     <g id="line2d_42">
      <path d="M 1708.014585 247.271171 
L 2015.654502 247.271171 
" clip-path="url(#pe07f715947)" style="fill: none; stroke: #ffffff; stroke-width: 1.5; stroke-linecap: round"/>
     </g>
    </g>
    <g id="ytick_28">
     <g id="line2d_43">
      <path d="M 1708.014585 176.875154 
L 2015.654502 176.875154 
" clip-path="url(#pe07f715947)" style="fill: none; stroke: #ffffff; stroke-width: 1.5; stroke-linecap: round"/>
     </g>
    </g>
    <g id="ytick_29">
     <g id="line2d_44">
      <path d="M 1708.014585 106.479138 
L 2015.654502 106.479138 
" clip-path="url(#pe07f715947)" style="fill: none; stroke: #ffffff; stroke-width: 1.5; stroke-linecap: round"/>
     </g>
    </g>
    <g id="ytick_30">
     <g id="line2d_45">
      <path d="M 1708.014585 36.083121 
L 2015.654502 36.083121 
" clip-path="url(#pe07f715947)" style="fill: none; stroke: #ffffff; stroke-width: 1.5; stroke-linecap: round"/>
     </g>
    </g>
   </g>
   <g id="patch_33">
    <path d="M 1718.269249 317.667187 
L 1800.30656 317.667187 
L 1800.30656 217.254309 
L 1718.269249 217.254309 
z
" clip-path="url(#pe07f715947)" style="fill: #5875a4; stroke: #ffffff; stroke-width: 1.5; stroke-linejoin: miter"/>
   </g>
   <g id="patch_34">
    <path d="M 1820.815888 317.667187 
L 1902.853199 317.667187 
L 1902.853199 222.379139 
L 1820.815888 222.379139 
z
" clip-path="url(#pe07f715947)" style="fill: #5875a4; stroke: #ffffff; stroke-width: 1.5; stroke-linejoin: miter"/>
   </g>
   <g id="patch_35">
    <path d="M 1923.362527 317.667187 
L 2005.399838 317.667187 
L 2005.399838 196.276296 
L 1923.362527 196.276296 
z
" clip-path="url(#pe07f715947)" style="fill: #5875a4; stroke: #ffffff; stroke-width: 1.5; stroke-linejoin: miter"/>
   </g>
   <g id="line2d_46">
    <path d="M 1759.287905 221.226053 
L 1759.287905 213.142478 
" clip-path="url(#pe07f715947)" style="fill: none; stroke: #424242; stroke-width: 4.05; stroke-linecap: round"/>
   </g>
   <g id="line2d_47">
    <path d="M 1861.834544 226.687376 
L 1861.834544 217.81607 
" clip-path="url(#pe07f715947)" style="fill: none; stroke: #424242; stroke-width: 4.05; stroke-linecap: round"/>
   </g>
   <g id="line2d_48">
    <path d="M 1964.381183 202.330354 
L 1964.381183 189.683006 
" clip-path="url(#pe07f715947)" style="fill: none; stroke: #424242; stroke-width: 4.05; stroke-linecap: round"/>
   </g>
   <g id="patch_36">
    <path d="M 1708.014585 317.667187 
L 1708.014585 26.877187 
" style="fill: none; stroke: #ffffff; stroke-width: 1.875; stroke-linejoin: miter; stroke-linecap: square"/>
   </g>
   <g id="patch_37">
    <path d="M 1708.014585 317.667187 
L 2015.654502 317.667187 
" style="fill: none; stroke: #ffffff; stroke-width: 1.875; stroke-linejoin: miter; stroke-linecap: square"/>
   </g>
   <g id="text_12">
    <!-- centralized -->
    <g style="fill: #262626" transform="translate(2025.550738 122.362969)rotate(-270)scale(0.18 -0.18)">
     <defs>
      <path id="DejaVuSans-69" d="M 603 3500 
L 1178 3500 
L 1178 0 
L 603 0 
L 603 3500 
z
M 603 4863 
L 1178 4863 
L 1178 4134 
L 603 4134 
L 603 4863 
z
" transform="scale(0.015625)"/>
      <path id="DejaVuSans-7a" d="M 353 3500 
L 3084 3500 
L 3084 2975 
L 922 459 
L 3084 459 
L 3084 0 
L 275 0 
L 275 525 
L 2438 3041 
L 353 3041 
L 353 3500 
z
" transform="scale(0.015625)"/>
     </defs>
     <use xlink:href="#DejaVuSans-63"/>
     <use xlink:href="#DejaVuSans-65" x="54.980469"/>
     <use xlink:href="#DejaVuSans-6e" x="116.503906"/>
     <use xlink:href="#DejaVuSans-74" x="179.882812"/>
     <use xlink:href="#DejaVuSans-72" x="219.091797"/>
     <use xlink:href="#DejaVuSans-61" x="260.205078"/>
     <use xlink:href="#DejaVuSans-6c" x="321.484375"/>
     <use xlink:href="#DejaVuSans-69" x="349.267578"/>
     <use xlink:href="#DejaVuSans-7a" x="377.050781"/>
     <use xlink:href="#DejaVuSans-65" x="429.541016"/>
     <use xlink:href="#DejaVuSans-64" x="491.064453"/>
    </g>
   </g>
   <g id="text_13">
    <!-- Sheddable Houses = 55 -->
    <g style="fill: #262626" transform="translate(1753.716419 20.877187)scale(0.18 -0.18)">
     <use xlink:href="#DejaVuSans-53"/>
     <use xlink:href="#DejaVuSans-68" x="63.476562"/>
     <use xlink:href="#DejaVuSans-65" x="126.855469"/>
     <use xlink:href="#DejaVuSans-64" x="188.378906"/>
     <use xlink:href="#DejaVuSans-64" x="251.855469"/>
     <use xlink:href="#DejaVuSans-61" x="315.332031"/>
     <use xlink:href="#DejaVuSans-62" x="376.611328"/>
     <use xlink:href="#DejaVuSans-6c" x="440.087891"/>
     <use xlink:href="#DejaVuSans-65" x="467.871094"/>
     <use xlink:href="#DejaVuSans-20" x="529.394531"/>
     <use xlink:href="#DejaVuSans-48" x="561.181641"/>
     <use xlink:href="#DejaVuSans-6f" x="636.376953"/>
     <use xlink:href="#DejaVuSans-75" x="697.558594"/>
     <use xlink:href="#DejaVuSans-73" x="760.9375"/>
     <use xlink:href="#DejaVuSans-65" x="813.037109"/>
     <use xlink:href="#DejaVuSans-73" x="874.560547"/>
     <use xlink:href="#DejaVuSans-20" x="926.660156"/>
     <use xlink:href="#DejaVuSans-3d" x="958.447266"/>
     <use xlink:href="#DejaVuSans-20" x="1042.236328"/>
     <use xlink:href="#DejaVuSans-35" x="1074.023438"/>
     <use xlink:href="#DejaVuSans-35" x="1137.646484"/>
    </g>
   </g>
  </g>
  <g id="axes_7">
   <g id="patch_38">
    <path d="M 72.615 637.977187 
L 380.254917 637.977187 
L 380.254917 347.187187 
L 72.615 347.187187 
z
" style="fill: #eaeaf2"/>
   </g>
   <g id="matplotlib.axis_13">
    <g id="xtick_19">
     <g id="text_14">
      <!-- wired -->
      <g style="fill: #262626" transform="translate(101.329726 663.014609)scale(0.165 -0.165)">
       <defs>
        <path id="DejaVuSans-77" d="M 269 3500 
L 844 3500 
L 1563 769 
L 2278 3500 
L 2956 3500 
L 3675 769 
L 4391 3500 
L 4966 3500 
L 4050 0 
L 3372 0 
L 2619 2869 
L 1863 0 
L 1184 0 
L 269 3500 
z
" transform="scale(0.015625)"/>
       </defs>
       <use xlink:href="#DejaVuSans-77"/>
       <use xlink:href="#DejaVuSans-69" x="81.787109"/>
       <use xlink:href="#DejaVuSans-72" x="109.570312"/>
       <use xlink:href="#DejaVuSans-65" x="148.433594"/>
       <use xlink:href="#DejaVuSans-64" x="209.957031"/>
      </g>
     </g>
    </g>
    <g id="xtick_20">
     <g id="text_15">
      <!-- wireless -->
      <g style="fill: #262626" transform="translate(193.150076 663.014609)scale(0.165 -0.165)">
       <use xlink:href="#DejaVuSans-77"/>
       <use xlink:href="#DejaVuSans-69" x="81.787109"/>
       <use xlink:href="#DejaVuSans-72" x="109.570312"/>
       <use xlink:href="#DejaVuSans-65" x="148.433594"/>
       <use xlink:href="#DejaVuSans-6c" x="209.957031"/>
       <use xlink:href="#DejaVuSans-65" x="237.740234"/>
       <use xlink:href="#DejaVuSans-73" x="299.263672"/>
       <use xlink:href="#DejaVuSans-73" x="351.363281"/>
      </g>
     </g>
    </g>
    <g id="xtick_21">
     <g id="text_16">
      <!-- plc -->
      <g style="fill: #262626" transform="translate(316.915973 663.014609)scale(0.165 -0.165)">
       <defs>
        <path id="DejaVuSans-70" d="M 1159 525 
L 1159 -1331 
L 581 -1331 
L 581 3500 
L 1159 3500 
L 1159 2969 
Q 1341 3281 1617 3432 
Q 1894 3584 2278 3584 
Q 2916 3584 3314 3078 
Q 3713 2572 3713 1747 
Q 3713 922 3314 415 
Q 2916 -91 2278 -91 
Q 1894 -91 1617 61 
Q 1341 213 1159 525 
z
M 3116 1747 
Q 3116 2381 2855 2742 
Q 2594 3103 2138 3103 
Q 1681 3103 1420 2742 
Q 1159 2381 1159 1747 
Q 1159 1113 1420 752 
Q 1681 391 2138 391 
Q 2594 391 2855 752 
Q 3116 1113 3116 1747 
z
" transform="scale(0.015625)"/>
       </defs>
       <use xlink:href="#DejaVuSans-70"/>
       <use xlink:href="#DejaVuSans-6c" x="63.476562"/>
       <use xlink:href="#DejaVuSans-63" x="91.259766"/>
      </g>
     </g>
    </g>
    <g id="text_17">
     <!-- Comm. -->
     <g style="fill: #262626" transform="translate(194.250115 684.123281)scale(0.18 -0.18)">
      <defs>
       <path id="DejaVuSans-43" d="M 4122 4306 
L 4122 3641 
Q 3803 3938 3442 4084 
Q 3081 4231 2675 4231 
Q 1875 4231 1450 3742 
Q 1025 3253 1025 2328 
Q 1025 1406 1450 917 
Q 1875 428 2675 428 
Q 3081 428 3442 575 
Q 3803 722 4122 1019 
L 4122 359 
Q 3791 134 3420 21 
Q 3050 -91 2638 -91 
Q 1578 -91 968 557 
Q 359 1206 359 2328 
Q 359 3453 968 4101 
Q 1578 4750 2638 4750 
Q 3056 4750 3426 4639 
Q 3797 4528 4122 4306 
z
" transform="scale(0.015625)"/>
      </defs>
      <use xlink:href="#DejaVuSans-43"/>
      <use xlink:href="#DejaVuSans-6f" x="69.824219"/>
      <use xlink:href="#DejaVuSans-6d" x="131.005859"/>
      <use xlink:href="#DejaVuSans-6d" x="228.417969"/>
      <use xlink:href="#DejaVuSans-2e" x="325.830078"/>
     </g>
    </g>
   </g>
   <g id="matplotlib.axis_14">
    <g id="ytick_31">
     <g id="line2d_49">
      <path d="M 72.615 637.977187 
L 380.254917 637.977187 
" clip-path="url(#pff8b918d76)" style="fill: none; stroke: #ffffff; stroke-width: 1.5; stroke-linecap: round"/>
     </g>
     <g id="text_18">
      <!-- 0 -->
      <g style="fill: #262626" transform="translate(49.616875 644.245898)scale(0.165 -0.165)">
       <use xlink:href="#DejaVuSans-30"/>
      </g>
     </g>
    </g>
    <g id="ytick_32">
     <g id="line2d_50">
      <path d="M 72.615 567.581171 
L 380.254917 567.581171 
" clip-path="url(#pff8b918d76)" style="fill: none; stroke: #ffffff; stroke-width: 1.5; stroke-linecap: round"/>
     </g>
     <g id="text_19">
      <!-- 50 -->
      <g style="fill: #262626" transform="translate(39.11875 573.849882)scale(0.165 -0.165)">
       <use xlink:href="#DejaVuSans-35"/>
       <use xlink:href="#DejaVuSans-30" x="63.623047"/>
      </g>
     </g>
    </g>
    <g id="ytick_33">
     <g id="line2d_51">
      <path d="M 72.615 497.185154 
L 380.254917 497.185154 
" clip-path="url(#pff8b918d76)" style="fill: none; stroke: #ffffff; stroke-width: 1.5; stroke-linecap: round"/>
     </g>
     <g id="text_20">
      <!-- 100 -->
      <g style="fill: #262626" transform="translate(28.620625 503.453865)scale(0.165 -0.165)">
       <use xlink:href="#DejaVuSans-31"/>
       <use xlink:href="#DejaVuSans-30" x="63.623047"/>
       <use xlink:href="#DejaVuSans-30" x="127.246094"/>
      </g>
     </g>
    </g>
    <g id="ytick_34">
     <g id="line2d_52">
      <path d="M 72.615 426.789138 
L 380.254917 426.789138 
" clip-path="url(#pff8b918d76)" style="fill: none; stroke: #ffffff; stroke-width: 1.5; stroke-linecap: round"/>
     </g>
     <g id="text_21">
      <!-- 150 -->
      <g style="fill: #262626" transform="translate(28.620625 433.057849)scale(0.165 -0.165)">
       <use xlink:href="#DejaVuSans-31"/>
       <use xlink:href="#DejaVuSans-35" x="63.623047"/>
       <use xlink:href="#DejaVuSans-30" x="127.246094"/>
      </g>
     </g>
    </g>
    <g id="ytick_35">
     <g id="line2d_53">
      <path d="M 72.615 356.393121 
L 380.254917 356.393121 
" clip-path="url(#pff8b918d76)" style="fill: none; stroke: #ffffff; stroke-width: 1.5; stroke-linecap: round"/>
     </g>
     <g id="text_22">
      <!-- 200 -->
      <g style="fill: #262626" transform="translate(28.620625 362.661832)scale(0.165 -0.165)">
       <use xlink:href="#DejaVuSans-32"/>
       <use xlink:href="#DejaVuSans-30" x="63.623047"/>
       <use xlink:href="#DejaVuSans-30" x="127.246094"/>
      </g>
     </g>
    </g>
    <g id="text_23">
     <!-- Total overcurrent (nb meas.) -->
     <g style="fill: #262626" transform="translate(20.877188 620.320312)rotate(-90)scale(0.18 -0.18)">
      <use xlink:href="#DejaVuSans-54"/>
      <use xlink:href="#DejaVuSans-6f" x="44.083984"/>
      <use xlink:href="#DejaVuSans-74" x="105.265625"/>
      <use xlink:href="#DejaVuSans-61" x="144.474609"/>
      <use xlink:href="#DejaVuSans-6c" x="205.753906"/>
      <use xlink:href="#DejaVuSans-20" x="233.537109"/>
      <use xlink:href="#DejaVuSans-6f" x="265.324219"/>
      <use xlink:href="#DejaVuSans-76" x="326.505859"/>
      <use xlink:href="#DejaVuSans-65" x="385.685547"/>
      <use xlink:href="#DejaVuSans-72" x="447.208984"/>
      <use xlink:href="#DejaVuSans-63" x="486.072266"/>
      <use xlink:href="#DejaVuSans-75" x="541.052734"/>
      <use xlink:href="#DejaVuSans-72" x="604.431641"/>
      <use xlink:href="#DejaVuSans-72" x="643.794922"/>
      <use xlink:href="#DejaVuSans-65" x="682.658203"/>
      <use xlink:href="#DejaVuSans-6e" x="744.181641"/>
      <use xlink:href="#DejaVuSans-74" x="807.560547"/>
      <use xlink:href="#DejaVuSans-20" x="846.769531"/>
      <use xlink:href="#DejaVuSans-28" x="878.556641"/>
      <use xlink:href="#DejaVuSans-6e" x="917.570312"/>
      <use xlink:href="#DejaVuSans-62" x="980.949219"/>
      <use xlink:href="#DejaVuSans-20" x="1044.425781"/>
      <use xlink:href="#DejaVuSans-6d" x="1076.212891"/>
      <use xlink:href="#DejaVuSans-65" x="1173.625"/>
      <use xlink:href="#DejaVuSans-61" x="1235.148438"/>
      <use xlink:href="#DejaVuSans-73" x="1296.427734"/>
      <use xlink:href="#DejaVuSans-2e" x="1348.527344"/>
      <use xlink:href="#DejaVuSans-29" x="1380.314453"/>
     </g>
    </g>
   </g>
   <g id="patch_39">
    <path d="M 82.869664 637.977187 
L 164.906975 637.977187 
L 164.906975 495.523808 
L 82.869664 495.523808 
z
" clip-path="url(#pff8b918d76)" style="fill: #5875a4; stroke: #ffffff; stroke-width: 1.5; stroke-linejoin: miter"/>
   </g>
   <g id="patch_40">
    <path d="M 185.416303 637.977187 
L 267.453614 637.977187 
L 267.453614 508.307725 
L 185.416303 508.307725 
z
" clip-path="url(#pff8b918d76)" style="fill: #5875a4; stroke: #ffffff; stroke-width: 1.5; stroke-linejoin: miter"/>
   </g>
   <g id="patch_41">
    <path d="M 287.962942 637.977187 
L 370.000253 637.977187 
L 370.000253 506.98428 
L 287.962942 506.98428 
z
" clip-path="url(#pff8b918d76)" style="fill: #5875a4; stroke: #ffffff; stroke-width: 1.5; stroke-linejoin: miter"/>
   </g>
   <g id="line2d_54">
    <path d="M 123.88832 533.341956 
L 123.88832 450.828673 
" clip-path="url(#pff8b918d76)" style="fill: none; stroke: #424242; stroke-width: 4.05; stroke-linecap: round"/>
   </g>
   <g id="line2d_55">
    <path d="M 226.434959 537.652304 
L 226.434959 471.247038 
" clip-path="url(#pff8b918d76)" style="fill: none; stroke: #424242; stroke-width: 4.05; stroke-linecap: round"/>
   </g>
   <g id="line2d_56">
    <path d="M 328.981598 521.486563 
L 328.981598 491.466886 
" clip-path="url(#pff8b918d76)" style="fill: none; stroke: #424242; stroke-width: 4.05; stroke-linecap: round"/>
   </g>
   <g id="patch_42">
    <path d="M 72.615 637.977187 
L 72.615 347.187187 
" style="fill: none; stroke: #ffffff; stroke-width: 1.875; stroke-linejoin: miter; stroke-linecap: square"/>
   </g>
   <g id="patch_43">
    <path d="M 72.615 637.977187 
L 380.254917 637.977187 
" style="fill: none; stroke: #ffffff; stroke-width: 1.875; stroke-linejoin: miter; stroke-linecap: square"/>
   </g>
  </g>
  <g id="axes_8">
   <g id="patch_44">
    <path d="M 399.694917 637.977187 
L 707.334834 637.977187 
L 707.334834 347.187187 
L 399.694917 347.187187 
z
" style="fill: #eaeaf2"/>
   </g>
   <g id="matplotlib.axis_15">
    <g id="xtick_22">
     <g id="text_24">
      <!-- wired -->
      <g style="fill: #262626" transform="translate(428.409643 663.014609)scale(0.165 -0.165)">
       <use xlink:href="#DejaVuSans-77"/>
       <use xlink:href="#DejaVuSans-69" x="81.787109"/>
       <use xlink:href="#DejaVuSans-72" x="109.570312"/>
       <use xlink:href="#DejaVuSans-65" x="148.433594"/>
       <use xlink:href="#DejaVuSans-64" x="209.957031"/>
      </g>
     </g>
    </g>
    <g id="xtick_23">
     <g id="text_25">
      <!-- wireless -->
      <g style="fill: #262626" transform="translate(520.229993 663.014609)scale(0.165 -0.165)">
       <use xlink:href="#DejaVuSans-77"/>
       <use xlink:href="#DejaVuSans-69" x="81.787109"/>
       <use xlink:href="#DejaVuSans-72" x="109.570312"/>
       <use xlink:href="#DejaVuSans-65" x="148.433594"/>
       <use xlink:href="#DejaVuSans-6c" x="209.957031"/>
       <use xlink:href="#DejaVuSans-65" x="237.740234"/>
       <use xlink:href="#DejaVuSans-73" x="299.263672"/>
       <use xlink:href="#DejaVuSans-73" x="351.363281"/>
      </g>
     </g>
    </g>
    <g id="xtick_24">
     <g id="text_26">
      <!-- plc -->
      <g style="fill: #262626" transform="translate(643.99589 663.014609)scale(0.165 -0.165)">
       <use xlink:href="#DejaVuSans-70"/>
       <use xlink:href="#DejaVuSans-6c" x="63.476562"/>
       <use xlink:href="#DejaVuSans-63" x="91.259766"/>
      </g>
     </g>
    </g>
    <g id="text_27">
     <!-- Comm. -->
     <g style="fill: #262626" transform="translate(521.330032 684.123281)scale(0.18 -0.18)">
      <use xlink:href="#DejaVuSans-43"/>
      <use xlink:href="#DejaVuSans-6f" x="69.824219"/>
      <use xlink:href="#DejaVuSans-6d" x="131.005859"/>
      <use xlink:href="#DejaVuSans-6d" x="228.417969"/>
      <use xlink:href="#DejaVuSans-2e" x="325.830078"/>
     </g>
    </g>
   </g>
   <g id="matplotlib.axis_16">
    <g id="ytick_36">
     <g id="line2d_57">
      <path d="M 399.694917 637.977187 
L 707.334834 637.977187 
" clip-path="url(#p39b9d901bc)" style="fill: none; stroke: #ffffff; stroke-width: 1.5; stroke-linecap: round"/>
     </g>
    </g>
    <g id="ytick_37">
     <g id="line2d_58">
      <path d="M 399.694917 567.581171 
L 707.334834 567.581171 
" clip-path="url(#p39b9d901bc)" style="fill: none; stroke: #ffffff; stroke-width: 1.5; stroke-linecap: round"/>
     </g>
    </g>
    <g id="ytick_38">
     <g id="line2d_59">
      <path d="M 399.694917 497.185154 
L 707.334834 497.185154 
" clip-path="url(#p39b9d901bc)" style="fill: none; stroke: #ffffff; stroke-width: 1.5; stroke-linecap: round"/>
     </g>
    </g>
    <g id="ytick_39">
     <g id="line2d_60">
      <path d="M 399.694917 426.789138 
L 707.334834 426.789138 
" clip-path="url(#p39b9d901bc)" style="fill: none; stroke: #ffffff; stroke-width: 1.5; stroke-linecap: round"/>
     </g>
    </g>
    <g id="ytick_40">
     <g id="line2d_61">
      <path d="M 399.694917 356.393121 
L 707.334834 356.393121 
" clip-path="url(#p39b9d901bc)" style="fill: none; stroke: #ffffff; stroke-width: 1.5; stroke-linecap: round"/>
     </g>
    </g>
   </g>
   <g id="patch_45">
    <path d="M 409.949581 637.977187 
L 491.986892 637.977187 
L 491.986892 529.511005 
L 409.949581 529.511005 
z
" clip-path="url(#p39b9d901bc)" style="fill: #5875a4; stroke: #ffffff; stroke-width: 1.5; stroke-linejoin: miter"/>
   </g>
   <g id="patch_46">
    <path d="M 512.49622 637.977187 
L 594.533531 637.977187 
L 594.533531 547.926603 
L 512.49622 547.926603 
z
" clip-path="url(#p39b9d901bc)" style="fill: #5875a4; stroke: #ffffff; stroke-width: 1.5; stroke-linejoin: miter"/>
   </g>
   <g id="patch_47">
    <path d="M 615.042859 637.977187 
L 697.08017 637.977187 
L 697.08017 525.70962 
L 615.042859 525.70962 
z
" clip-path="url(#p39b9d901bc)" style="fill: #5875a4; stroke: #ffffff; stroke-width: 1.5; stroke-linejoin: miter"/>
   </g>
   <g id="line2d_62">
    <path d="M 450.968237 549.00155 
L 450.968237 504.89915 
" clip-path="url(#p39b9d901bc)" style="fill: none; stroke: #424242; stroke-width: 4.05; stroke-linecap: round"/>
   </g>
   <g id="line2d_63">
    <path d="M 553.514876 551.727988 
L 553.514876 544.432849 
" clip-path="url(#p39b9d901bc)" style="fill: none; stroke: #424242; stroke-width: 4.05; stroke-linecap: round"/>
   </g>
   <g id="line2d_64">
    <path d="M 656.061515 530.385324 
L 656.061515 520.555224 
" clip-path="url(#p39b9d901bc)" style="fill: none; stroke: #424242; stroke-width: 4.05; stroke-linecap: round"/>
   </g>
   <g id="patch_48">
    <path d="M 399.694917 637.977187 
L 399.694917 347.187187 
" style="fill: none; stroke: #ffffff; stroke-width: 1.875; stroke-linejoin: miter; stroke-linecap: square"/>
   </g>
   <g id="patch_49">
    <path d="M 399.694917 637.977187 
L 707.334834 637.977187 
" style="fill: none; stroke: #ffffff; stroke-width: 1.875; stroke-linejoin: miter; stroke-linecap: square"/>
   </g>
  </g>
  <g id="axes_9">
   <g id="patch_50">
    <path d="M 726.774834 637.977187 
L 1034.414751 637.977187 
L 1034.414751 347.187187 
L 726.774834 347.187187 
z
" style="fill: #eaeaf2"/>
   </g>
   <g id="matplotlib.axis_17">
    <g id="xtick_25">
     <g id="text_28">
      <!-- wired -->
      <g style="fill: #262626" transform="translate(755.48956 663.014609)scale(0.165 -0.165)">
       <use xlink:href="#DejaVuSans-77"/>
       <use xlink:href="#DejaVuSans-69" x="81.787109"/>
       <use xlink:href="#DejaVuSans-72" x="109.570312"/>
       <use xlink:href="#DejaVuSans-65" x="148.433594"/>
       <use xlink:href="#DejaVuSans-64" x="209.957031"/>
      </g>
     </g>
    </g>
    <g id="xtick_26">
     <g id="text_29">
      <!-- wireless -->
      <g style="fill: #262626" transform="translate(847.30991 663.014609)scale(0.165 -0.165)">
       <use xlink:href="#DejaVuSans-77"/>
       <use xlink:href="#DejaVuSans-69" x="81.787109"/>
       <use xlink:href="#DejaVuSans-72" x="109.570312"/>
       <use xlink:href="#DejaVuSans-65" x="148.433594"/>
       <use xlink:href="#DejaVuSans-6c" x="209.957031"/>
       <use xlink:href="#DejaVuSans-65" x="237.740234"/>
       <use xlink:href="#DejaVuSans-73" x="299.263672"/>
       <use xlink:href="#DejaVuSans-73" x="351.363281"/>
      </g>
     </g>
    </g>
    <g id="xtick_27">
     <g id="text_30">
      <!-- plc -->
      <g style="fill: #262626" transform="translate(971.075807 663.014609)scale(0.165 -0.165)">
       <use xlink:href="#DejaVuSans-70"/>
       <use xlink:href="#DejaVuSans-6c" x="63.476562"/>
       <use xlink:href="#DejaVuSans-63" x="91.259766"/>
      </g>
     </g>
    </g>
    <g id="text_31">
     <!-- Comm. -->
     <g style="fill: #262626" transform="translate(848.409949 684.123281)scale(0.18 -0.18)">
      <use xlink:href="#DejaVuSans-43"/>
      <use xlink:href="#DejaVuSans-6f" x="69.824219"/>
      <use xlink:href="#DejaVuSans-6d" x="131.005859"/>
      <use xlink:href="#DejaVuSans-6d" x="228.417969"/>
      <use xlink:href="#DejaVuSans-2e" x="325.830078"/>
     </g>
    </g>
   </g>
   <g id="matplotlib.axis_18">
    <g id="ytick_41">
     <g id="line2d_65">
      <path d="M 726.774834 637.977187 
L 1034.414751 637.977187 
" clip-path="url(#p20406ae80c)" style="fill: none; stroke: #ffffff; stroke-width: 1.5; stroke-linecap: round"/>
     </g>
    </g>
    <g id="ytick_42">
     <g id="line2d_66">
      <path d="M 726.774834 567.581171 
L 1034.414751 567.581171 
" clip-path="url(#p20406ae80c)" style="fill: none; stroke: #ffffff; stroke-width: 1.5; stroke-linecap: round"/>
     </g>
    </g>
    <g id="ytick_43">
     <g id="line2d_67">
      <path d="M 726.774834 497.185154 
L 1034.414751 497.185154 
" clip-path="url(#p20406ae80c)" style="fill: none; stroke: #ffffff; stroke-width: 1.5; stroke-linecap: round"/>
     </g>
    </g>
    <g id="ytick_44">
     <g id="line2d_68">
      <path d="M 726.774834 426.789138 
L 1034.414751 426.789138 
" clip-path="url(#p20406ae80c)" style="fill: none; stroke: #ffffff; stroke-width: 1.5; stroke-linecap: round"/>
     </g>
    </g>
    <g id="ytick_45">
     <g id="line2d_69">
      <path d="M 726.774834 356.393121 
L 1034.414751 356.393121 
" clip-path="url(#p20406ae80c)" style="fill: none; stroke: #ffffff; stroke-width: 1.5; stroke-linecap: round"/>
     </g>
    </g>
   </g>
   <g id="patch_51">
    <path d="M 737.029498 637.977187 
L 819.066809 637.977187 
L 819.066809 544.181535 
L 737.029498 544.181535 
z
" clip-path="url(#p20406ae80c)" style="fill: #5875a4; stroke: #ffffff; stroke-width: 1.5; stroke-linejoin: miter"/>
   </g>
   <g id="patch_52">
    <path d="M 839.576137 637.977187 
L 921.613448 637.977187 
L 921.613448 546.490524 
L 839.576137 546.490524 
z
" clip-path="url(#p20406ae80c)" style="fill: #5875a4; stroke: #ffffff; stroke-width: 1.5; stroke-linejoin: miter"/>
   </g>
   <g id="patch_53">
    <path d="M 942.122776 637.977187 
L 1024.160087 637.977187 
L 1024.160087 527.65255 
L 942.122776 527.65255 
z
" clip-path="url(#p20406ae80c)" style="fill: #5875a4; stroke: #ffffff; stroke-width: 1.5; stroke-linejoin: miter"/>
   </g>
   <g id="line2d_70">
    <path d="M 778.048154 548.688992 
L 778.048154 538.605466 
" clip-path="url(#p20406ae80c)" style="fill: none; stroke: #424242; stroke-width: 4.05; stroke-linecap: round"/>
   </g>
   <g id="line2d_71">
    <path d="M 880.594793 550.321476 
L 880.594793 542.43501 
" clip-path="url(#p20406ae80c)" style="fill: none; stroke: #424242; stroke-width: 4.05; stroke-linecap: round"/>
   </g>
   <g id="line2d_72">
    <path d="M 983.141432 534.298638 
L 983.141432 520.921283 
" clip-path="url(#p20406ae80c)" style="fill: none; stroke: #424242; stroke-width: 4.05; stroke-linecap: round"/>
   </g>
   <g id="patch_54">
    <path d="M 726.774834 637.977187 
L 726.774834 347.187187 
" style="fill: none; stroke: #ffffff; stroke-width: 1.875; stroke-linejoin: miter; stroke-linecap: square"/>
   </g>
   <g id="patch_55">
    <path d="M 726.774834 637.977187 
L 1034.414751 637.977187 
" style="fill: none; stroke: #ffffff; stroke-width: 1.875; stroke-linejoin: miter; stroke-linecap: square"/>
   </g>
  </g>
  <g id="axes_10">
   <g id="patch_56">
    <path d="M 1053.854751 637.977187 
L 1361.494668 637.977187 
L 1361.494668 347.187187 
L 1053.854751 347.187187 
z
" style="fill: #eaeaf2"/>
   </g>
   <g id="matplotlib.axis_19">
    <g id="xtick_28">
     <g id="text_32">
      <!-- wired -->
      <g style="fill: #262626" transform="translate(1082.569477 663.014609)scale(0.165 -0.165)">
       <use xlink:href="#DejaVuSans-77"/>
       <use xlink:href="#DejaVuSans-69" x="81.787109"/>
       <use xlink:href="#DejaVuSans-72" x="109.570312"/>
       <use xlink:href="#DejaVuSans-65" x="148.433594"/>
       <use xlink:href="#DejaVuSans-64" x="209.957031"/>
      </g>
     </g>
    </g>
    <g id="xtick_29">
     <g id="text_33">
      <!-- wireless -->
      <g style="fill: #262626" transform="translate(1174.389827 663.014609)scale(0.165 -0.165)">
       <use xlink:href="#DejaVuSans-77"/>
       <use xlink:href="#DejaVuSans-69" x="81.787109"/>
       <use xlink:href="#DejaVuSans-72" x="109.570312"/>
       <use xlink:href="#DejaVuSans-65" x="148.433594"/>
       <use xlink:href="#DejaVuSans-6c" x="209.957031"/>
       <use xlink:href="#DejaVuSans-65" x="237.740234"/>
       <use xlink:href="#DejaVuSans-73" x="299.263672"/>
       <use xlink:href="#DejaVuSans-73" x="351.363281"/>
      </g>
     </g>
    </g>
    <g id="xtick_30">
     <g id="text_34">
      <!-- plc -->
      <g style="fill: #262626" transform="translate(1298.155724 663.014609)scale(0.165 -0.165)">
       <use xlink:href="#DejaVuSans-70"/>
       <use xlink:href="#DejaVuSans-6c" x="63.476562"/>
       <use xlink:href="#DejaVuSans-63" x="91.259766"/>
      </g>
     </g>
    </g>
    <g id="text_35">
     <!-- Comm. -->
     <g style="fill: #262626" transform="translate(1175.489866 684.123281)scale(0.18 -0.18)">
      <use xlink:href="#DejaVuSans-43"/>
      <use xlink:href="#DejaVuSans-6f" x="69.824219"/>
      <use xlink:href="#DejaVuSans-6d" x="131.005859"/>
      <use xlink:href="#DejaVuSans-6d" x="228.417969"/>
      <use xlink:href="#DejaVuSans-2e" x="325.830078"/>
     </g>
    </g>
   </g>
   <g id="matplotlib.axis_20">
    <g id="ytick_46">
     <g id="line2d_73">
      <path d="M 1053.854751 637.977187 
L 1361.494668 637.977187 
" clip-path="url(#p9472c2cfde)" style="fill: none; stroke: #ffffff; stroke-width: 1.5; stroke-linecap: round"/>
     </g>
    </g>
    <g id="ytick_47">
     <g id="line2d_74">
      <path d="M 1053.854751 567.581171 
L 1361.494668 567.581171 
" clip-path="url(#p9472c2cfde)" style="fill: none; stroke: #ffffff; stroke-width: 1.5; stroke-linecap: round"/>
     </g>
    </g>
    <g id="ytick_48">
     <g id="line2d_75">
      <path d="M 1053.854751 497.185154 
L 1361.494668 497.185154 
" clip-path="url(#p9472c2cfde)" style="fill: none; stroke: #ffffff; stroke-width: 1.5; stroke-linecap: round"/>
     </g>
    </g>
    <g id="ytick_49">
     <g id="line2d_76">
      <path d="M 1053.854751 426.789138 
L 1361.494668 426.789138 
" clip-path="url(#p9472c2cfde)" style="fill: none; stroke: #ffffff; stroke-width: 1.5; stroke-linecap: round"/>
     </g>
    </g>
    <g id="ytick_50">
     <g id="line2d_77">
      <path d="M 1053.854751 356.393121 
L 1361.494668 356.393121 
" clip-path="url(#p9472c2cfde)" style="fill: none; stroke: #ffffff; stroke-width: 1.5; stroke-linecap: round"/>
     </g>
    </g>
   </g>
   <g id="patch_57">
    <path d="M 1064.109415 637.977187 
L 1146.146726 637.977187 
L 1146.146726 548.15187 
L 1064.109415 548.15187 
z
" clip-path="url(#p9472c2cfde)" style="fill: #5875a4; stroke: #ffffff; stroke-width: 1.5; stroke-linejoin: miter"/>
   </g>
   <g id="patch_58">
    <path d="M 1166.656054 637.977187 
L 1248.693365 637.977187 
L 1248.693365 548.912147 
L 1166.656054 548.912147 
z
" clip-path="url(#p9472c2cfde)" style="fill: #5875a4; stroke: #ffffff; stroke-width: 1.5; stroke-linejoin: miter"/>
   </g>
   <g id="patch_59">
    <path d="M 1269.202693 637.977187 
L 1351.240004 637.977187 
L 1351.240004 531.397618 
L 1269.202693 531.397618 
z
" clip-path="url(#p9472c2cfde)" style="fill: #5875a4; stroke: #ffffff; stroke-width: 1.5; stroke-linejoin: miter"/>
   </g>
   <g id="line2d_78">
    <path d="M 1105.128071 552.065889 
L 1105.128071 544.237148 
" clip-path="url(#p9472c2cfde)" style="fill: none; stroke: #424242; stroke-width: 4.05; stroke-linecap: round"/>
   </g>
   <g id="line2d_79">
    <path d="M 1207.67471 552.630465 
L 1207.67471 545.476118 
" clip-path="url(#p9472c2cfde)" style="fill: none; stroke: #424242; stroke-width: 4.05; stroke-linecap: round"/>
   </g>
   <g id="line2d_80">
    <path d="M 1310.221349 537.142637 
L 1310.221349 525.285836 
" clip-path="url(#p9472c2cfde)" style="fill: none; stroke: #424242; stroke-width: 4.05; stroke-linecap: round"/>
   </g>
   <g id="patch_60">
    <path d="M 1053.854751 637.977187 
L 1053.854751 347.187187 
" style="fill: none; stroke: #ffffff; stroke-width: 1.875; stroke-linejoin: miter; stroke-linecap: square"/>
   </g>
   <g id="patch_61">
    <path d="M 1053.854751 637.977187 
L 1361.494668 637.977187 
" style="fill: none; stroke: #ffffff; stroke-width: 1.875; stroke-linejoin: miter; stroke-linecap: square"/>
   </g>
  </g>
  <g id="axes_11">
   <g id="patch_62">
    <path d="M 1380.934668 637.977187 
L 1688.574585 637.977187 
L 1688.574585 347.187187 
L 1380.934668 347.187187 
z
" style="fill: #eaeaf2"/>
   </g>
   <g id="matplotlib.axis_21">
    <g id="xtick_31">
     <g id="text_36">
      <!-- wired -->
      <g style="fill: #262626" transform="translate(1409.649394 663.014609)scale(0.165 -0.165)">
       <use xlink:href="#DejaVuSans-77"/>
       <use xlink:href="#DejaVuSans-69" x="81.787109"/>
       <use xlink:href="#DejaVuSans-72" x="109.570312"/>
       <use xlink:href="#DejaVuSans-65" x="148.433594"/>
       <use xlink:href="#DejaVuSans-64" x="209.957031"/>
      </g>
     </g>
    </g>
    <g id="xtick_32">
     <g id="text_37">
      <!-- wireless -->
      <g style="fill: #262626" transform="translate(1501.469744 663.014609)scale(0.165 -0.165)">
       <use xlink:href="#DejaVuSans-77"/>
       <use xlink:href="#DejaVuSans-69" x="81.787109"/>
       <use xlink:href="#DejaVuSans-72" x="109.570312"/>
       <use xlink:href="#DejaVuSans-65" x="148.433594"/>
       <use xlink:href="#DejaVuSans-6c" x="209.957031"/>
       <use xlink:href="#DejaVuSans-65" x="237.740234"/>
       <use xlink:href="#DejaVuSans-73" x="299.263672"/>
       <use xlink:href="#DejaVuSans-73" x="351.363281"/>
      </g>
     </g>
    </g>
    <g id="xtick_33">
     <g id="text_38">
      <!-- plc -->
      <g style="fill: #262626" transform="translate(1625.235641 663.014609)scale(0.165 -0.165)">
       <use xlink:href="#DejaVuSans-70"/>
       <use xlink:href="#DejaVuSans-6c" x="63.476562"/>
       <use xlink:href="#DejaVuSans-63" x="91.259766"/>
      </g>
     </g>
    </g>
    <g id="text_39">
     <!-- Comm. -->
     <g style="fill: #262626" transform="translate(1502.569783 684.123281)scale(0.18 -0.18)">
      <use xlink:href="#DejaVuSans-43"/>
      <use xlink:href="#DejaVuSans-6f" x="69.824219"/>
      <use xlink:href="#DejaVuSans-6d" x="131.005859"/>
      <use xlink:href="#DejaVuSans-6d" x="228.417969"/>
      <use xlink:href="#DejaVuSans-2e" x="325.830078"/>
     </g>
    </g>
   </g>
   <g id="matplotlib.axis_22">
    <g id="ytick_51">
     <g id="line2d_81">
      <path d="M 1380.934668 637.977187 
L 1688.574585 637.977187 
" clip-path="url(#paf5160e2fb)" style="fill: none; stroke: #ffffff; stroke-width: 1.5; stroke-linecap: round"/>
     </g>
    </g>
    <g id="ytick_52">
     <g id="line2d_82">
      <path d="M 1380.934668 567.581171 
L 1688.574585 567.581171 
" clip-path="url(#paf5160e2fb)" style="fill: none; stroke: #ffffff; stroke-width: 1.5; stroke-linecap: round"/>
     </g>
    </g>
    <g id="ytick_53">
     <g id="line2d_83">
      <path d="M 1380.934668 497.185154 
L 1688.574585 497.185154 
" clip-path="url(#paf5160e2fb)" style="fill: none; stroke: #ffffff; stroke-width: 1.5; stroke-linecap: round"/>
     </g>
    </g>
    <g id="ytick_54">
     <g id="line2d_84">
      <path d="M 1380.934668 426.789138 
L 1688.574585 426.789138 
" clip-path="url(#paf5160e2fb)" style="fill: none; stroke: #ffffff; stroke-width: 1.5; stroke-linecap: round"/>
     </g>
    </g>
    <g id="ytick_55">
     <g id="line2d_85">
      <path d="M 1380.934668 356.393121 
L 1688.574585 356.393121 
" clip-path="url(#paf5160e2fb)" style="fill: none; stroke: #ffffff; stroke-width: 1.5; stroke-linecap: round"/>
     </g>
    </g>
   </g>
   <g id="patch_63">
    <path d="M 1391.189332 637.977187 
L 1473.226643 637.977187 
L 1473.226643 548.011078 
L 1391.189332 548.011078 
z
" clip-path="url(#paf5160e2fb)" style="fill: #5875a4; stroke: #ffffff; stroke-width: 1.5; stroke-linejoin: miter"/>
   </g>
   <g id="patch_64">
    <path d="M 1493.735971 637.977187 
L 1575.773282 637.977187 
L 1575.773282 550.826919 
L 1493.735971 550.826919 
z
" clip-path="url(#paf5160e2fb)" style="fill: #5875a4; stroke: #ffffff; stroke-width: 1.5; stroke-linejoin: miter"/>
   </g>
   <g id="patch_65">
    <path d="M 1596.28261 637.977187 
L 1678.319921 637.977187 
L 1678.319921 524.864868 
L 1596.28261 524.864868 
z
" clip-path="url(#paf5160e2fb)" style="fill: #5875a4; stroke: #ffffff; stroke-width: 1.5; stroke-linejoin: miter"/>
   </g>
   <g id="line2d_86">
    <path d="M 1432.207988 551.757554 
L 1432.207988 544.321623 
" clip-path="url(#paf5160e2fb)" style="fill: none; stroke: #424242; stroke-width: 4.05; stroke-linecap: round"/>
   </g>
   <g id="line2d_87">
    <path d="M 1534.754627 554.151723 
L 1534.754627 547.616157 
" clip-path="url(#paf5160e2fb)" style="fill: none; stroke: #424242; stroke-width: 4.05; stroke-linecap: round"/>
   </g>
   <g id="line2d_88">
    <path d="M 1637.301266 530.217781 
L 1637.301266 520.246889 
" clip-path="url(#paf5160e2fb)" style="fill: none; stroke: #424242; stroke-width: 4.05; stroke-linecap: round"/>
   </g>
   <g id="patch_66">
    <path d="M 1380.934668 637.977187 
L 1380.934668 347.187187 
" style="fill: none; stroke: #ffffff; stroke-width: 1.875; stroke-linejoin: miter; stroke-linecap: square"/>
   </g>
   <g id="patch_67">
    <path d="M 1380.934668 637.977187 
L 1688.574585 637.977187 
" style="fill: none; stroke: #ffffff; stroke-width: 1.875; stroke-linejoin: miter; stroke-linecap: square"/>
   </g>
  </g>
  <g id="axes_12">
   <g id="patch_68">
    <path d="M 1708.014585 637.977187 
L 2015.654502 637.977187 
L 2015.654502 347.187187 
L 1708.014585 347.187187 
z
" style="fill: #eaeaf2"/>
   </g>
   <g id="matplotlib.axis_23">
    <g id="xtick_34">
     <g id="text_40">
      <!-- wired -->
      <g style="fill: #262626" transform="translate(1736.729311 663.014609)scale(0.165 -0.165)">
       <use xlink:href="#DejaVuSans-77"/>
       <use xlink:href="#DejaVuSans-69" x="81.787109"/>
       <use xlink:href="#DejaVuSans-72" x="109.570312"/>
       <use xlink:href="#DejaVuSans-65" x="148.433594"/>
       <use xlink:href="#DejaVuSans-64" x="209.957031"/>
      </g>
     </g>
    </g>
    <g id="xtick_35">
     <g id="text_41">
      <!-- wireless -->
      <g style="fill: #262626" transform="translate(1828.549661 663.014609)scale(0.165 -0.165)">
       <use xlink:href="#DejaVuSans-77"/>
       <use xlink:href="#DejaVuSans-69" x="81.787109"/>
       <use xlink:href="#DejaVuSans-72" x="109.570312"/>
       <use xlink:href="#DejaVuSans-65" x="148.433594"/>
       <use xlink:href="#DejaVuSans-6c" x="209.957031"/>
       <use xlink:href="#DejaVuSans-65" x="237.740234"/>
       <use xlink:href="#DejaVuSans-73" x="299.263672"/>
       <use xlink:href="#DejaVuSans-73" x="351.363281"/>
      </g>
     </g>
    </g>
    <g id="xtick_36">
     <g id="text_42">
      <!-- plc -->
      <g style="fill: #262626" transform="translate(1952.315558 663.014609)scale(0.165 -0.165)">
       <use xlink:href="#DejaVuSans-70"/>
       <use xlink:href="#DejaVuSans-6c" x="63.476562"/>
       <use xlink:href="#DejaVuSans-63" x="91.259766"/>
      </g>
     </g>
    </g>
    <g id="text_43">
     <!-- Comm. -->
     <g style="fill: #262626" transform="translate(1829.6497 684.123281)scale(0.18 -0.18)">
      <use xlink:href="#DejaVuSans-43"/>
      <use xlink:href="#DejaVuSans-6f" x="69.824219"/>
      <use xlink:href="#DejaVuSans-6d" x="131.005859"/>
      <use xlink:href="#DejaVuSans-6d" x="228.417969"/>
      <use xlink:href="#DejaVuSans-2e" x="325.830078"/>
     </g>
    </g>
   </g>
   <g id="matplotlib.axis_24">
    <g id="ytick_56">
     <g id="line2d_89">
      <path d="M 1708.014585 637.977187 
L 2015.654502 637.977187 
" clip-path="url(#pf990006038)" style="fill: none; stroke: #ffffff; stroke-width: 1.5; stroke-linecap: round"/>
     </g>
    </g>
    <g id="ytick_57">
     <g id="line2d_90">
      <path d="M 1708.014585 567.581171 
L 2015.654502 567.581171 
" clip-path="url(#pf990006038)" style="fill: none; stroke: #ffffff; stroke-width: 1.5; stroke-linecap: round"/>
     </g>
    </g>
    <g id="ytick_58">
     <g id="line2d_91">
      <path d="M 1708.014585 497.185154 
L 2015.654502 497.185154 
" clip-path="url(#pf990006038)" style="fill: none; stroke: #ffffff; stroke-width: 1.5; stroke-linecap: round"/>
     </g>
    </g>
    <g id="ytick_59">
     <g id="line2d_92">
      <path d="M 1708.014585 426.789138 
L 2015.654502 426.789138 
" clip-path="url(#pf990006038)" style="fill: none; stroke: #ffffff; stroke-width: 1.5; stroke-linecap: round"/>
     </g>
    </g>
    <g id="ytick_60">
     <g id="line2d_93">
      <path d="M 1708.014585 356.393121 
L 2015.654502 356.393121 
" clip-path="url(#pf990006038)" style="fill: none; stroke: #ffffff; stroke-width: 1.5; stroke-linecap: round"/>
     </g>
    </g>
   </g>
   <g id="patch_69">
    <path d="M 1718.269249 637.977187 
L 1800.30656 637.977187 
L 1800.30656 548.85583 
L 1718.269249 548.85583 
z
" clip-path="url(#pf990006038)" style="fill: #5875a4; stroke: #ffffff; stroke-width: 1.5; stroke-linejoin: miter"/>
   </g>
   <g id="patch_70">
    <path d="M 1820.815888 637.977187 
L 1902.853199 637.977187 
L 1902.853199 550.545335 
L 1820.815888 550.545335 
z
" clip-path="url(#pf990006038)" style="fill: #5875a4; stroke: #ffffff; stroke-width: 1.5; stroke-linejoin: miter"/>
   </g>
   <g id="patch_71">
    <path d="M 1923.362527 637.977187 
L 2005.399838 637.977187 
L 2005.399838 527.905976 
L 1923.362527 527.905976 
z
" clip-path="url(#pf990006038)" style="fill: #5875a4; stroke: #ffffff; stroke-width: 1.5; stroke-linejoin: miter"/>
   </g>
   <g id="line2d_94">
    <path d="M 1759.287905 552.460106 
L 1759.287905 544.828474 
" clip-path="url(#pf990006038)" style="fill: none; stroke: #424242; stroke-width: 4.05; stroke-linecap: round"/>
   </g>
   <g id="line2d_95">
    <path d="M 1861.834544 554.684621 
L 1861.834544 546.349028 
" clip-path="url(#pf990006038)" style="fill: none; stroke: #424242; stroke-width: 4.05; stroke-linecap: round"/>
   </g>
   <g id="line2d_96">
    <path d="M 1964.381183 533.45459 
L 1964.381183 521.510498 
" clip-path="url(#pf990006038)" style="fill: none; stroke: #424242; stroke-width: 4.05; stroke-linecap: round"/>
   </g>
   <g id="patch_72">
    <path d="M 1708.014585 637.977187 
L 1708.014585 347.187187 
" style="fill: none; stroke: #ffffff; stroke-width: 1.875; stroke-linejoin: miter; stroke-linecap: square"/>
   </g>
   <g id="patch_73">
    <path d="M 1708.014585 637.977187 
L 2015.654502 637.977187 
" style="fill: none; stroke: #ffffff; stroke-width: 1.875; stroke-linejoin: miter; stroke-linecap: square"/>
   </g>
   <g id="text_44">
    <!-- decentralized -->
    <g style="fill: #262626" transform="translate(2025.550738 431.421562)rotate(-270)scale(0.18 -0.18)">
     <use xlink:href="#DejaVuSans-64"/>
     <use xlink:href="#DejaVuSans-65" x="63.476562"/>
     <use xlink:href="#DejaVuSans-63" x="125"/>
     <use xlink:href="#DejaVuSans-65" x="179.980469"/>
     <use xlink:href="#DejaVuSans-6e" x="241.503906"/>
     <use xlink:href="#DejaVuSans-74" x="304.882812"/>
     <use xlink:href="#DejaVuSans-72" x="344.091797"/>
     <use xlink:href="#DejaVuSans-61" x="385.205078"/>
     <use xlink:href="#DejaVuSans-6c" x="446.484375"/>
     <use xlink:href="#DejaVuSans-69" x="474.267578"/>
     <use xlink:href="#DejaVuSans-7a" x="502.050781"/>
     <use xlink:href="#DejaVuSans-65" x="554.541016"/>
     <use xlink:href="#DejaVuSans-64" x="616.064453"/>
    </g>
   </g>
  </g>
  <g id="legend_1">
   <g id="text_45">
    <!-- Phase -->
    <g style="fill: #262626" transform="translate(2147.029453 340.390781)scale(0.18 -0.18)">
     <defs>
      <path id="DejaVuSans-50" d="M 1259 4147 
L 1259 2394 
L 2053 2394 
Q 2494 2394 2734 2622 
Q 2975 2850 2975 3272 
Q 2975 3691 2734 3919 
Q 2494 4147 2053 4147 
L 1259 4147 
z
M 628 4666 
L 2053 4666 
Q 2838 4666 3239 4311 
Q 3641 3956 3641 3272 
Q 3641 2581 3239 2228 
Q 2838 1875 2053 1875 
L 1259 1875 
L 1259 0 
L 628 0 
L 628 4666 
z
" transform="scale(0.015625)"/>
     </defs>
     <use xlink:href="#DejaVuSans-50"/>
     <use xlink:href="#DejaVuSans-68" x="60.302734"/>
     <use xlink:href="#DejaVuSans-61" x="123.681641"/>
     <use xlink:href="#DejaVuSans-73" x="184.960938"/>
     <use xlink:href="#DejaVuSans-65" x="237.060547"/>
    </g>
   </g>
   <g id="patch_74">
    <path d="M 2145.157969 364.921641 
L 2178.157969 364.921641 
L 2178.157969 353.371641 
L 2145.157969 353.371641 
z
" style="fill: #5875a4; stroke: #ffffff; stroke-width: 1.5; stroke-linejoin: miter"/>
   </g>
   <g id="text_46">
    <!-- A -->
    <g style="fill: #262626" transform="translate(2191.357969 364.921641)scale(0.165 -0.165)">
     <defs>
      <path id="DejaVuSans-41" d="M 2188 4044 
L 1331 1722 
L 3047 1722 
L 2188 4044 
z
M 1831 4666 
L 2547 4666 
L 4325 0 
L 3669 0 
L 3244 1197 
L 1141 1197 
L 716 0 
L 50 0 
L 1831 4666 
z
" transform="scale(0.015625)"/>
     </defs>
     <use xlink:href="#DejaVuSans-41"/>
    </g>
   </g>
  </g>
 </g>
 <defs>
  <clipPath id="p13708f9074">
   <rect x="72.615" y="26.877187" width="307.639917" height="290.79"/>
  </clipPath>
  <clipPath id="p17c0694bd5">
   <rect x="399.694917" y="26.877187" width="307.639917" height="290.79"/>
  </clipPath>
  <clipPath id="p715983caf5">
   <rect x="726.774834" y="26.877187" width="307.639917" height="290.79"/>
  </clipPath>
  <clipPath id="p5c45274f1d">
   <rect x="1053.854751" y="26.877187" width="307.639917" height="290.79"/>
  </clipPath>
  <clipPath id="p85712b5b02">
   <rect x="1380.934668" y="26.877187" width="307.639917" height="290.79"/>
  </clipPath>
  <clipPath id="pe07f715947">
   <rect x="1708.014585" y="26.877187" width="307.639917" height="290.79"/>
  </clipPath>
  <clipPath id="pff8b918d76">
   <rect x="72.615" y="347.187187" width="307.639917" height="290.79"/>
  </clipPath>
  <clipPath id="p39b9d901bc">
   <rect x="399.694917" y="347.187187" width="307.639917" height="290.79"/>
  </clipPath>
  <clipPath id="p20406ae80c">
   <rect x="726.774834" y="347.187187" width="307.639917" height="290.79"/>
  </clipPath>
  <clipPath id="p9472c2cfde">
   <rect x="1053.854751" y="347.187187" width="307.639917" height="290.79"/>
  </clipPath>
  <clipPath id="paf5160e2fb">
   <rect x="1380.934668" y="347.187187" width="307.639917" height="290.79"/>
  </clipPath>
  <clipPath id="pf990006038">
   <rect x="1708.014585" y="347.187187" width="307.639917" height="290.79"/>
  </clipPath>
 </defs>
</svg>
